PWD c:\Users\Admin\Desktop\PAP2\233 Versuch\tex
INPUT C:\Users\Admin\AppData\Local\MiKTeX\miktex\data\le\pdftex\pdflatex.fmt
INPUT c:\Users\Admin\Desktop\PAP2\233 Versuch\tex\Versuch233.tex
OUTPUT Versuch233.log
INPUT C:\Users\Admin\AppData\Local\Programs\MiKTeX\tex\latex\base\article.cls
INPUT C:\Users\Admin\AppData\Local\Programs\MiKTeX\tex\latex\base\article.cls
INPUT C:\Users\Admin\AppData\Local\Programs\MiKTeX\tex\latex\base\article.cls
INPUT C:\Users\Admin\AppData\Local\Programs\MiKTeX\tex\latex\base\article.cls
INPUT C:\Users\Admin\AppData\Local\Programs\MiKTeX\tex\latex\base\article.cls
INPUT C:\Users\Admin\AppData\Local\Programs\MiKTeX\tex\latex\base\article.cls
INPUT C:\Users\Admin\AppData\Local\Programs\MiKTeX\tex\latex\base\article.cls
INPUT C:\Users\Admin\AppData\Local\Programs\MiKTeX\tex\latex\base\article.cls
INPUT C:\Users\Admin\AppData\Local\Programs\MiKTeX\tex\latex\base\article.cls
INPUT C:\Users\Admin\AppData\Local\Programs\MiKTeX\tex\latex\base\article.cls
INPUT C:\Users\Admin\AppData\Local\Programs\MiKTeX\tex\latex\base\article.cls
INPUT C:\Users\Admin\AppData\Local\Programs\MiKTeX\tex\latex\base\size10.clo
INPUT C:\Users\Admin\AppData\Local\Programs\MiKTeX\tex\latex\base\size10.clo
INPUT C:\Users\Admin\AppData\Local\Programs\MiKTeX\tex\latex\base\size10.clo
INPUT C:\Users\Admin\AppData\Local\Programs\MiKTeX\tex\latex\base\size10.clo
INPUT C:\Users\Admin\AppData\Local\Programs\MiKTeX\tex\generic\babel\babel.sty
INPUT C:\Users\Admin\AppData\Local\Programs\MiKTeX\tex\generic\babel\babel.sty
INPUT C:\Users\Admin\AppData\Local\Programs\MiKTeX\tex\generic\babel\babel.sty
INPUT C:\Users\Admin\AppData\Local\Programs\MiKTeX\tex\generic\babel\babel.sty
INPUT C:\Users\Admin\AppData\Local\Programs\MiKTeX\tex\generic\babel\babel.sty
INPUT C:\Users\Admin\AppData\Local\Programs\MiKTeX\tex\generic\babel\babel.sty
INPUT C:\Users\Admin\AppData\Local\Programs\MiKTeX\tex\generic\babel\babel.sty
INPUT C:\Users\Admin\AppData\Local\Programs\MiKTeX\tex\generic\babel\babel.sty
INPUT C:\Users\Admin\AppData\Local\Programs\MiKTeX\tex\generic\babel\babel.sty
INPUT C:\Users\Admin\AppData\Local\Programs\MiKTeX\tex\generic\babel\babel.sty
INPUT C:\Users\Admin\AppData\Local\Programs\MiKTeX\tex\generic\babel\babel.sty
INPUT C:\Users\Admin\AppData\Local\Programs\MiKTeX\tex\generic\babel\txtbabel.def
INPUT C:\Users\Admin\AppData\Local\Programs\MiKTeX\tex\latex\arabi\bblopts.cfg
INPUT C:\Users\Admin\AppData\Local\Programs\MiKTeX\tex\latex\arabi\bblopts.cfg
INPUT C:\Users\Admin\AppData\Local\Programs\MiKTeX\tex\latex\arabi\bblopts.cfg
INPUT C:\Users\Admin\AppData\Local\Programs\MiKTeX\tex\latex\arabi\bblopts.cfg
INPUT C:\Users\Admin\AppData\Local\Programs\MiKTeX\tex\latex\babel-german\ngerman.ldf
INPUT C:\Users\Admin\AppData\Local\Programs\MiKTeX\tex\latex\babel-german\ngerman.ldf
INPUT C:\Users\Admin\AppData\Local\Programs\MiKTeX\tex\latex\babel-german\ngerman.ldf
INPUT C:\Users\Admin\AppData\Local\Programs\MiKTeX\tex\latex\babel-german\ngerman.ldf
INPUT C:\Users\Admin\AppData\Local\Programs\MiKTeX\tex\latex\babel-german\ngermanb.ldf
INPUT C:\Users\Admin\AppData\Local\Programs\MiKTeX\tex\latex\amsmath\amsmath.sty
INPUT C:\Users\Admin\AppData\Local\Programs\MiKTeX\tex\latex\amsmath\amsmath.sty
INPUT C:\Users\Admin\AppData\Local\Programs\MiKTeX\tex\latex\amsmath\amsmath.sty
INPUT C:\Users\Admin\AppData\Local\Programs\MiKTeX\tex\latex\amsmath\amsmath.sty
INPUT C:\Users\Admin\AppData\Local\Programs\MiKTeX\tex\latex\amsmath\amsmath.sty
INPUT C:\Users\Admin\AppData\Local\Programs\MiKTeX\tex\latex\amsmath\amsmath.sty
INPUT C:\Users\Admin\AppData\Local\Programs\MiKTeX\tex\latex\amsmath\amsmath.sty
INPUT C:\Users\Admin\AppData\Local\Programs\MiKTeX\tex\latex\amsmath\amsmath.sty
INPUT C:\Users\Admin\AppData\Local\Programs\MiKTeX\tex\latex\amsmath\amsmath.sty
INPUT C:\Users\Admin\AppData\Local\Programs\MiKTeX\tex\latex\amsmath\amsmath.sty
INPUT C:\Users\Admin\AppData\Local\Programs\MiKTeX\tex\latex\amsmath\amsmath.sty
INPUT C:\Users\Admin\AppData\Local\Programs\MiKTeX\tex\latex\amsmath\amsopn.sty
INPUT C:\Users\Admin\AppData\Local\Programs\MiKTeX\tex\latex\amsmath\amsopn.sty
INPUT C:\Users\Admin\AppData\Local\Programs\MiKTeX\tex\latex\amsmath\amstext.sty
INPUT C:\Users\Admin\AppData\Local\Programs\MiKTeX\tex\latex\amsmath\amstext.sty
INPUT C:\Users\Admin\AppData\Local\Programs\MiKTeX\tex\latex\amsmath\amstext.sty
INPUT C:\Users\Admin\AppData\Local\Programs\MiKTeX\tex\latex\amsmath\amstext.sty
INPUT C:\Users\Admin\AppData\Local\Programs\MiKTeX\tex\latex\amsmath\amstext.sty
INPUT C:\Users\Admin\AppData\Local\Programs\MiKTeX\tex\latex\amsmath\amstext.sty
INPUT C:\Users\Admin\AppData\Local\Programs\MiKTeX\tex\latex\amsmath\amstext.sty
INPUT C:\Users\Admin\AppData\Local\Programs\MiKTeX\tex\latex\amsmath\amstext.sty
INPUT C:\Users\Admin\AppData\Local\Programs\MiKTeX\tex\latex\amsmath\amstext.sty
INPUT C:\Users\Admin\AppData\Local\Programs\MiKTeX\tex\latex\amsmath\amstext.sty
INPUT C:\Users\Admin\AppData\Local\Programs\MiKTeX\tex\latex\amsmath\amstext.sty
INPUT C:\Users\Admin\AppData\Local\Programs\MiKTeX\tex\latex\amsmath\amsgen.sty
INPUT C:\Users\Admin\AppData\Local\Programs\MiKTeX\tex\latex\amsmath\amsgen.sty
INPUT C:\Users\Admin\AppData\Local\Programs\MiKTeX\tex\latex\amsmath\amsgen.sty
INPUT C:\Users\Admin\AppData\Local\Programs\MiKTeX\tex\latex\amsmath\amsgen.sty
INPUT C:\Users\Admin\AppData\Local\Programs\MiKTeX\tex\latex\amsmath\amsgen.sty
INPUT C:\Users\Admin\AppData\Local\Programs\MiKTeX\tex\latex\amsmath\amsgen.sty
INPUT C:\Users\Admin\AppData\Local\Programs\MiKTeX\tex\latex\amsmath\amsgen.sty
INPUT C:\Users\Admin\AppData\Local\Programs\MiKTeX\tex\latex\amsmath\amsgen.sty
INPUT C:\Users\Admin\AppData\Local\Programs\MiKTeX\tex\latex\amsmath\amsgen.sty
INPUT C:\Users\Admin\AppData\Local\Programs\MiKTeX\tex\latex\amsmath\amsgen.sty
INPUT C:\Users\Admin\AppData\Local\Programs\MiKTeX\tex\latex\amsmath\amsgen.sty
INPUT C:\Users\Admin\AppData\Local\Programs\MiKTeX\tex\latex\amsmath\amsbsy.sty
INPUT C:\Users\Admin\AppData\Local\Programs\MiKTeX\tex\latex\amsmath\amsbsy.sty
INPUT C:\Users\Admin\AppData\Local\Programs\MiKTeX\tex\latex\amsmath\amsbsy.sty
INPUT C:\Users\Admin\AppData\Local\Programs\MiKTeX\tex\latex\amsmath\amsbsy.sty
INPUT C:\Users\Admin\AppData\Local\Programs\MiKTeX\tex\latex\amsmath\amsbsy.sty
INPUT C:\Users\Admin\AppData\Local\Programs\MiKTeX\tex\latex\amsmath\amsbsy.sty
INPUT C:\Users\Admin\AppData\Local\Programs\MiKTeX\tex\latex\amsmath\amsbsy.sty
INPUT C:\Users\Admin\AppData\Local\Programs\MiKTeX\tex\latex\amsmath\amsbsy.sty
INPUT C:\Users\Admin\AppData\Local\Programs\MiKTeX\tex\latex\amsmath\amsbsy.sty
INPUT C:\Users\Admin\AppData\Local\Programs\MiKTeX\tex\latex\amsmath\amsbsy.sty
INPUT C:\Users\Admin\AppData\Local\Programs\MiKTeX\tex\latex\amsmath\amsbsy.sty
INPUT C:\Users\Admin\AppData\Local\Programs\MiKTeX\tex\latex\amsmath\amsgen.sty
INPUT C:\Users\Admin\AppData\Local\Programs\MiKTeX\tex\latex\amsmath\amsopn.sty
INPUT C:\Users\Admin\AppData\Local\Programs\MiKTeX\tex\latex\amsmath\amsopn.sty
INPUT C:\Users\Admin\AppData\Local\Programs\MiKTeX\tex\latex\amsmath\amsopn.sty
INPUT C:\Users\Admin\AppData\Local\Programs\MiKTeX\tex\latex\amsmath\amsopn.sty
INPUT C:\Users\Admin\AppData\Local\Programs\MiKTeX\tex\latex\amsmath\amsopn.sty
INPUT C:\Users\Admin\AppData\Local\Programs\MiKTeX\tex\latex\amsmath\amsopn.sty
INPUT C:\Users\Admin\AppData\Local\Programs\MiKTeX\tex\latex\amsmath\amsopn.sty
INPUT C:\Users\Admin\AppData\Local\Programs\MiKTeX\tex\latex\amsmath\amsopn.sty
INPUT C:\Users\Admin\AppData\Local\Programs\MiKTeX\tex\latex\amsmath\amsopn.sty
INPUT C:\Users\Admin\AppData\Local\Programs\MiKTeX\tex\latex\amsmath\amsopn.sty
INPUT C:\Users\Admin\AppData\Local\Programs\MiKTeX\tex\latex\amsmath\amsopn.sty
INPUT C:\Users\Admin\AppData\Local\Programs\MiKTeX\tex\latex\amsmath\amsgen.sty
INPUT C:\Users\Admin\AppData\Local\Programs\MiKTeX\tex\latex\amsfonts\amssymb.sty
INPUT C:\Users\Admin\AppData\Local\Programs\MiKTeX\tex\latex\amsfonts\amssymb.sty
INPUT C:\Users\Admin\AppData\Local\Programs\MiKTeX\tex\latex\amsfonts\amssymb.sty
INPUT C:\Users\Admin\AppData\Local\Programs\MiKTeX\tex\latex\amsfonts\amssymb.sty
INPUT C:\Users\Admin\AppData\Local\Programs\MiKTeX\tex\latex\amsfonts\amssymb.sty
INPUT C:\Users\Admin\AppData\Local\Programs\MiKTeX\tex\latex\amsfonts\amssymb.sty
INPUT C:\Users\Admin\AppData\Local\Programs\MiKTeX\tex\latex\amsfonts\amssymb.sty
INPUT C:\Users\Admin\AppData\Local\Programs\MiKTeX\tex\latex\amsfonts\amssymb.sty
INPUT C:\Users\Admin\AppData\Local\Programs\MiKTeX\tex\latex\amsfonts\amssymb.sty
INPUT C:\Users\Admin\AppData\Local\Programs\MiKTeX\tex\latex\amsfonts\amssymb.sty
INPUT C:\Users\Admin\AppData\Local\Programs\MiKTeX\tex\latex\amsfonts\amssymb.sty
INPUT C:\Users\Admin\AppData\Local\Programs\MiKTeX\tex\latex\amsfonts\amsfonts.sty
INPUT C:\Users\Admin\AppData\Local\Programs\MiKTeX\tex\latex\amsfonts\amsfonts.sty
INPUT C:\Users\Admin\AppData\Local\Programs\MiKTeX\tex\latex\amsfonts\amsfonts.sty
INPUT C:\Users\Admin\AppData\Local\Programs\MiKTeX\tex\latex\amsfonts\amsfonts.sty
INPUT C:\Users\Admin\AppData\Local\Programs\MiKTeX\tex\latex\amsfonts\amsfonts.sty
INPUT C:\Users\Admin\AppData\Local\Programs\MiKTeX\tex\latex\amsfonts\amsfonts.sty
INPUT C:\Users\Admin\AppData\Local\Programs\MiKTeX\tex\latex\amsfonts\amsfonts.sty
INPUT C:\Users\Admin\AppData\Local\Programs\MiKTeX\tex\latex\amsfonts\amsfonts.sty
INPUT C:\Users\Admin\AppData\Local\Programs\MiKTeX\tex\latex\amsfonts\amsfonts.sty
INPUT C:\Users\Admin\AppData\Local\Programs\MiKTeX\tex\latex\amsfonts\amsfonts.sty
INPUT C:\Users\Admin\AppData\Local\Programs\MiKTeX\tex\latex\amsfonts\amsfonts.sty
INPUT C:\Users\Admin\AppData\Local\Programs\MiKTeX\tex\latex\mathtools\mathtools.sty
INPUT C:\Users\Admin\AppData\Local\Programs\MiKTeX\tex\latex\mathtools\mathtools.sty
INPUT C:\Users\Admin\AppData\Local\Programs\MiKTeX\tex\latex\mathtools\mathtools.sty
INPUT C:\Users\Admin\AppData\Local\Programs\MiKTeX\tex\latex\mathtools\mathtools.sty
INPUT C:\Users\Admin\AppData\Local\Programs\MiKTeX\tex\latex\mathtools\mathtools.sty
INPUT C:\Users\Admin\AppData\Local\Programs\MiKTeX\tex\latex\mathtools\mathtools.sty
INPUT C:\Users\Admin\AppData\Local\Programs\MiKTeX\tex\latex\mathtools\mathtools.sty
INPUT C:\Users\Admin\AppData\Local\Programs\MiKTeX\tex\latex\mathtools\mathtools.sty
INPUT C:\Users\Admin\AppData\Local\Programs\MiKTeX\tex\latex\mathtools\mathtools.sty
INPUT C:\Users\Admin\AppData\Local\Programs\MiKTeX\tex\latex\mathtools\mathtools.sty
INPUT C:\Users\Admin\AppData\Local\Programs\MiKTeX\tex\latex\mathtools\mathtools.sty
INPUT C:\Users\Admin\AppData\Local\Programs\MiKTeX\tex\latex\graphics\keyval.sty
INPUT C:\Users\Admin\AppData\Local\Programs\MiKTeX\tex\latex\graphics\keyval.sty
INPUT C:\Users\Admin\AppData\Local\Programs\MiKTeX\tex\latex\graphics\keyval.sty
INPUT C:\Users\Admin\AppData\Local\Programs\MiKTeX\tex\latex\graphics\keyval.sty
INPUT C:\Users\Admin\AppData\Local\Programs\MiKTeX\tex\latex\graphics\keyval.sty
INPUT C:\Users\Admin\AppData\Local\Programs\MiKTeX\tex\latex\graphics\keyval.sty
INPUT C:\Users\Admin\AppData\Local\Programs\MiKTeX\tex\latex\graphics\keyval.sty
INPUT C:\Users\Admin\AppData\Local\Programs\MiKTeX\tex\latex\graphics\keyval.sty
INPUT C:\Users\Admin\AppData\Local\Programs\MiKTeX\tex\latex\graphics\keyval.sty
INPUT C:\Users\Admin\AppData\Local\Programs\MiKTeX\tex\latex\graphics\keyval.sty
INPUT C:\Users\Admin\AppData\Local\Programs\MiKTeX\tex\latex\graphics\keyval.sty
INPUT C:\Users\Admin\AppData\Local\Programs\MiKTeX\tex\latex\tools\calc.sty
INPUT C:\Users\Admin\AppData\Local\Programs\MiKTeX\tex\latex\tools\calc.sty
INPUT C:\Users\Admin\AppData\Local\Programs\MiKTeX\tex\latex\tools\calc.sty
INPUT C:\Users\Admin\AppData\Local\Programs\MiKTeX\tex\latex\tools\calc.sty
INPUT C:\Users\Admin\AppData\Local\Programs\MiKTeX\tex\latex\tools\calc.sty
INPUT C:\Users\Admin\AppData\Local\Programs\MiKTeX\tex\latex\tools\calc.sty
INPUT C:\Users\Admin\AppData\Local\Programs\MiKTeX\tex\latex\tools\calc.sty
INPUT C:\Users\Admin\AppData\Local\Programs\MiKTeX\tex\latex\tools\calc.sty
INPUT C:\Users\Admin\AppData\Local\Programs\MiKTeX\tex\latex\tools\calc.sty
INPUT C:\Users\Admin\AppData\Local\Programs\MiKTeX\tex\latex\tools\calc.sty
INPUT C:\Users\Admin\AppData\Local\Programs\MiKTeX\tex\latex\tools\calc.sty
INPUT C:\Users\Admin\AppData\Local\Programs\MiKTeX\tex\latex\mathtools\mhsetup.sty
INPUT C:\Users\Admin\AppData\Local\Programs\MiKTeX\tex\latex\mathtools\mhsetup.sty
INPUT C:\Users\Admin\AppData\Local\Programs\MiKTeX\tex\latex\mathtools\mhsetup.sty
INPUT C:\Users\Admin\AppData\Local\Programs\MiKTeX\tex\latex\mathtools\mhsetup.sty
INPUT C:\Users\Admin\AppData\Local\Programs\MiKTeX\tex\latex\mathtools\mhsetup.sty
INPUT C:\Users\Admin\AppData\Local\Programs\MiKTeX\tex\latex\mathtools\mhsetup.sty
INPUT C:\Users\Admin\AppData\Local\Programs\MiKTeX\tex\latex\mathtools\mhsetup.sty
INPUT C:\Users\Admin\AppData\Local\Programs\MiKTeX\tex\latex\mathtools\mhsetup.sty
INPUT C:\Users\Admin\AppData\Local\Programs\MiKTeX\tex\latex\mathtools\mhsetup.sty
INPUT C:\Users\Admin\AppData\Local\Programs\MiKTeX\tex\latex\mathtools\mhsetup.sty
INPUT C:\Users\Admin\AppData\Local\Programs\MiKTeX\tex\latex\mathtools\mhsetup.sty
INPUT C:\Users\Admin\AppData\Local\Programs\MiKTeX\tex\latex\amsmath\amsmath.sty
INPUT C:\Users\Admin\AppData\Local\Programs\MiKTeX\tex\latex\graphics\graphicx.sty
INPUT C:\Users\Admin\AppData\Local\Programs\MiKTeX\tex\latex\graphics\graphicx.sty
INPUT C:\Users\Admin\AppData\Local\Programs\MiKTeX\tex\latex\graphics\graphicx.sty
INPUT C:\Users\Admin\AppData\Local\Programs\MiKTeX\tex\latex\graphics\graphicx.sty
INPUT C:\Users\Admin\AppData\Local\Programs\MiKTeX\tex\latex\graphics\graphicx.sty
INPUT C:\Users\Admin\AppData\Local\Programs\MiKTeX\tex\latex\graphics\graphicx.sty
INPUT C:\Users\Admin\AppData\Local\Programs\MiKTeX\tex\latex\graphics\graphicx.sty
INPUT C:\Users\Admin\AppData\Local\Programs\MiKTeX\tex\latex\graphics\graphicx.sty
INPUT C:\Users\Admin\AppData\Local\Programs\MiKTeX\tex\latex\graphics\graphicx.sty
INPUT C:\Users\Admin\AppData\Local\Programs\MiKTeX\tex\latex\graphics\graphicx.sty
INPUT C:\Users\Admin\AppData\Local\Programs\MiKTeX\tex\latex\graphics\graphicx.sty
INPUT C:\Users\Admin\AppData\Local\Programs\MiKTeX\tex\latex\graphics\keyval.sty
INPUT C:\Users\Admin\AppData\Local\Programs\MiKTeX\tex\latex\graphics\graphics.sty
INPUT C:\Users\Admin\AppData\Local\Programs\MiKTeX\tex\latex\graphics\graphics.sty
INPUT C:\Users\Admin\AppData\Local\Programs\MiKTeX\tex\latex\graphics\graphics.sty
INPUT C:\Users\Admin\AppData\Local\Programs\MiKTeX\tex\latex\graphics\graphics.sty
INPUT C:\Users\Admin\AppData\Local\Programs\MiKTeX\tex\latex\graphics\graphics.sty
INPUT C:\Users\Admin\AppData\Local\Programs\MiKTeX\tex\latex\graphics\graphics.sty
INPUT C:\Users\Admin\AppData\Local\Programs\MiKTeX\tex\latex\graphics\graphics.sty
INPUT C:\Users\Admin\AppData\Local\Programs\MiKTeX\tex\latex\graphics\graphics.sty
INPUT C:\Users\Admin\AppData\Local\Programs\MiKTeX\tex\latex\graphics\graphics.sty
INPUT C:\Users\Admin\AppData\Local\Programs\MiKTeX\tex\latex\graphics\graphics.sty
INPUT C:\Users\Admin\AppData\Local\Programs\MiKTeX\tex\latex\graphics\graphics.sty
INPUT C:\Users\Admin\AppData\Local\Programs\MiKTeX\tex\latex\graphics\trig.sty
INPUT C:\Users\Admin\AppData\Local\Programs\MiKTeX\tex\latex\graphics\trig.sty
INPUT C:\Users\Admin\AppData\Local\Programs\MiKTeX\tex\latex\graphics\trig.sty
INPUT C:\Users\Admin\AppData\Local\Programs\MiKTeX\tex\latex\graphics\trig.sty
INPUT C:\Users\Admin\AppData\Local\Programs\MiKTeX\tex\latex\graphics\trig.sty
INPUT C:\Users\Admin\AppData\Local\Programs\MiKTeX\tex\latex\graphics\trig.sty
INPUT C:\Users\Admin\AppData\Local\Programs\MiKTeX\tex\latex\graphics\trig.sty
INPUT C:\Users\Admin\AppData\Local\Programs\MiKTeX\tex\latex\graphics\trig.sty
INPUT C:\Users\Admin\AppData\Local\Programs\MiKTeX\tex\latex\graphics\trig.sty
INPUT C:\Users\Admin\AppData\Local\Programs\MiKTeX\tex\latex\graphics\trig.sty
INPUT C:\Users\Admin\AppData\Local\Programs\MiKTeX\tex\latex\graphics\trig.sty
INPUT C:\Users\Admin\AppData\Local\Programs\MiKTeX\tex\latex\graphics-cfg\graphics.cfg
INPUT C:\Users\Admin\AppData\Local\Programs\MiKTeX\tex\latex\graphics-cfg\graphics.cfg
INPUT C:\Users\Admin\AppData\Local\Programs\MiKTeX\tex\latex\graphics-cfg\graphics.cfg
INPUT C:\Users\Admin\AppData\Local\Programs\MiKTeX\tex\latex\graphics-cfg\graphics.cfg
INPUT C:\Users\Admin\AppData\Local\Programs\MiKTeX\tex\latex\graphics-def\pdftex.def
INPUT C:\Users\Admin\AppData\Local\Programs\MiKTeX\tex\latex\graphics-def\pdftex.def
INPUT C:\Users\Admin\AppData\Local\Programs\MiKTeX\tex\latex\graphics-def\pdftex.def
INPUT C:\Users\Admin\AppData\Local\Programs\MiKTeX\tex\latex\graphics-def\pdftex.def
INPUT C:\Users\Admin\AppData\Local\Programs\MiKTeX\tex\latex\fancyhdr\fancyhdr.sty
INPUT C:\Users\Admin\AppData\Local\Programs\MiKTeX\tex\latex\fancyhdr\fancyhdr.sty
INPUT C:\Users\Admin\AppData\Local\Programs\MiKTeX\tex\latex\fancyhdr\fancyhdr.sty
INPUT C:\Users\Admin\AppData\Local\Programs\MiKTeX\tex\latex\fancyhdr\fancyhdr.sty
INPUT C:\Users\Admin\AppData\Local\Programs\MiKTeX\tex\latex\fancyhdr\fancyhdr.sty
INPUT C:\Users\Admin\AppData\Local\Programs\MiKTeX\tex\latex\fancyhdr\fancyhdr.sty
INPUT C:\Users\Admin\AppData\Local\Programs\MiKTeX\tex\latex\fancyhdr\fancyhdr.sty
INPUT C:\Users\Admin\AppData\Local\Programs\MiKTeX\tex\latex\fancyhdr\fancyhdr.sty
INPUT C:\Users\Admin\AppData\Local\Programs\MiKTeX\tex\latex\fancyhdr\fancyhdr.sty
INPUT C:\Users\Admin\AppData\Local\Programs\MiKTeX\tex\latex\fancyhdr\fancyhdr.sty
INPUT C:\Users\Admin\AppData\Local\Programs\MiKTeX\tex\latex\fancyhdr\fancyhdr.sty
INPUT C:\Users\Admin\AppData\Local\Programs\MiKTeX\tex\latex\wrapfig\wrapfig.sty
INPUT C:\Users\Admin\AppData\Local\Programs\MiKTeX\tex\latex\wrapfig\wrapfig.sty
INPUT C:\Users\Admin\AppData\Local\Programs\MiKTeX\tex\latex\wrapfig\wrapfig.sty
INPUT C:\Users\Admin\AppData\Local\Programs\MiKTeX\tex\latex\wrapfig\wrapfig.sty
INPUT C:\Users\Admin\AppData\Local\Programs\MiKTeX\tex\latex\wrapfig\wrapfig.sty
INPUT C:\Users\Admin\AppData\Local\Programs\MiKTeX\tex\latex\wrapfig\wrapfig.sty
INPUT C:\Users\Admin\AppData\Local\Programs\MiKTeX\tex\latex\wrapfig\wrapfig.sty
INPUT C:\Users\Admin\AppData\Local\Programs\MiKTeX\tex\latex\wrapfig\wrapfig.sty
INPUT C:\Users\Admin\AppData\Local\Programs\MiKTeX\tex\latex\wrapfig\wrapfig.sty
INPUT C:\Users\Admin\AppData\Local\Programs\MiKTeX\tex\latex\wrapfig\wrapfig.sty
INPUT C:\Users\Admin\AppData\Local\Programs\MiKTeX\tex\latex\wrapfig\wrapfig.sty
INPUT C:\Users\Admin\AppData\Local\Programs\MiKTeX\tex\latex\pdfpages\pdfpages.sty
INPUT C:\Users\Admin\AppData\Local\Programs\MiKTeX\tex\latex\pdfpages\pdfpages.sty
INPUT C:\Users\Admin\AppData\Local\Programs\MiKTeX\tex\latex\pdfpages\pdfpages.sty
INPUT C:\Users\Admin\AppData\Local\Programs\MiKTeX\tex\latex\pdfpages\pdfpages.sty
INPUT C:\Users\Admin\AppData\Local\Programs\MiKTeX\tex\latex\pdfpages\pdfpages.sty
INPUT C:\Users\Admin\AppData\Local\Programs\MiKTeX\tex\latex\pdfpages\pdfpages.sty
INPUT C:\Users\Admin\AppData\Local\Programs\MiKTeX\tex\latex\pdfpages\pdfpages.sty
INPUT C:\Users\Admin\AppData\Local\Programs\MiKTeX\tex\latex\pdfpages\pdfpages.sty
INPUT C:\Users\Admin\AppData\Local\Programs\MiKTeX\tex\latex\pdfpages\pdfpages.sty
INPUT C:\Users\Admin\AppData\Local\Programs\MiKTeX\tex\latex\pdfpages\pdfpages.sty
INPUT C:\Users\Admin\AppData\Local\Programs\MiKTeX\tex\latex\pdfpages\pdfpages.sty
INPUT C:\Users\Admin\AppData\Local\Programs\MiKTeX\tex\latex\base\ifthen.sty
INPUT C:\Users\Admin\AppData\Local\Programs\MiKTeX\tex\latex\base\ifthen.sty
INPUT C:\Users\Admin\AppData\Local\Programs\MiKTeX\tex\latex\base\ifthen.sty
INPUT C:\Users\Admin\AppData\Local\Programs\MiKTeX\tex\latex\base\ifthen.sty
INPUT C:\Users\Admin\AppData\Local\Programs\MiKTeX\tex\latex\base\ifthen.sty
INPUT C:\Users\Admin\AppData\Local\Programs\MiKTeX\tex\latex\base\ifthen.sty
INPUT C:\Users\Admin\AppData\Local\Programs\MiKTeX\tex\latex\base\ifthen.sty
INPUT C:\Users\Admin\AppData\Local\Programs\MiKTeX\tex\latex\base\ifthen.sty
INPUT C:\Users\Admin\AppData\Local\Programs\MiKTeX\tex\latex\base\ifthen.sty
INPUT C:\Users\Admin\AppData\Local\Programs\MiKTeX\tex\latex\base\ifthen.sty
INPUT C:\Users\Admin\AppData\Local\Programs\MiKTeX\tex\latex\base\ifthen.sty
INPUT C:\Users\Admin\AppData\Local\Programs\MiKTeX\tex\latex\tools\calc.sty
INPUT C:\Users\Admin\AppData\Local\Programs\MiKTeX\tex\latex\eso-pic\eso-pic.sty
INPUT C:\Users\Admin\AppData\Local\Programs\MiKTeX\tex\latex\eso-pic\eso-pic.sty
INPUT C:\Users\Admin\AppData\Local\Programs\MiKTeX\tex\latex\eso-pic\eso-pic.sty
INPUT C:\Users\Admin\AppData\Local\Programs\MiKTeX\tex\latex\eso-pic\eso-pic.sty
INPUT C:\Users\Admin\AppData\Local\Programs\MiKTeX\tex\latex\eso-pic\eso-pic.sty
INPUT C:\Users\Admin\AppData\Local\Programs\MiKTeX\tex\latex\eso-pic\eso-pic.sty
INPUT C:\Users\Admin\AppData\Local\Programs\MiKTeX\tex\latex\eso-pic\eso-pic.sty
INPUT C:\Users\Admin\AppData\Local\Programs\MiKTeX\tex\latex\eso-pic\eso-pic.sty
INPUT C:\Users\Admin\AppData\Local\Programs\MiKTeX\tex\latex\eso-pic\eso-pic.sty
INPUT C:\Users\Admin\AppData\Local\Programs\MiKTeX\tex\latex\eso-pic\eso-pic.sty
INPUT C:\Users\Admin\AppData\Local\Programs\MiKTeX\tex\latex\eso-pic\eso-pic.sty
INPUT C:\Users\Admin\AppData\Local\Programs\MiKTeX\tex\latex\graphics\keyval.sty
INPUT C:\Users\Admin\AppData\Local\Programs\MiKTeX\tex\latex\xcolor\xcolor.sty
INPUT C:\Users\Admin\AppData\Local\Programs\MiKTeX\tex\latex\xcolor\xcolor.sty
INPUT C:\Users\Admin\AppData\Local\Programs\MiKTeX\tex\latex\xcolor\xcolor.sty
INPUT C:\Users\Admin\AppData\Local\Programs\MiKTeX\tex\latex\xcolor\xcolor.sty
INPUT C:\Users\Admin\AppData\Local\Programs\MiKTeX\tex\latex\xcolor\xcolor.sty
INPUT C:\Users\Admin\AppData\Local\Programs\MiKTeX\tex\latex\xcolor\xcolor.sty
INPUT C:\Users\Admin\AppData\Local\Programs\MiKTeX\tex\latex\xcolor\xcolor.sty
INPUT C:\Users\Admin\AppData\Local\Programs\MiKTeX\tex\latex\xcolor\xcolor.sty
INPUT C:\Users\Admin\AppData\Local\Programs\MiKTeX\tex\latex\xcolor\xcolor.sty
INPUT C:\Users\Admin\AppData\Local\Programs\MiKTeX\tex\latex\xcolor\xcolor.sty
INPUT C:\Users\Admin\AppData\Local\Programs\MiKTeX\tex\latex\xcolor\xcolor.sty
INPUT C:\Users\Admin\AppData\Local\Programs\MiKTeX\tex\latex\xcolor\xcolor.sty
INPUT C:\Users\Admin\AppData\Local\Programs\MiKTeX\tex\latex\xcolor\xcolor.sty
INPUT C:\Users\Admin\AppData\Local\Programs\MiKTeX\tex\latex\graphics-cfg\color.cfg
INPUT C:\Users\Admin\AppData\Local\Programs\MiKTeX\tex\latex\graphics-cfg\color.cfg
INPUT C:\Users\Admin\AppData\Local\Programs\MiKTeX\tex\latex\graphics-cfg\color.cfg
INPUT C:\Users\Admin\AppData\Local\Programs\MiKTeX\tex\latex\graphics-cfg\color.cfg
INPUT C:\Users\Admin\AppData\Local\Programs\MiKTeX\tex\latex\graphics\graphicx.sty
INPUT C:\Users\Admin\AppData\Local\Programs\MiKTeX\tex\latex\pdfpages\pppdftex.def
INPUT C:\Users\Admin\AppData\Local\Programs\MiKTeX\tex\latex\pdfpages\pppdftex.def
INPUT C:\Users\Admin\AppData\Local\Programs\MiKTeX\tex\latex\pdfpages\pppdftex.def
INPUT C:\Users\Admin\AppData\Local\Programs\MiKTeX\tex\latex\pdfpages\pppdftex.def
INPUT C:\Users\Admin\AppData\Local\Programs\MiKTeX\tex\latex\l3packages\xparse\xparse.sty
INPUT C:\Users\Admin\AppData\Local\Programs\MiKTeX\tex\latex\l3packages\xparse\xparse.sty
INPUT C:\Users\Admin\AppData\Local\Programs\MiKTeX\tex\latex\l3packages\xparse\xparse.sty
INPUT C:\Users\Admin\AppData\Local\Programs\MiKTeX\tex\latex\l3packages\xparse\xparse.sty
INPUT C:\Users\Admin\AppData\Local\Programs\MiKTeX\tex\latex\l3packages\xparse\xparse.sty
INPUT C:\Users\Admin\AppData\Local\Programs\MiKTeX\tex\latex\l3packages\xparse\xparse.sty
INPUT C:\Users\Admin\AppData\Local\Programs\MiKTeX\tex\latex\l3packages\xparse\xparse.sty
INPUT C:\Users\Admin\AppData\Local\Programs\MiKTeX\tex\latex\l3packages\xparse\xparse.sty
INPUT C:\Users\Admin\AppData\Local\Programs\MiKTeX\tex\latex\l3packages\xparse\xparse.sty
INPUT C:\Users\Admin\AppData\Local\Programs\MiKTeX\tex\latex\l3packages\xparse\xparse.sty
INPUT C:\Users\Admin\AppData\Local\Programs\MiKTeX\tex\latex\l3packages\xparse\xparse.sty
INPUT C:\Users\Admin\AppData\Local\Programs\MiKTeX\tex\latex\l3kernel\expl3.sty
INPUT C:\Users\Admin\AppData\Local\Programs\MiKTeX\tex\latex\l3kernel\expl3.sty
INPUT C:\Users\Admin\AppData\Local\Programs\MiKTeX\tex\latex\l3kernel\expl3.sty
INPUT C:\Users\Admin\AppData\Local\Programs\MiKTeX\tex\latex\l3kernel\expl3.sty
INPUT C:\Users\Admin\AppData\Local\Programs\MiKTeX\tex\latex\l3kernel\expl3.sty
INPUT C:\Users\Admin\AppData\Local\Programs\MiKTeX\tex\latex\l3kernel\expl3.sty
INPUT C:\Users\Admin\AppData\Local\Programs\MiKTeX\tex\latex\l3kernel\expl3.sty
INPUT C:\Users\Admin\AppData\Local\Programs\MiKTeX\tex\latex\l3kernel\expl3.sty
INPUT C:\Users\Admin\AppData\Local\Programs\MiKTeX\tex\latex\l3kernel\expl3.sty
INPUT C:\Users\Admin\AppData\Local\Programs\MiKTeX\tex\latex\l3kernel\expl3.sty
INPUT C:\Users\Admin\AppData\Local\Programs\MiKTeX\tex\latex\l3kernel\expl3.sty
INPUT C:\Users\Admin\AppData\Local\Programs\MiKTeX\tex\latex\l3backend\l3backend-pdftex.def
INPUT C:\Users\Admin\AppData\Local\Programs\MiKTeX\tex\latex\l3backend\l3backend-pdftex.def
INPUT C:\Users\Admin\AppData\Local\Programs\MiKTeX\tex\latex\l3backend\l3backend-pdftex.def
INPUT C:\Users\Admin\AppData\Local\Programs\MiKTeX\tex\latex\l3backend\l3backend-pdftex.def
INPUT C:\Users\Admin\AppData\Local\Programs\MiKTeX\tex\latex\l3backend\l3backend-pdftex.def
INPUT C:\Users\Admin\AppData\Local\Programs\MiKTeX\tex\latex\l3backend\l3backend-pdftex.def
INPUT C:\Users\Admin\AppData\Local\Programs\MiKTeX\tex\latex\l3backend\l3backend-pdftex.def
INPUT C:\Users\Admin\AppData\Local\Programs\MiKTeX\tex\latex\l3backend\l3backend-pdftex.def
INPUT C:\Users\Admin\AppData\Local\Programs\MiKTeX\tex\latex\l3backend\l3backend-pdftex.def
INPUT C:\Users\Admin\AppData\Local\Programs\MiKTeX\tex\latex\l3backend\l3backend-pdftex.def
INPUT C:\Users\Admin\AppData\Local\Programs\MiKTeX\tex\latex\l3backend\l3backend-pdftex.def
INPUT C:\Users\Admin\AppData\Local\Programs\MiKTeX\tex\latex\base\inputenc.sty
INPUT C:\Users\Admin\AppData\Local\Programs\MiKTeX\tex\latex\base\inputenc.sty
INPUT C:\Users\Admin\AppData\Local\Programs\MiKTeX\tex\latex\base\inputenc.sty
INPUT C:\Users\Admin\AppData\Local\Programs\MiKTeX\tex\latex\base\inputenc.sty
INPUT C:\Users\Admin\AppData\Local\Programs\MiKTeX\tex\latex\base\inputenc.sty
INPUT C:\Users\Admin\AppData\Local\Programs\MiKTeX\tex\latex\base\inputenc.sty
INPUT C:\Users\Admin\AppData\Local\Programs\MiKTeX\tex\latex\base\inputenc.sty
INPUT C:\Users\Admin\AppData\Local\Programs\MiKTeX\tex\latex\base\inputenc.sty
INPUT C:\Users\Admin\AppData\Local\Programs\MiKTeX\tex\latex\base\inputenc.sty
INPUT C:\Users\Admin\AppData\Local\Programs\MiKTeX\tex\latex\base\inputenc.sty
INPUT C:\Users\Admin\AppData\Local\Programs\MiKTeX\tex\latex\base\inputenc.sty
INPUT .\Versuch233.aux
INPUT Versuch233.aux
INPUT Versuch233.aux
OUTPUT Versuch233.aux
INPUT C:\Users\Admin\AppData\Local\Programs\MiKTeX\tex\latex\graphics\graphicx.sty
INPUT C:\Users\Admin\AppData\Local\Programs\MiKTeX\tex\context\base\mkii\supp-pdf.mkii
INPUT C:\Users\Admin\AppData\Local\Programs\MiKTeX\tex\context\base\mkii\supp-pdf.mkii
INPUT C:\Users\Admin\AppData\Local\Programs\MiKTeX\tex\context\base\mkii\supp-pdf.mkii
INPUT C:\Users\Admin\AppData\Local\Programs\MiKTeX\tex\context\base\mkii\supp-pdf.mkii
INPUT C:\Users\Admin\AppData\Local\Programs\MiKTeX\tex\latex\epstopdf-pkg\epstopdf-base.sty
INPUT C:\Users\Admin\AppData\Local\Programs\MiKTeX\tex\latex\epstopdf-pkg\epstopdf-base.sty
INPUT C:\Users\Admin\AppData\Local\Programs\MiKTeX\tex\latex\epstopdf-pkg\epstopdf-base.sty
INPUT C:\Users\Admin\AppData\Local\Programs\MiKTeX\tex\latex\epstopdf-pkg\epstopdf-base.sty
INPUT C:\Users\Admin\AppData\Local\Programs\MiKTeX\tex\latex\epstopdf-pkg\epstopdf-base.sty
INPUT C:\Users\Admin\AppData\Local\Programs\MiKTeX\tex\latex\epstopdf-pkg\epstopdf-base.sty
INPUT C:\Users\Admin\AppData\Local\Programs\MiKTeX\tex\latex\epstopdf-pkg\epstopdf-base.sty
INPUT C:\Users\Admin\AppData\Local\Programs\MiKTeX\tex\latex\epstopdf-pkg\epstopdf-base.sty
INPUT C:\Users\Admin\AppData\Local\Programs\MiKTeX\tex\latex\epstopdf-pkg\epstopdf-base.sty
INPUT C:\Users\Admin\AppData\Local\Programs\MiKTeX\tex\latex\epstopdf-pkg\epstopdf-base.sty
INPUT C:\Users\Admin\AppData\Local\Programs\MiKTeX\tex\latex\epstopdf-pkg\epstopdf-base.sty
INPUT C:\Users\Admin\AppData\Local\Programs\MiKTeX\tex\generic\infwarerr\infwarerr.sty
INPUT C:\Users\Admin\AppData\Local\Programs\MiKTeX\tex\generic\infwarerr\infwarerr.sty
INPUT C:\Users\Admin\AppData\Local\Programs\MiKTeX\tex\generic\infwarerr\infwarerr.sty
INPUT C:\Users\Admin\AppData\Local\Programs\MiKTeX\tex\generic\infwarerr\infwarerr.sty
INPUT C:\Users\Admin\AppData\Local\Programs\MiKTeX\tex\generic\infwarerr\infwarerr.sty
INPUT C:\Users\Admin\AppData\Local\Programs\MiKTeX\tex\generic\infwarerr\infwarerr.sty
INPUT C:\Users\Admin\AppData\Local\Programs\MiKTeX\tex\generic\infwarerr\infwarerr.sty
INPUT C:\Users\Admin\AppData\Local\Programs\MiKTeX\tex\generic\infwarerr\infwarerr.sty
INPUT C:\Users\Admin\AppData\Local\Programs\MiKTeX\tex\generic\infwarerr\infwarerr.sty
INPUT C:\Users\Admin\AppData\Local\Programs\MiKTeX\tex\generic\infwarerr\infwarerr.sty
INPUT C:\Users\Admin\AppData\Local\Programs\MiKTeX\tex\generic\infwarerr\infwarerr.sty
INPUT C:\Users\Admin\AppData\Local\Programs\MiKTeX\tex\latex\grfext\grfext.sty
INPUT C:\Users\Admin\AppData\Local\Programs\MiKTeX\tex\latex\grfext\grfext.sty
INPUT C:\Users\Admin\AppData\Local\Programs\MiKTeX\tex\latex\grfext\grfext.sty
INPUT C:\Users\Admin\AppData\Local\Programs\MiKTeX\tex\latex\grfext\grfext.sty
INPUT C:\Users\Admin\AppData\Local\Programs\MiKTeX\tex\latex\grfext\grfext.sty
INPUT C:\Users\Admin\AppData\Local\Programs\MiKTeX\tex\latex\grfext\grfext.sty
INPUT C:\Users\Admin\AppData\Local\Programs\MiKTeX\tex\latex\grfext\grfext.sty
INPUT C:\Users\Admin\AppData\Local\Programs\MiKTeX\tex\latex\grfext\grfext.sty
INPUT C:\Users\Admin\AppData\Local\Programs\MiKTeX\tex\latex\grfext\grfext.sty
INPUT C:\Users\Admin\AppData\Local\Programs\MiKTeX\tex\latex\grfext\grfext.sty
INPUT C:\Users\Admin\AppData\Local\Programs\MiKTeX\tex\latex\grfext\grfext.sty
INPUT C:\Users\Admin\AppData\Local\Programs\MiKTeX\tex\generic\infwarerr\infwarerr.sty
INPUT C:\Users\Admin\AppData\Local\Programs\MiKTeX\tex\generic\kvdefinekeys\kvdefinekeys.sty
INPUT C:\Users\Admin\AppData\Local\Programs\MiKTeX\tex\generic\kvdefinekeys\kvdefinekeys.sty
INPUT C:\Users\Admin\AppData\Local\Programs\MiKTeX\tex\generic\kvdefinekeys\kvdefinekeys.sty
INPUT C:\Users\Admin\AppData\Local\Programs\MiKTeX\tex\generic\kvdefinekeys\kvdefinekeys.sty
INPUT C:\Users\Admin\AppData\Local\Programs\MiKTeX\tex\generic\kvdefinekeys\kvdefinekeys.sty
INPUT C:\Users\Admin\AppData\Local\Programs\MiKTeX\tex\generic\kvdefinekeys\kvdefinekeys.sty
INPUT C:\Users\Admin\AppData\Local\Programs\MiKTeX\tex\generic\kvdefinekeys\kvdefinekeys.sty
INPUT C:\Users\Admin\AppData\Local\Programs\MiKTeX\tex\generic\kvdefinekeys\kvdefinekeys.sty
INPUT C:\Users\Admin\AppData\Local\Programs\MiKTeX\tex\generic\kvdefinekeys\kvdefinekeys.sty
INPUT C:\Users\Admin\AppData\Local\Programs\MiKTeX\tex\generic\kvdefinekeys\kvdefinekeys.sty
INPUT C:\Users\Admin\AppData\Local\Programs\MiKTeX\tex\generic\kvdefinekeys\kvdefinekeys.sty
INPUT C:\Users\Admin\AppData\Local\Programs\MiKTeX\tex\latex\kvoptions\kvoptions.sty
INPUT C:\Users\Admin\AppData\Local\Programs\MiKTeX\tex\latex\kvoptions\kvoptions.sty
INPUT C:\Users\Admin\AppData\Local\Programs\MiKTeX\tex\latex\kvoptions\kvoptions.sty
INPUT C:\Users\Admin\AppData\Local\Programs\MiKTeX\tex\latex\kvoptions\kvoptions.sty
INPUT C:\Users\Admin\AppData\Local\Programs\MiKTeX\tex\latex\kvoptions\kvoptions.sty
INPUT C:\Users\Admin\AppData\Local\Programs\MiKTeX\tex\latex\kvoptions\kvoptions.sty
INPUT C:\Users\Admin\AppData\Local\Programs\MiKTeX\tex\latex\kvoptions\kvoptions.sty
INPUT C:\Users\Admin\AppData\Local\Programs\MiKTeX\tex\latex\kvoptions\kvoptions.sty
INPUT C:\Users\Admin\AppData\Local\Programs\MiKTeX\tex\latex\kvoptions\kvoptions.sty
INPUT C:\Users\Admin\AppData\Local\Programs\MiKTeX\tex\latex\kvoptions\kvoptions.sty
INPUT C:\Users\Admin\AppData\Local\Programs\MiKTeX\tex\latex\kvoptions\kvoptions.sty
INPUT C:\Users\Admin\AppData\Local\Programs\MiKTeX\tex\generic\ltxcmds\ltxcmds.sty
INPUT C:\Users\Admin\AppData\Local\Programs\MiKTeX\tex\generic\ltxcmds\ltxcmds.sty
INPUT C:\Users\Admin\AppData\Local\Programs\MiKTeX\tex\generic\ltxcmds\ltxcmds.sty
INPUT C:\Users\Admin\AppData\Local\Programs\MiKTeX\tex\generic\ltxcmds\ltxcmds.sty
INPUT C:\Users\Admin\AppData\Local\Programs\MiKTeX\tex\generic\ltxcmds\ltxcmds.sty
INPUT C:\Users\Admin\AppData\Local\Programs\MiKTeX\tex\generic\ltxcmds\ltxcmds.sty
INPUT C:\Users\Admin\AppData\Local\Programs\MiKTeX\tex\generic\ltxcmds\ltxcmds.sty
INPUT C:\Users\Admin\AppData\Local\Programs\MiKTeX\tex\generic\ltxcmds\ltxcmds.sty
INPUT C:\Users\Admin\AppData\Local\Programs\MiKTeX\tex\generic\ltxcmds\ltxcmds.sty
INPUT C:\Users\Admin\AppData\Local\Programs\MiKTeX\tex\generic\ltxcmds\ltxcmds.sty
INPUT C:\Users\Admin\AppData\Local\Programs\MiKTeX\tex\generic\ltxcmds\ltxcmds.sty
INPUT C:\Users\Admin\AppData\Local\Programs\MiKTeX\tex\generic\kvsetkeys\kvsetkeys.sty
INPUT C:\Users\Admin\AppData\Local\Programs\MiKTeX\tex\generic\kvsetkeys\kvsetkeys.sty
INPUT C:\Users\Admin\AppData\Local\Programs\MiKTeX\tex\generic\kvsetkeys\kvsetkeys.sty
INPUT C:\Users\Admin\AppData\Local\Programs\MiKTeX\tex\generic\kvsetkeys\kvsetkeys.sty
INPUT C:\Users\Admin\AppData\Local\Programs\MiKTeX\tex\generic\kvsetkeys\kvsetkeys.sty
INPUT C:\Users\Admin\AppData\Local\Programs\MiKTeX\tex\generic\kvsetkeys\kvsetkeys.sty
INPUT C:\Users\Admin\AppData\Local\Programs\MiKTeX\tex\generic\kvsetkeys\kvsetkeys.sty
INPUT C:\Users\Admin\AppData\Local\Programs\MiKTeX\tex\generic\kvsetkeys\kvsetkeys.sty
INPUT C:\Users\Admin\AppData\Local\Programs\MiKTeX\tex\generic\kvsetkeys\kvsetkeys.sty
INPUT C:\Users\Admin\AppData\Local\Programs\MiKTeX\tex\generic\kvsetkeys\kvsetkeys.sty
INPUT C:\Users\Admin\AppData\Local\Programs\MiKTeX\tex\generic\kvsetkeys\kvsetkeys.sty
INPUT C:\Users\Admin\AppData\Local\Programs\MiKTeX\tex\generic\pdftexcmds\pdftexcmds.sty
INPUT C:\Users\Admin\AppData\Local\Programs\MiKTeX\tex\generic\pdftexcmds\pdftexcmds.sty
INPUT C:\Users\Admin\AppData\Local\Programs\MiKTeX\tex\generic\pdftexcmds\pdftexcmds.sty
INPUT C:\Users\Admin\AppData\Local\Programs\MiKTeX\tex\generic\pdftexcmds\pdftexcmds.sty
INPUT C:\Users\Admin\AppData\Local\Programs\MiKTeX\tex\generic\pdftexcmds\pdftexcmds.sty
INPUT C:\Users\Admin\AppData\Local\Programs\MiKTeX\tex\generic\pdftexcmds\pdftexcmds.sty
INPUT C:\Users\Admin\AppData\Local\Programs\MiKTeX\tex\generic\pdftexcmds\pdftexcmds.sty
INPUT C:\Users\Admin\AppData\Local\Programs\MiKTeX\tex\generic\pdftexcmds\pdftexcmds.sty
INPUT C:\Users\Admin\AppData\Local\Programs\MiKTeX\tex\generic\pdftexcmds\pdftexcmds.sty
INPUT C:\Users\Admin\AppData\Local\Programs\MiKTeX\tex\generic\pdftexcmds\pdftexcmds.sty
INPUT C:\Users\Admin\AppData\Local\Programs\MiKTeX\tex\generic\pdftexcmds\pdftexcmds.sty
INPUT C:\Users\Admin\AppData\Local\Programs\MiKTeX\tex\generic\infwarerr\infwarerr.sty
INPUT C:\Users\Admin\AppData\Local\Programs\MiKTeX\tex\generic\iftex\iftex.sty
INPUT C:\Users\Admin\AppData\Local\Programs\MiKTeX\tex\generic\iftex\iftex.sty
INPUT C:\Users\Admin\AppData\Local\Programs\MiKTeX\tex\generic\iftex\iftex.sty
INPUT C:\Users\Admin\AppData\Local\Programs\MiKTeX\tex\generic\iftex\iftex.sty
INPUT C:\Users\Admin\AppData\Local\Programs\MiKTeX\tex\generic\iftex\iftex.sty
INPUT C:\Users\Admin\AppData\Local\Programs\MiKTeX\tex\generic\iftex\iftex.sty
INPUT C:\Users\Admin\AppData\Local\Programs\MiKTeX\tex\generic\iftex\iftex.sty
INPUT C:\Users\Admin\AppData\Local\Programs\MiKTeX\tex\generic\iftex\iftex.sty
INPUT C:\Users\Admin\AppData\Local\Programs\MiKTeX\tex\generic\iftex\iftex.sty
INPUT C:\Users\Admin\AppData\Local\Programs\MiKTeX\tex\generic\iftex\iftex.sty
INPUT C:\Users\Admin\AppData\Local\Programs\MiKTeX\tex\generic\iftex\iftex.sty
INPUT C:\Users\Admin\AppData\Local\Programs\MiKTeX\tex\generic\ltxcmds\ltxcmds.sty
INPUT C:\Users\Admin\AppData\Local\Programs\MiKTeX\tex\latex\00miktex\epstopdf-sys.cfg
INPUT C:\Users\Admin\AppData\Local\Programs\MiKTeX\tex\latex\00miktex\epstopdf-sys.cfg
INPUT C:\Users\Admin\AppData\Local\Programs\MiKTeX\tex\latex\00miktex\epstopdf-sys.cfg
INPUT C:\Users\Admin\AppData\Local\Programs\MiKTeX\tex\latex\00miktex\epstopdf-sys.cfg
INPUT C:\Users\Admin\AppData\Local\Programs\MiKTeX\tex\latex\pdflscape\pdflscape.sty
INPUT C:\Users\Admin\AppData\Local\Programs\MiKTeX\tex\latex\pdflscape\pdflscape.sty
INPUT C:\Users\Admin\AppData\Local\Programs\MiKTeX\tex\latex\pdflscape\pdflscape.sty
INPUT C:\Users\Admin\AppData\Local\Programs\MiKTeX\tex\latex\pdflscape\pdflscape.sty
INPUT C:\Users\Admin\AppData\Local\Programs\MiKTeX\tex\latex\pdflscape\pdflscape.sty
INPUT C:\Users\Admin\AppData\Local\Programs\MiKTeX\tex\latex\pdflscape\pdflscape.sty
INPUT C:\Users\Admin\AppData\Local\Programs\MiKTeX\tex\latex\pdflscape\pdflscape.sty
INPUT C:\Users\Admin\AppData\Local\Programs\MiKTeX\tex\latex\pdflscape\pdflscape.sty
INPUT C:\Users\Admin\AppData\Local\Programs\MiKTeX\tex\latex\pdflscape\pdflscape.sty
INPUT C:\Users\Admin\AppData\Local\Programs\MiKTeX\tex\latex\pdflscape\pdflscape.sty
INPUT C:\Users\Admin\AppData\Local\Programs\MiKTeX\tex\latex\pdflscape\pdflscape.sty
INPUT C:\Users\Admin\AppData\Local\Programs\MiKTeX\tex\generic\iftex\iftex.sty
INPUT C:\Users\Admin\AppData\Local\Programs\MiKTeX\tex\latex\graphics\lscape.sty
INPUT C:\Users\Admin\AppData\Local\Programs\MiKTeX\tex\latex\graphics\lscape.sty
INPUT C:\Users\Admin\AppData\Local\Programs\MiKTeX\tex\latex\graphics\lscape.sty
INPUT C:\Users\Admin\AppData\Local\Programs\MiKTeX\tex\latex\graphics\lscape.sty
INPUT C:\Users\Admin\AppData\Local\Programs\MiKTeX\tex\latex\graphics\lscape.sty
INPUT C:\Users\Admin\AppData\Local\Programs\MiKTeX\tex\latex\graphics\lscape.sty
INPUT C:\Users\Admin\AppData\Local\Programs\MiKTeX\tex\latex\graphics\lscape.sty
INPUT C:\Users\Admin\AppData\Local\Programs\MiKTeX\tex\latex\graphics\lscape.sty
INPUT C:\Users\Admin\AppData\Local\Programs\MiKTeX\tex\latex\graphics\lscape.sty
INPUT C:\Users\Admin\AppData\Local\Programs\MiKTeX\tex\latex\graphics\lscape.sty
INPUT C:\Users\Admin\AppData\Local\Programs\MiKTeX\tex\latex\graphics\lscape.sty
INPUT C:\Users\Admin\AppData\Local\Programs\MiKTeX\tex\latex\graphics\graphics.sty
INPUT C:\Users\Admin\AppData\Local\Programs\MiKTeX\fonts\tfm\public\cm\cmr17.tfm
INPUT C:\Users\Admin\AppData\Local\Programs\MiKTeX\fonts\tfm\public\cm\cmr12.tfm
INPUT C:\Users\Admin\AppData\Local\Programs\MiKTeX\fonts\tfm\public\cm\cmr8.tfm
INPUT C:\Users\Admin\AppData\Local\Programs\MiKTeX\fonts\tfm\public\cm\cmr6.tfm
INPUT C:\Users\Admin\AppData\Local\Programs\MiKTeX\fonts\tfm\public\cm\cmmi12.tfm
INPUT C:\Users\Admin\AppData\Local\Programs\MiKTeX\fonts\tfm\public\cm\cmmi8.tfm
INPUT C:\Users\Admin\AppData\Local\Programs\MiKTeX\fonts\tfm\public\cm\cmmi6.tfm
INPUT C:\Users\Admin\AppData\Local\Programs\MiKTeX\fonts\tfm\public\cm\cmsy10.tfm
INPUT C:\Users\Admin\AppData\Local\Programs\MiKTeX\fonts\tfm\public\cm\cmsy8.tfm
INPUT C:\Users\Admin\AppData\Local\Programs\MiKTeX\fonts\tfm\public\cm\cmsy6.tfm
INPUT C:\Users\Admin\AppData\Local\Programs\MiKTeX\fonts\tfm\public\cm\cmex10.tfm
INPUT C:\Users\Admin\AppData\Local\Programs\MiKTeX\fonts\tfm\public\amsfonts\cmextra\cmex8.tfm
INPUT C:\Users\Admin\AppData\Local\Programs\MiKTeX\fonts\tfm\public\amsfonts\cmextra\cmex7.tfm
INPUT C:\Users\Admin\AppData\Local\Programs\MiKTeX\tex\latex\amsfonts\umsa.fd
INPUT C:\Users\Admin\AppData\Local\Programs\MiKTeX\tex\latex\amsfonts\umsa.fd
INPUT C:\Users\Admin\AppData\Local\Programs\MiKTeX\tex\latex\amsfonts\umsa.fd
INPUT C:\Users\Admin\AppData\Local\Programs\MiKTeX\tex\latex\amsfonts\umsa.fd
INPUT C:\Users\Admin\AppData\Local\Programs\MiKTeX\fonts\tfm\public\amsfonts\symbols\msam10.tfm
INPUT C:\Users\Admin\AppData\Local\Programs\MiKTeX\fonts\tfm\public\amsfonts\symbols\msam10.tfm
INPUT C:\Users\Admin\AppData\Local\Programs\MiKTeX\fonts\tfm\public\amsfonts\symbols\msam7.tfm
INPUT C:\Users\Admin\AppData\Local\Programs\MiKTeX\tex\latex\amsfonts\umsb.fd
INPUT C:\Users\Admin\AppData\Local\Programs\MiKTeX\tex\latex\amsfonts\umsb.fd
INPUT C:\Users\Admin\AppData\Local\Programs\MiKTeX\tex\latex\amsfonts\umsb.fd
INPUT C:\Users\Admin\AppData\Local\Programs\MiKTeX\tex\latex\amsfonts\umsb.fd
INPUT C:\Users\Admin\AppData\Local\Programs\MiKTeX\fonts\tfm\public\amsfonts\symbols\msbm10.tfm
INPUT C:\Users\Admin\AppData\Local\Programs\MiKTeX\fonts\tfm\public\amsfonts\symbols\msbm10.tfm
INPUT C:\Users\Admin\AppData\Local\Programs\MiKTeX\fonts\tfm\public\amsfonts\symbols\msbm7.tfm
INPUT C:\Users\Admin\AppData\Local\Programs\MiKTeX\fonts\tfm\public\cm\cmr12.tfm
INPUT C:\Users\Admin\AppData\Local\Programs\MiKTeX\fonts\tfm\public\cm\cmbx12.tfm
INPUT .\Versuch233.toc
INPUT Versuch233.toc
INPUT Versuch233.toc
INPUT C:\Users\Admin\AppData\Local\Programs\MiKTeX\fonts\tfm\public\cm\cmbx10.tfm
INPUT C:\Users\Admin\AppData\Local\Programs\MiKTeX\fonts\tfm\public\amsfonts\cmextra\cmex7.tfm
INPUT C:\Users\Admin\AppData\Local\Programs\MiKTeX\fonts\tfm\public\amsfonts\cmextra\cmex7.tfm
INPUT C:\Users\Admin\AppData\Local\Programs\MiKTeX\fonts\tfm\public\amsfonts\symbols\msam10.tfm
INPUT C:\Users\Admin\AppData\Local\Programs\MiKTeX\fonts\tfm\public\amsfonts\symbols\msam7.tfm
INPUT C:\Users\Admin\AppData\Local\Programs\MiKTeX\fonts\tfm\public\amsfonts\symbols\msam5.tfm
INPUT C:\Users\Admin\AppData\Local\Programs\MiKTeX\fonts\tfm\public\amsfonts\symbols\msbm10.tfm
INPUT C:\Users\Admin\AppData\Local\Programs\MiKTeX\fonts\tfm\public\amsfonts\symbols\msbm7.tfm
INPUT C:\Users\Admin\AppData\Local\Programs\MiKTeX\fonts\tfm\public\amsfonts\symbols\msbm5.tfm
OUTPUT Versuch233.toc
OUTPUT Versuch233.pdf
INPUT C:\Users\Admin\AppData\Local\MiKTeX\pdftex\config\pdftex.map
INPUT C:\Users\Admin\AppData\Local\Programs\MiKTeX\fonts\tfm\jknappen\ec\tcrm1000.tfm
INPUT ..\Resources\aufbau.png
INPUT ..\Resources\aufbau.png
INPUT ..\Resources\aufbau.png
INPUT ..\Resources\aufbau.png
INPUT ..\Resources\aufbau.png
INPUT ..\Resources\aufbau.png
INPUT ..\Resources\aufbau.png
INPUT C:\Users\Admin\AppData\Local\Programs\MiKTeX\fonts\tfm\public\cm\cmti10.tfm
INPUT C:\Users\Admin\AppData\Local\Programs\MiKTeX\fonts\tfm\public\cm\cmti7.tfm
INPUT C:\Users\Admin\AppData\Local\Programs\MiKTeX\fonts\tfm\public\cm\cmti7.tfm
INPUT C:\Users\Admin\AppData\Local\Programs\MiKTeX\fonts\tfm\public\cm\cmbx12.tfm
INPUT ..\Resources\Fourieroptik.pdf
INPUT ..\Resources\Fourieroptik.pdf
INPUT ..\Resources\Fourieroptik.pdf
INPUT ..\Resources\Fourieroptik.pdf
INPUT ..\Resources\Fourieroptik.pdf
INPUT ..\Resources\Fourieroptik.pdf
INPUT ..\Resources\Fourieroptik.pdf
INPUT ..\Resources\Fourieroptik.pdf
INPUT ..\Resources\Fourieroptik.pdf
INPUT ..\Resources\Fourieroptik.pdf
INPUT ..\Resources\Fourieroptik.pdf
INPUT ..\Resources\Fourieroptik.pdf
INPUT ..\Resources\Fourieroptik.pdf
INPUT ..\Resources\Fourieroptik.pdf
INPUT ..\Resources\Fourieroptik.pdf
INPUT ..\Resources\Fourieroptik.pdf
INPUT ..\Resources\Fourieroptik.pdf
INPUT ..\Resources\Fourieroptik.pdf
INPUT ..\Resources\Fourieroptik.pdf
INPUT ..\Resources\Fourieroptik.pdf
INPUT ..\Resources\Fourieroptik.pdf
INPUT ..\Resources\Fourieroptik.pdf
INPUT ..\Resources\Fourieroptik.pdf
INPUT ..\Resources\Fourieroptik.pdf
INPUT ..\Resources\Fourieroptik.pdf
INPUT ..\Resources\Fourieroptik.pdf
INPUT ..\Resources\Fourieroptik.pdf
INPUT ..\Resources\Fourieroptik.pdf
INPUT ..\Resources\Fourieroptik.pdf
INPUT ..\Resources\Fourieroptik.pdf
INPUT ..\Resources\Fourieroptik.pdf
INPUT ..\Resources\Fourieroptik.pdf
INPUT ..\Resources\Fourieroptik.pdf
INPUT ..\Resources\Fourieroptik.pdf
INPUT ..\Resources\Fourieroptik.pdf
INPUT ..\Resources\Fourieroptik.pdf
INPUT ..\Resources\Fourieroptik.pdf
INPUT ..\Resources\Fourieroptik.pdf
INPUT ..\Resources\Fourieroptik.pdf
INPUT ..\Resources\Fourieroptik.pdf
INPUT ..\Resources\Fourieroptik.pdf
INPUT ..\Resources\Fourieroptik.pdf
INPUT ..\Resources\Fourieroptik.pdf
INPUT ..\Resources\Fourieroptik.pdf
INPUT ..\Resources\Fourieroptik.pdf
INPUT ..\Resources\Fourieroptik.pdf
INPUT ..\Resources\Fourieroptik.pdf
INPUT ..\Resources\Fourieroptik.pdf
INPUT ..\Resources\Fourieroptik.pdf
INPUT ..\Resources\Fourieroptik.pdf
INPUT ..\Resources\Fourieroptik.pdf
INPUT ..\Resources\Fourieroptik.pdf
INPUT ..\Resources\Fourieroptik.pdf
INPUT ..\Resources\Fourieroptik.pdf
INPUT ..\Resources\Fourieroptik.pdf
INPUT ..\Resources\Fourieroptik.pdf
INPUT ..\Resources\Fourieroptik.pdf
INPUT ..\Resources\Fourieroptik.pdf
INPUT ..\Resources\Fourieroptik.pdf
INPUT ..\Resources\Fourieroptik.pdf
INPUT ..\Resources\Fourieroptik.pdf
INPUT ..\Resources\Fourieroptik.pdf
INPUT ..\Resources\Fourieroptik.pdf
INPUT ..\Resources\Fourieroptik.pdf
INPUT ..\Resources\Fourieroptik.pdf
INPUT ..\Resources\Fourieroptik.pdf
INPUT ..\Resources\Fourieroptik.pdf
INPUT ..\Resources\Fourieroptik.pdf
INPUT ..\Resources\Fourieroptik.pdf
INPUT ..\Resources\Fourieroptik.pdf
INPUT ..\Resources\Fourieroptik.pdf
INPUT ..\Resources\Fourieroptik.pdf
INPUT ..\Resources\Fourieroptik.pdf
INPUT ..\Resources\Fourieroptik.pdf
INPUT ..\Resources\Fourieroptik.pdf
INPUT ..\Resources\Fourieroptik.pdf
INPUT ..\Resources\Fourieroptik.pdf
INPUT ..\Resources\Fourieroptik.pdf
INPUT ..\Resources\Fourieroptik.pdf
INPUT ..\Resources\Fourieroptik.pdf
INPUT ..\Resources\Fourieroptik.pdf
INPUT ..\Resources\Fourieroptik.pdf
INPUT ..\Resources\Fourieroptik.pdf
INPUT ..\Resources\Fourieroptik.pdf
INPUT ..\Resources\Fourieroptik.pdf
INPUT ..\Resources\Fourieroptik.pdf
INPUT ..\Resources\Fourieroptik.pdf
INPUT ..\Resources\Fourieroptik.pdf
INPUT ..\Resources\Fourieroptik.pdf
INPUT ..\Resources\Fourieroptik.pdf
INPUT ..\Resources\Fourieroptik.pdf
INPUT ..\Resources\Fourieroptik.pdf
INPUT ..\Resources\Fourieroptik.pdf
INPUT ..\Resources\Fourieroptik.pdf
INPUT ..\Resources\Fourieroptik.pdf
INPUT ..\Resources\Fourieroptik.pdf
INPUT ..\Resources\Fourieroptik.pdf
INPUT ..\Resources\Fourieroptik.pdf
INPUT ..\Resources\Fourieroptik.pdf
INPUT ..\Resources\Fourieroptik.pdf
INPUT ..\Resources\Fourieroptik.pdf
INPUT ..\Resources\Fourieroptik.pdf
INPUT ..\Resources\Fourieroptik.pdf
INPUT ..\Resources\Fourieroptik.pdf
INPUT ..\Resources\Fourieroptik.pdf
INPUT ..\Resources\Fourieroptik.pdf
INPUT ..\Resources\Fourieroptik.pdf
INPUT ..\Resources\Fourieroptik.pdf
INPUT ..\Resources\protokoll2.pdf
INPUT ..\Resources\protokoll2.pdf
INPUT ..\Resources\protokoll2.pdf
INPUT ..\Resources\protokoll2.pdf
INPUT ..\Resources\protokoll2.pdf
INPUT ..\Resources\protokoll2.pdf
INPUT ..\Resources\protokoll2.pdf
INPUT ..\Resources\protokoll2.pdf
INPUT ..\Resources\protokoll2.pdf
INPUT ..\Resources\protokoll2.pdf
INPUT ..\Resources\protokoll2.pdf
INPUT ..\Resources\protokoll2.pdf
INPUT ..\Resources\protokoll2.pdf
INPUT ..\Resources\protokoll2.pdf
INPUT ..\Resources\protokoll2.pdf
INPUT ..\Resources\protokoll2.pdf
INPUT ..\Resources\protokoll2.pdf
INPUT ..\Resources\protokoll2.pdf
INPUT ..\Resources\protokoll2.pdf
INPUT ..\Resources\protokoll2.pdf
INPUT ..\Resources\protokoll2.pdf
INPUT ..\Resources\protokoll2.pdf
INPUT ..\Resources\protokoll2.pdf
INPUT ..\Resources\protokoll2.pdf
INPUT ..\Resources\protokoll2.pdf
INPUT ..\Resources\protokoll2.pdf
INPUT ..\Resources\protokoll2.pdf
INPUT ..\Resources\protokoll2.pdf
INPUT ..\Resources\protokoll2.pdf
INPUT ..\Resources\protokoll2.pdf
INPUT ..\Resources\protokoll2.pdf
INPUT ..\Resources\protokoll2.pdf
INPUT ..\Resources\protokoll2.pdf
INPUT ..\Resources\protokoll2.pdf
INPUT ..\Resources\protokoll2.pdf
INPUT ..\Resources\protokoll2.pdf
INPUT ..\Resources\protokoll2.pdf
INPUT ..\Resources\protokoll2.pdf
INPUT ..\Resources\protokoll2.pdf
INPUT ..\Resources\protokoll2.pdf
INPUT ..\Resources\protokoll2.pdf
INPUT ..\Resources\protokoll2.pdf
INPUT ..\Resources\protokoll2.pdf
INPUT ..\Resources\protokoll2.pdf
INPUT ..\Resources\protokoll2.pdf
INPUT ..\Resources\protokoll2.pdf
INPUT ..\Resources\protokoll2.pdf
INPUT ..\Resources\protokoll2.pdf
INPUT ..\Resources\protokoll2.pdf
INPUT ..\Resources\protokoll2.pdf
INPUT ..\Resources\protokoll2.pdf
INPUT ..\Resources\protokoll2.pdf
INPUT ..\Resources\protokoll2.pdf
INPUT ..\Resources\protokoll2.pdf
INPUT ..\Resources\protokoll2.pdf
INPUT ..\Resources\protokoll2.pdf
INPUT ..\Resources\protokoll2.pdf
INPUT ..\Resources\protokoll2.pdf
INPUT ..\Resources\protokoll2.pdf
INPUT ..\Resources\protokoll2.pdf
INPUT ..\Resources\protokoll2.pdf
INPUT ..\Resources\protokoll2.pdf
INPUT ..\Resources\protokoll2.pdf
INPUT ..\Resources\protokoll2.pdf
INPUT ..\Resources\protokoll2.pdf
INPUT ..\Resources\protokoll2.pdf
INPUT ..\Resources\protokoll2.pdf
INPUT ..\Resources\protokoll2.pdf
INPUT ..\Resources\protokoll2.pdf
INPUT ..\Resources\protokoll2.pdf
INPUT ..\Resources\protokoll2.pdf
INPUT ..\Resources\protokoll2.pdf
INPUT ..\Resources\protokoll2.pdf
INPUT ..\Resources\protokoll2.pdf
INPUT ..\Resources\protokoll2.pdf
INPUT ..\Resources\protokoll2.pdf
INPUT ..\Resources\protokoll2.pdf
INPUT ..\Resources\protokoll2.pdf
INPUT ..\Resources\protokoll2.pdf
INPUT ..\Resources\protokoll2.pdf
INPUT ..\Results\Diagramm1a.pdf
INPUT ..\Results\Diagramm1a.pdf
INPUT ..\Results\Diagramm1a.pdf
INPUT ..\Results\Diagramm1a.pdf
INPUT ..\Results\Diagramm1a.pdf
INPUT ..\Results\Diagramm1a.pdf
INPUT ..\Results\Diagramm1b.pdf
INPUT ..\Results\Diagramm1b.pdf
INPUT ..\Results\Diagramm1b.pdf
INPUT ..\Results\Diagramm1b.pdf
INPUT ..\Results\Diagramm1b.pdf
INPUT ..\Results\Diagramm1b.pdf
INPUT ..\Results\Diagramm2.pdf
INPUT ..\Results\Diagramm2.pdf
INPUT ..\Results\Diagramm2.pdf
INPUT ..\Results\Diagramm2.pdf
INPUT ..\Results\Diagramm2.pdf
INPUT ..\Results\Diagramm2.pdf
INPUT ..\Results\Diagramm3.pdf
INPUT ..\Results\Diagramm3.pdf
INPUT ..\Results\Diagramm3.pdf
INPUT ..\Results\Diagramm3.pdf
INPUT ..\Results\Diagramm3.pdf
INPUT ..\Results\Diagramm3.pdf
INPUT ..\Results\Diagramm4.pdf
INPUT ..\Results\Diagramm4.pdf
INPUT ..\Results\Diagramm4.pdf
INPUT ..\Results\Diagramm4.pdf
INPUT ..\Results\Diagramm4.pdf
INPUT ..\Results\Diagramm4.pdf
INPUT ..\Tests\V233Diagramm5.pdf
INPUT ..\Tests\V233Diagramm5.pdf
INPUT ..\Tests\V233Diagramm5.pdf
INPUT ..\Tests\V233Diagramm5.pdf
INPUT ..\Tests\V233Diagramm5.pdf
INPUT ..\Tests\V233Diagramm5.pdf
INPUT ..\Tests\V233Diagramm6.pdf
INPUT ..\Tests\V233Diagramm6.pdf
INPUT ..\Tests\V233Diagramm6.pdf
INPUT ..\Tests\V233Diagramm6.pdf
INPUT ..\Tests\V233Diagramm6.pdf
INPUT ..\Tests\V233Diagramm6.pdf
INPUT ..\Tests\V233Diagramm7.pdf
INPUT ..\Tests\V233Diagramm7.pdf
INPUT ..\Tests\V233Diagramm7.pdf
INPUT ..\Tests\V233Diagramm7.pdf
INPUT ..\Tests\V233Diagramm7.pdf
INPUT ..\Tests\V233Diagramm7.pdf
INPUT ..\Tests\V233Diagramm8.pdf
INPUT ..\Tests\V233Diagramm8.pdf
INPUT ..\Tests\V233Diagramm8.pdf
INPUT ..\Tests\V233Diagramm8.pdf
INPUT ..\Tests\V233Diagramm8.pdf
INPUT ..\Tests\V233Diagramm8.pdf
INPUT ..\Tests\V233Diagramm9.pdf
INPUT ..\Tests\V233Diagramm9.pdf
INPUT ..\Tests\V233Diagramm9.pdf
INPUT ..\Tests\V233Diagramm9.pdf
INPUT ..\Tests\V233Diagramm9.pdf
INPUT ..\Tests\V233Diagramm9.pdf
INPUT ..\Tests\V233Diagramm10.pdf
INPUT ..\Tests\V233Diagramm10.pdf
INPUT ..\Tests\V233Diagramm10.pdf
INPUT ..\Tests\V233Diagramm10.pdf
INPUT ..\Tests\V233Diagramm10.pdf
INPUT ..\Tests\V233Diagramm10.pdf
INPUT ..\Tests\V233Diagramm11.pdf
INPUT ..\Tests\V233Diagramm11.pdf
INPUT ..\Tests\V233Diagramm11.pdf
INPUT ..\Tests\V233Diagramm11.pdf
INPUT ..\Tests\V233Diagramm11.pdf
INPUT ..\Tests\V233Diagramm11.pdf
INPUT ..\Tests\V233Diagramm12.pdf
INPUT ..\Tests\V233Diagramm12.pdf
INPUT ..\Tests\V233Diagramm12.pdf
INPUT ..\Tests\V233Diagramm12.pdf
INPUT ..\Tests\V233Diagramm12.pdf
INPUT ..\Tests\V233Diagramm12.pdf
INPUT ..\Tests\V233Diagramm13.pdf
INPUT ..\Tests\V233Diagramm13.pdf
INPUT ..\Tests\V233Diagramm13.pdf
INPUT ..\Tests\V233Diagramm13.pdf
INPUT ..\Tests\V233Diagramm13.pdf
INPUT ..\Tests\V233Diagramm13.pdf
INPUT ..\Tests\V233Diagramm14.pdf
INPUT ..\Tests\V233Diagramm14.pdf
INPUT ..\Tests\V233Diagramm14.pdf
INPUT ..\Tests\V233Diagramm14.pdf
INPUT ..\Tests\V233Diagramm14.pdf
INPUT ..\Tests\V233Diagramm14.pdf
INPUT ..\Tests\V233Diagramm15.pdf
INPUT ..\Tests\V233Diagramm15.pdf
INPUT ..\Tests\V233Diagramm15.pdf
INPUT ..\Tests\V233Diagramm15.pdf
INPUT ..\Tests\V233Diagramm15.pdf
INPUT ..\Tests\V233Diagramm15.pdf
INPUT ..\Tests\V233Diagramm16.pdf
INPUT ..\Tests\V233Diagramm16.pdf
INPUT ..\Tests\V233Diagramm16.pdf
INPUT ..\Tests\V233Diagramm16.pdf
INPUT ..\Tests\V233Diagramm16.pdf
INPUT ..\Tests\V233Diagramm16.pdf
INPUT ..\Tests\V233Diagramm17.pdf
INPUT ..\Tests\V233Diagramm17.pdf
INPUT ..\Tests\V233Diagramm17.pdf
INPUT ..\Tests\V233Diagramm17.pdf
INPUT ..\Tests\V233Diagramm17.pdf
INPUT ..\Tests\V233Diagramm17.pdf
INPUT ..\Tests\Diagramm19.pdf
INPUT ..\Tests\Diagramm19.pdf
INPUT ..\Tests\Diagramm19.pdf
INPUT ..\Tests\Diagramm19.pdf
INPUT ..\Tests\Diagramm19.pdf
INPUT ..\Tests\Diagramm19.pdf
INPUT Versuch233.aux
INPUT C:\Users\Admin\AppData\Local\MiKTeX\fonts\pk\ljfour\jknappen\ec\dpi600\tcrm1000.pk
INPUT C:\Users\Admin\AppData\Local\MiKTeX\fonts\pk\ljfour\jknappen\ec\dpi600\tcrm1000.pk
INPUT C:\Users\Admin\AppData\Local\Programs\MiKTeX\fonts\type1\public\amsfonts\cm\cmbx10.pfb
INPUT C:\Users\Admin\AppData\Local\Programs\MiKTeX\fonts\type1\public\amsfonts\cm\cmbx10.pfb
INPUT C:\Users\Admin\AppData\Local\Programs\MiKTeX\fonts\type1\public\amsfonts\cm\cmbx12.pfb
INPUT C:\Users\Admin\AppData\Local\Programs\MiKTeX\fonts\type1\public\amsfonts\cm\cmbx12.pfb
INPUT C:\Users\Admin\AppData\Local\Programs\MiKTeX\fonts\type1\public\amsfonts\cm\cmex10.pfb
INPUT C:\Users\Admin\AppData\Local\Programs\MiKTeX\fonts\type1\public\amsfonts\cm\cmex10.pfb
INPUT C:\Users\Admin\AppData\Local\Programs\MiKTeX\fonts\type1\public\amsfonts\cm\cmmi10.pfb
INPUT C:\Users\Admin\AppData\Local\Programs\MiKTeX\fonts\type1\public\amsfonts\cm\cmmi10.pfb
INPUT C:\Users\Admin\AppData\Local\Programs\MiKTeX\fonts\type1\public\amsfonts\cm\cmmi5.pfb
INPUT C:\Users\Admin\AppData\Local\Programs\MiKTeX\fonts\type1\public\amsfonts\cm\cmmi5.pfb
INPUT C:\Users\Admin\AppData\Local\Programs\MiKTeX\fonts\type1\public\amsfonts\cm\cmmi7.pfb
INPUT C:\Users\Admin\AppData\Local\Programs\MiKTeX\fonts\type1\public\amsfonts\cm\cmmi7.pfb
INPUT C:\Users\Admin\AppData\Local\Programs\MiKTeX\fonts\type1\public\amsfonts\cm\cmr10.pfb
INPUT C:\Users\Admin\AppData\Local\Programs\MiKTeX\fonts\type1\public\amsfonts\cm\cmr10.pfb
INPUT C:\Users\Admin\AppData\Local\Programs\MiKTeX\fonts\type1\public\amsfonts\cm\cmr12.pfb
INPUT C:\Users\Admin\AppData\Local\Programs\MiKTeX\fonts\type1\public\amsfonts\cm\cmr12.pfb
INPUT C:\Users\Admin\AppData\Local\Programs\MiKTeX\fonts\type1\public\amsfonts\cm\cmr17.pfb
INPUT C:\Users\Admin\AppData\Local\Programs\MiKTeX\fonts\type1\public\amsfonts\cm\cmr17.pfb
INPUT C:\Users\Admin\AppData\Local\Programs\MiKTeX\fonts\type1\public\amsfonts\cm\cmr5.pfb
INPUT C:\Users\Admin\AppData\Local\Programs\MiKTeX\fonts\type1\public\amsfonts\cm\cmr5.pfb
INPUT C:\Users\Admin\AppData\Local\Programs\MiKTeX\fonts\type1\public\amsfonts\cm\cmr7.pfb
INPUT C:\Users\Admin\AppData\Local\Programs\MiKTeX\fonts\type1\public\amsfonts\cm\cmr7.pfb
INPUT C:\Users\Admin\AppData\Local\Programs\MiKTeX\fonts\type1\public\amsfonts\cm\cmsy10.pfb
INPUT C:\Users\Admin\AppData\Local\Programs\MiKTeX\fonts\type1\public\amsfonts\cm\cmsy10.pfb
INPUT C:\Users\Admin\AppData\Local\Programs\MiKTeX\fonts\type1\public\amsfonts\cm\cmsy7.pfb
INPUT C:\Users\Admin\AppData\Local\Programs\MiKTeX\fonts\type1\public\amsfonts\cm\cmsy7.pfb
INPUT C:\Users\Admin\AppData\Local\Programs\MiKTeX\fonts\type1\public\amsfonts\cm\cmti10.pfb
INPUT C:\Users\Admin\AppData\Local\Programs\MiKTeX\fonts\type1\public\amsfonts\cm\cmti10.pfb
