\relax 
\providecommand\babel@aux[2]{}
\@nameuse{bbl@beforestart}
\catcode `"\active 
\babel@aux{ngerman}{}
\@writefile{toc}{\contentsline {section}{\numberline {1}Einleitung}{1}{}\protected@file@percent }
\@writefile{toc}{\contentsline {section}{\numberline {2}Aufbau und Durchführung}{1}{}\protected@file@percent }
\@writefile{lof}{\contentsline {figure}{\numberline {1}{\ignorespaces Aufbau}}{2}{}\protected@file@percent }
\@writefile{toc}{\contentsline {section}{\numberline {3}Theorie}{2}{}\protected@file@percent }
\newlabel{eq:8}{{4}{2}}
\newlabel{eq:17}{{17}{4}}
\newlabel{eq:19}{{18}{4}}
\newlabel{eq=minspalt}{{19}{4}}
\@writefile{toc}{\contentsline {section}{\numberline {4}Messprotokoll}{4}{}\protected@file@percent }
\@writefile{toc}{\contentsline {subsection}{\numberline {4.1}Quantitative Beobachtungen am Einzelspalt}{4}{}\protected@file@percent }
\@writefile{toc}{\contentsline {subsection}{\numberline {4.2}Beugungsstruktur des Doppelspaltes}{4}{}\protected@file@percent }
\@writefile{toc}{\contentsline {subsection}{\numberline {4.3}Das Objektbild als Fouriersynthese}{5}{}\protected@file@percent }
\@writefile{toc}{\contentsline {subsection}{\numberline {4.4}Fourierbild des Doppelspaltes}{5}{}\protected@file@percent }
\@writefile{toc}{\contentsline {section}{\numberline {5}Auswertung}{5}{}\protected@file@percent }
\@writefile{toc}{\contentsline {subsection}{\numberline {5.1}Quantitative Beobachtungen am Einzelspalt}{5}{}\protected@file@percent }
\@writefile{toc}{\contentsline {subsection}{\numberline {5.2}Beugungsstruktur des Doppelspaltes}{7}{}\protected@file@percent }
\@writefile{toc}{\contentsline {subsection}{\numberline {5.3}Fouriersynthese des Beugungsbildes}{9}{}\protected@file@percent }
\@writefile{toc}{\contentsline {subsection}{\numberline {5.4}Fourierbild des Doppelspaltes}{12}{}\protected@file@percent }
\@writefile{toc}{\contentsline {section}{\numberline {6}Diskussion}{13}{}\protected@file@percent }
\@writefile{toc}{\contentsline {section}{\numberline {7}Anhang}{14}{}\protected@file@percent }
\@writefile{toc}{\contentsline {subsection}{\numberline {7.1}Messprotokoll}{14}{}\protected@file@percent }
\@writefile{toc}{\contentsline {subsection}{\numberline {7.2}Plots}{25}{}\protected@file@percent }
\@writefile{lof}{\contentsline {figure}{\numberline {2}{\ignorespaces Messwerte des Doppelspaltes geplottet}}{25}{}\protected@file@percent }
\newlabel{fig:1}{{2}{25}}
\@writefile{lof}{\contentsline {figure}{\numberline {3}{\ignorespaces Messwerte des Spaltes geplottet}}{26}{}\protected@file@percent }
\newlabel{fig:2}{{3}{26}}
\@writefile{lof}{\contentsline {figure}{\numberline {4}{\ignorespaces Abstand der Minima über die Ordnung}}{26}{}\protected@file@percent }
\newlabel{fig:3}{{4}{26}}
\@writefile{lof}{\contentsline {figure}{\numberline {5}{\ignorespaces Beugung am theoretischen Spalt}}{27}{}\protected@file@percent }
\newlabel{fig:4}{{5}{27}}
\@writefile{lof}{\contentsline {figure}{\numberline {6}{\ignorespaces Beugung am Spalt und Doppelspalt}}{27}{}\protected@file@percent }
\newlabel{fig:5}{{6}{27}}
\@writefile{lof}{\contentsline {figure}{\numberline {7}{\ignorespaces Einzelspalt, 1 Maxima}}{28}{}\protected@file@percent }
\newlabel{fig:6}{{7}{28}}
\@writefile{lof}{\contentsline {figure}{\numberline {8}{\ignorespaces Einzelspalt, 2 Maxima}}{28}{}\protected@file@percent }
\newlabel{fig:7}{{8}{28}}
\@writefile{lof}{\contentsline {figure}{\numberline {9}{\ignorespaces Einzelspalt, 3 Maxima}}{29}{}\protected@file@percent }
\newlabel{fig:8}{{9}{29}}
\@writefile{lof}{\contentsline {figure}{\numberline {10}{\ignorespaces Einzelspalt, 4 Maxima}}{29}{}\protected@file@percent }
\newlabel{fig:9}{{10}{29}}
\@writefile{lof}{\contentsline {figure}{\numberline {11}{\ignorespaces Einzelspalt, 5 Maxima}}{30}{}\protected@file@percent }
\newlabel{fig:10}{{11}{30}}
\@writefile{lof}{\contentsline {figure}{\numberline {12}{\ignorespaces Einzelspalt, 10 Maxima}}{30}{}\protected@file@percent }
\newlabel{fig:11}{{12}{30}}
\@writefile{lof}{\contentsline {figure}{\numberline {13}{\ignorespaces Doppelspalt, 1 Maxima auf jeder Seite}}{31}{}\protected@file@percent }
\newlabel{fig:12}{{13}{31}}
\@writefile{lof}{\contentsline {figure}{\numberline {14}{\ignorespaces Doppelspalt, 2 Maxima auf jeder Seite}}{31}{}\protected@file@percent }
\newlabel{fig:13}{{14}{31}}
\@writefile{lof}{\contentsline {figure}{\numberline {15}{\ignorespaces Doppelspalt, 3 Maxima auf jeder Seite}}{32}{}\protected@file@percent }
\newlabel{fig:14}{{15}{32}}
\@writefile{lof}{\contentsline {figure}{\numberline {16}{\ignorespaces Doppelspalt, 4 Maxima auf jeder Seite}}{32}{}\protected@file@percent }
\newlabel{fig:14}{{16}{32}}
\@writefile{lof}{\contentsline {figure}{\numberline {17}{\ignorespaces Doppelspalt, 5 Maxima auf jeder Seite}}{33}{}\protected@file@percent }
\newlabel{fig:15}{{17}{33}}
\@writefile{lof}{\contentsline {figure}{\numberline {18}{\ignorespaces Doppelspalt, 15 Maxima auf jeder Seite}}{33}{}\protected@file@percent }
\newlabel{fig:16}{{18}{33}}
\@writefile{lof}{\contentsline {figure}{\numberline {19}{\ignorespaces Doppelspalt für kritisches n}}{34}{}\protected@file@percent }
\newlabel{fig:17}{{19}{34}}
\@writefile{lof}{\contentsline {figure}{\numberline {20}{\ignorespaces Übergang von Gauß zu Plateu}}{34}{}\protected@file@percent }
\newlabel{fig:18}{{20}{34}}
\gdef \@abspage@last{35}
