1	2
2	1
3	0
4	2
5	0
6	2
7	2
8	1
9	1
10	3
11	2
12	4
13	3
14	4
15	9
16	2
17	7
18	6
19	7
20	1
21	4
22	4
23	5
24	4
25	1
26	5
27	4
28	3
29	5
30	7
31	3
32	3
33	4
34	3
35	3
36	1
37	2
38	4
39	4
40	2
41	1
42	1
43	1
44	1
45	4
46	2
47	4
48	3
