\relax 
\providecommand\babel@aux[2]{}
\@nameuse{bbl@beforestart}
\catcode `"\active 
\babel@aux{ngerman}{}
\@writefile{toc}{\contentsline {section}{\numberline {1}Einleitung}{1}{}\protected@file@percent }
\@writefile{toc}{\contentsline {section}{\numberline {2}Aufgaben und Aufbau}{1}{}\protected@file@percent }
\@writefile{lof}{\contentsline {figure}{\numberline {1}{\ignorespaces Aufbau des Versuches 251}}{1}{}\protected@file@percent }
\@writefile{toc}{\contentsline {section}{\numberline {3}Theorie}{2}{}\protected@file@percent }
\@writefile{toc}{\contentsline {section}{\numberline {4}Durchführung}{2}{}\protected@file@percent }
\@writefile{toc}{\contentsline {subsection}{\numberline {4.1}Messung der Zählrohrcharakteristik}{2}{}\protected@file@percent }
\@writefile{toc}{\contentsline {subsection}{\numberline {4.2}Untersuchung des Plateauanstiegs}{2}{}\protected@file@percent }
\@writefile{toc}{\contentsline {subsection}{\numberline {4.3}Verifizierung der statistischen Natur des radioaktiven Zerfalls}{3}{}\protected@file@percent }
\@writefile{toc}{\contentsline {subsection}{\numberline {4.4}Vergleich der Poisson- und Gauß- Verteilung bei sehr kleinen Zählraten}{3}{}\protected@file@percent }
\@writefile{toc}{\contentsline {section}{\numberline {5}Protokoll}{3}{}\protected@file@percent }
\@writefile{toc}{\contentsline {section}{\numberline {6}Auswertung}{8}{}\protected@file@percent }
\@writefile{toc}{\contentsline {subsection}{\numberline {6.1}Messung der Zählrohrcharakteristik}{8}{}\protected@file@percent }
\@writefile{toc}{\contentsline {subsection}{\numberline {6.2}Untersuchung des Plateauanstiegs}{8}{}\protected@file@percent }
\newlabel{tab1}{{6.2}{8}}
\@writefile{lot}{\contentsline {table}{\numberline {1}{\ignorespaces Zusammenfassung der Ergebnisse}}{8}{}\protected@file@percent }
\@writefile{toc}{\contentsline {subsection}{\numberline {6.3}Verifizierung der statistischen Natur des radioaktiven Zerfalls}{9}{}\protected@file@percent }
\@writefile{toc}{\contentsline {subsection}{\numberline {6.4}Vergleich der Poisson- und Gauß- Verteilung bei sehr kleinen Zählraten}{10}{}\protected@file@percent }
\@writefile{toc}{\contentsline {section}{\numberline {7}Diskussion}{10}{}\protected@file@percent }
\@writefile{toc}{\contentsline {section}{\numberline {8}Anhang}{11}{}\protected@file@percent }
\@writefile{toc}{\contentsline {subsection}{\numberline {8.1}Anmerkung}{11}{}\protected@file@percent }
\@writefile{lof}{\contentsline {figure}{\numberline {2}{\ignorespaces Beispielsweise Auswertung}}{11}{}\protected@file@percent }
\@writefile{toc}{\contentsline {subsection}{\numberline {8.2}Source Code}{12}{}\protected@file@percent }
\@writefile{toc}{\contentsline {subsection}{\numberline {8.3}Plots}{18}{}\protected@file@percent }
\@writefile{lof}{\contentsline {figure}{\numberline {3}{\ignorespaces Zählrohrcharakteristik}}{19}{}\protected@file@percent }
\newlabel{fig:1}{{3}{19}}
\@writefile{lof}{\contentsline {figure}{\numberline {4}{\ignorespaces Statistik des Zerfalls bei hoher Ereignisrate}}{19}{}\protected@file@percent }
\newlabel{fig:2}{{4}{19}}
\@writefile{lof}{\contentsline {figure}{\numberline {5}{\ignorespaces Statistik des Zerfalls bei mittlerer Ereignisrate}}{20}{}\protected@file@percent }
\newlabel{fig:3}{{5}{20}}
\@writefile{lof}{\contentsline {figure}{\numberline {6}{\ignorespaces Auswertung anhand der Messdaten anderer Gruppen}}{20}{}\protected@file@percent }
\newlabel{fig:4}{{6}{20}}
\@writefile{lof}{\contentsline {figure}{\numberline {7}{\ignorespaces Auswertung anhand der Messdaten anderer Gruppen}}{21}{}\protected@file@percent }
\newlabel{fig:5}{{7}{21}}
\@writefile{lof}{\contentsline {figure}{\numberline {8}{\ignorespaces Auswertung anhand der Messdaten anderer Gruppen}}{21}{}\protected@file@percent }
\newlabel{fig:6}{{8}{21}}
\@writefile{lof}{\contentsline {figure}{\numberline {9}{\ignorespaces Auswertung anhand der Messdaten anderer Gruppen}}{22}{}\protected@file@percent }
\newlabel{fig:7}{{9}{22}}
\@writefile{lof}{\contentsline {figure}{\numberline {10}{\ignorespaces Auswertung anhand der Messdaten anderer Gruppen}}{22}{}\protected@file@percent }
\newlabel{fig:8}{{10}{22}}
\@writefile{lof}{\contentsline {figure}{\numberline {11}{\ignorespaces Auswertung anhand der Messdaten anderer Gruppen}}{23}{}\protected@file@percent }
\newlabel{fig:9}{{11}{23}}
\@writefile{lof}{\contentsline {figure}{\numberline {12}{\ignorespaces Auswertung anhand der Messdaten anderer Gruppen}}{23}{}\protected@file@percent }
\newlabel{fig:10}{{12}{23}}
\@writefile{lof}{\contentsline {figure}{\numberline {13}{\ignorespaces Auswertung anhand der Messdaten anderer Gruppen}}{24}{}\protected@file@percent }
\newlabel{fig:11}{{13}{24}}
\@writefile{lof}{\contentsline {figure}{\numberline {14}{\ignorespaces Auswertung anhand der Messdaten anderer Gruppen}}{24}{}\protected@file@percent }
\newlabel{fig:12}{{14}{24}}
\@writefile{lof}{\contentsline {figure}{\numberline {15}{\ignorespaces Auswertung anhand der Messdaten anderer Gruppen}}{25}{}\protected@file@percent }
\newlabel{fig:13}{{15}{25}}
\gdef \@abspage@last{26}
