\relax 
\providecommand\babel@aux[2]{}
\@nameuse{bbl@beforestart}
\catcode `"\active 
\babel@aux{ngerman}{}
\@writefile{toc}{\contentsline {section}{\numberline {1}Einleitung}{1}{}\protected@file@percent }
\@writefile{toc}{\contentsline {subsection}{\numberline {1.1}Aufgaben und Aufbau}{1}{}\protected@file@percent }
\@writefile{lof}{\contentsline {figure}{\numberline {1}{\ignorespaces Aufbau des Versuches}}{1}{}\protected@file@percent }
\@writefile{toc}{\contentsline {section}{\numberline {2}Theorie}{2}{}\protected@file@percent }
\newlabel{eq:1}{{1}{2}}
\newlabel{eq:2}{{2}{2}}
\newlabel{eq:3}{{5}{2}}
\@writefile{toc}{\contentsline {subsection}{\numberline {2.1}Symmetrische Schwingung}{2}{}\protected@file@percent }
\newlabel{eq:4}{{9}{2}}
\@writefile{toc}{\contentsline {subsection}{\numberline {2.2}Asymmetrische Schwingung}{3}{}\protected@file@percent }
\newlabel{eq:5}{{12}{3}}
\@writefile{toc}{\contentsline {subsection}{\numberline {2.3}Schwebungsschwingung}{3}{}\protected@file@percent }
\newlabel{eq:6}{{15}{3}}
\newlabel{eq:7}{{18}{3}}
\@writefile{toc}{\contentsline {subsection}{\numberline {2.4}Kopplungsgrad}{3}{}\protected@file@percent }
\newlabel{eq:8}{{20}{3}}
\@writefile{toc}{\contentsline {section}{\numberline {3}Durchführung}{3}{}\protected@file@percent }
\@writefile{toc}{\contentsline {section}{\numberline {4}Auswertung}{4}{}\protected@file@percent }
\@writefile{toc}{\contentsline {subsection}{\numberline {4.1}Ohne Feder}{4}{}\protected@file@percent }
\@writefile{lot}{\contentsline {table}{\numberline {1}{\ignorespaces Zusammenfassung Pendel ohne Feder}}{4}{}\protected@file@percent }
\@writefile{toc}{\contentsline {subsubsection}{\numberline {4.1.1}Source Code}{4}{}\protected@file@percent }
\@writefile{toc}{\contentsline {subsection}{\numberline {4.2}Symmetrische Schwingung}{5}{}\protected@file@percent }
\newlabel{tab:sym}{{4.2}{5}}
\@writefile{lot}{\contentsline {table}{\numberline {2}{\ignorespaces Zusammenfassung des symmetrisches Schwingvorgangs}}{5}{}\protected@file@percent }
\@writefile{toc}{\contentsline {subsubsection}{\numberline {4.2.1}Source Code}{5}{}\protected@file@percent }
\@writefile{toc}{\contentsline {subsection}{\numberline {4.3}Antsymmetrische Schwingung}{5}{}\protected@file@percent }
\newlabel{tab:anti}{{4.3}{6}}
\@writefile{lot}{\contentsline {table}{\numberline {3}{\ignorespaces Zusammenfassung des antisymmetrisches Schwingvorgangs}}{6}{}\protected@file@percent }
\@writefile{toc}{\contentsline {subsubsection}{\numberline {4.3.1}Source Code}{6}{}\protected@file@percent }
\@writefile{toc}{\contentsline {subsection}{\numberline {4.4}Schwebung}{6}{}\protected@file@percent }
\newlabel{tab:schwebung}{{4.4}{6}}
\@writefile{lot}{\contentsline {table}{\numberline {4}{\ignorespaces Zusammenfassung der Schwebung}}{6}{}\protected@file@percent }
\@writefile{toc}{\contentsline {subsubsection}{\numberline {4.4.1}Source Code}{7}{}\protected@file@percent }
\@writefile{toc}{\contentsline {subsection}{\numberline {4.5}Kopplungsgrade}{8}{}\protected@file@percent }
\newlabel{tab:kappa}{{4.5}{8}}
\@writefile{lot}{\contentsline {table}{\numberline {5}{\ignorespaces Berechnung der Verhältnisse der Kopplungsgrade}}{8}{}\protected@file@percent }
\newlabel{tab:kappa2}{{4.5}{9}}
\@writefile{toc}{\contentsline {subsubsection}{\numberline {4.5.1}Source Code}{9}{}\protected@file@percent }
\@writefile{lot}{\contentsline {table}{\numberline {6}{\ignorespaces Vergleich der Unsicherheiten}}{10}{}\protected@file@percent }
\@writefile{toc}{\contentsline {section}{\numberline {5}Diskussion}{11}{}\protected@file@percent }
\@writefile{toc}{\contentsline {section}{\numberline {6}Anhang}{12}{}\protected@file@percent }
\@writefile{toc}{\contentsline {subsection}{\numberline {6.1}Messprotokoll}{12}{}\protected@file@percent }
\@writefile{toc}{\contentsline {subsection}{\numberline {6.2}Plots}{14}{}\protected@file@percent }
\gdef \@abspage@last{34}
