\relax 
\providecommand\babel@aux[2]{}
\@nameuse{bbl@beforestart}
\catcode `"\active 
\babel@aux{ngerman}{}
\@writefile{toc}{\contentsline {section}{\numberline {1}Einleitung}{1}{}\protected@file@percent }
\@writefile{toc}{\contentsline {subsection}{\numberline {1.1}Aufgaben und Aufbau}{1}{}\protected@file@percent }
\@writefile{lof}{\contentsline {figure}{\numberline {1}{\ignorespaces Aufbau und Schaltkreis des Versuchs}}{1}{}\protected@file@percent }
\newlabel{fig:1}{{1}{1}}
\@writefile{toc}{\contentsline {section}{\numberline {2}Theorie}{2}{}\protected@file@percent }
\newlabel{fig:2}{{2}{2}}
\newlabel{eq:1}{{2}{2}}
\@writefile{toc}{\contentsline {section}{\numberline {3}Durchführung und Messprotokoll}{3}{}\protected@file@percent }
\@writefile{toc}{\contentsline {subsection}{\numberline {3.1}Gleichspannungsverstärker}{3}{}\protected@file@percent }
\@writefile{toc}{\contentsline {subsection}{\numberline {3.2}Verstärker für Wechselspannung}{3}{}\protected@file@percent }
\@writefile{toc}{\contentsline {subsection}{\numberline {3.3}Frequenzgang des Verstärkungsfaktors}{3}{}\protected@file@percent }
\@writefile{toc}{\contentsline {subsection}{\numberline {3.4}Untersuchung eines Rechtecksignals}{3}{}\protected@file@percent }
\@writefile{toc}{\contentsline {section}{\numberline {4}Auswertung}{3}{}\protected@file@percent }
\@writefile{toc}{\contentsline {subsection}{\numberline {4.1}Gleichspannungsverstärker}{3}{}\protected@file@percent }
\@writefile{toc}{\contentsline {subsection}{\numberline {4.2}Verstärker für Wechselspannung}{4}{}\protected@file@percent }
\@writefile{toc}{\contentsline {subsection}{\numberline {4.3}Frequenzgang des Verstärkungsfaktors}{5}{}\protected@file@percent }
\@writefile{toc}{\contentsline {subsection}{\numberline {4.4}Untersuchung eines Rechtecksignals}{5}{}\protected@file@percent }
\@writefile{toc}{\contentsline {section}{\numberline {5}Diskussion}{5}{}\protected@file@percent }
\@writefile{lot}{\contentsline {table}{\numberline {1}{\ignorespaces Zusammenfassung aus 1a}}{5}{}\protected@file@percent }
\@writefile{lot}{\contentsline {table}{\numberline {2}{\ignorespaces Zusammenfassung aus 1b}}{6}{}\protected@file@percent }
\@writefile{toc}{\contentsline {section}{\numberline {6}Anhang}{6}{}\protected@file@percent }
\@writefile{toc}{\contentsline {subsection}{\numberline {6.1}Messprotokoll}{6}{}\protected@file@percent }
\@writefile{toc}{\contentsline {subsection}{\numberline {6.2}Source Code}{8}{}\protected@file@percent }
\@writefile{toc}{\contentsline {subsection}{\numberline {6.3}Plots}{10}{}\protected@file@percent }
\@writefile{lof}{\contentsline {figure}{\numberline {2}{\ignorespaces Gleichspannungsverstärker R = $48.7k\Omega $}}{11}{}\protected@file@percent }
\newlabel{fig:3}{{2}{11}}
\@writefile{lof}{\contentsline {figure}{\numberline {3}{\ignorespaces Gleichspannungsverstärker R = $274k\Omega $}}{12}{}\protected@file@percent }
\newlabel{fig:4}{{3}{12}}
\@writefile{lof}{\contentsline {figure}{\numberline {4}{\ignorespaces Wechselspannungsverstärker R = $274k\Omega $}}{13}{}\protected@file@percent }
\newlabel{fig:5}{{4}{13}}
\@writefile{lof}{\contentsline {figure}{\numberline {5}{\ignorespaces Wechselspannungsverstärker R = $680k\Omega $}}{14}{}\protected@file@percent }
\newlabel{fig:6}{{5}{14}}
\@writefile{lof}{\contentsline {figure}{\numberline {6}{\ignorespaces Wechselstromverstärker in Abh. der Frequenz}}{15}{}\protected@file@percent }
\newlabel{fig:7}{{6}{15}}
\gdef \@abspage@last{16}
