1,000	1,001	56,734	30,575
2,000	2,002	91,477	68,842
3,000	3,003	90,894	69,424
4,000	4,003	91,186	69,424
5,000	5,004	90,894	69,910
6,000	6,005	90,312	71,075
7,000	7,006	90,894	71,463
8,000	8,007	92,739	71,852
9,000	9,007	93,127	72,725
10,000	10,009	91,865	71,755
11,000	11,009	90,215	70,978
12,000	12,011	89,729	71,172
13,000	13,011	90,118	71,269
14,000	14,013	89,632	70,201
15,000	15,013	87,982	69,424
16,000	16,014	87,108	69,522
17,000	17,015	87,593	69,424
18,000	18,015	85,360	68,745
19,000	19,017	86,137	69,522
20,000	20,018	86,331	70,298
21,000	21,019	84,875	70,007
22,000	22,019	84,972	70,007
23,000	23,020	85,166	70,007
24,000	24,021	86,428	70,104
25,000	25,022	84,778	70,492
26,000	26,022	84,584	70,687
27,000	27,023	85,652	70,492
28,000	28,025	85,749	71,075
29,000	29,025	85,554	70,687
30,000	30,026	85,749	70,492
31,000	31,027	86,525	69,910
32,000	32,028	85,943	69,327
33,000	33,028	86,137	70,395
34,000	34,029	84,972	69,133
35,000	35,031	85,360	67,677
36,000	36,031	86,428	66,900
37,000	37,032	86,137	65,250
38,000	38,033	86,428	66,221
39,000	39,034	86,525	65,832
40,000	40,034	86,817	66,123
41,000	41,036	86,331	66,123
42,000	42,036	86,331	66,221
43,000	43,037	86,719	66,609
44,000	44,038	85,554	65,929
45,000	45,038	83,127	66,123
46,000	46,040	83,419	68,162
47,000	47,041	84,098	67,774
48,000	48,041	84,098	66,318
49,000	49,042	83,710	65,832
50,000	50,043	83,904	65,541
51,000	51,044	83,710	66,900
52,000	52,045	84,486	67,580
53,000	53,046	85,263	67,191
54,000	54,047	84,584	66,900
55,000	55,047	84,195	65,929
56,000	56,049	85,846	66,706
57,000	57,049	86,914	66,318
58,000	58,050	86,914	67,288
59,000	59,051	87,399	68,454
60,000	60,052	86,137	67,774
61,000	61,053	86,428	69,522
62,000	62,053	86,622	69,813
63,000	63,055	86,428	70,395
64,000	64,055	85,846	70,687
65,000	65,056	86,525	70,007
66,000	66,056	85,652	70,589
67,000	67,058	86,428	70,298
68,000	68,059	87,982	71,269
69,000	69,059	88,661	70,784
70,000	70,061	88,467	68,939
71,000	71,061	89,923	68,842
72,000	72,062	90,409	70,784
73,000	73,063	89,147	70,978
74,000	74,064	90,312	71,075
75,000	75,064	88,952	71,560
76,000	76,066	89,147	70,881
77,000	77,066	89,923	69,522
78,000	78,068	90,215	69,522
79,000	79,068	90,020	70,784
80,000	80,069	89,147	71,366
81,000	81,069	88,758	72,143
82,000	82,071	88,079	71,949
83,000	83,071	87,496	72,531
84,000	84,072	88,079	72,337
85,000	85,073	88,176	72,240
86,000	86,074	87,108	72,531
87,000	87,075	85,166	72,531
88,000	88,076	85,457	73,696
89,000	89,077	84,486	74,085
90,000	90,077	84,195	73,793
91,000	91,079	84,486	75,444
92,000	92,079	84,778	75,153
93,000	93,080	84,681	74,570
94,000	94,081	85,360	74,473
95,000	95,081	87,108	73,502
96,000	96,083	84,972	73,308
97,000	97,084	84,778	73,793
98,000	98,084	86,234	74,473
99,000	99,085	85,360	73,502
100,000	100,086	84,875	73,405
101,000	101,087	85,360	73,988
102,000	102,087	86,137	74,473
103,000	103,089	85,846	75,347
104,000	104,090	83,807	74,279
105,000	105,090	84,195	72,920
106,000	106,091	84,875	73,211
107,000	107,092	85,360	75,347
108,000	108,093	86,137	75,347
109,000	109,094	85,166	76,512
110,000	110,095	84,584	76,803
111,000	111,095	84,098	76,706
112,000	112,096	83,030	77,094
113,000	113,098	83,419	76,609
114,000	114,098	83,419	75,832
115,000	115,099	82,836	75,347
116,000	116,100	80,797	76,609
117,000	117,101	79,438	75,347
118,000	118,101	77,302	75,153
119,000	119,103	77,399	73,890
120,000	120,103	79,729	74,764
121,000	121,104	80,020	74,376
122,000	122,105	79,147	72,434
123,000	123,106	79,050	72,240
124,000	124,106	77,982	71,755
125,000	125,108	76,719	73,017
126,000	126,109	75,166	72,531
127,000	127,109	74,972	71,852
128,000	128,110	75,069	71,463
129,000	129,111	74,195	73,502
130,000	130,112	75,360	72,143
131,000	131,113	75,457	72,143
132,000	132,114	77,496	72,143
133,000	133,114	77,205	71,560
134,000	134,116	77,593	71,560
135,000	135,116	77,302	72,143
136,000	136,117	78,758	72,628
137,000	137,118	80,797	73,211
138,000	138,219	82,156	72,143
139,000	139,219	82,836	71,172
140,000	140,221	83,710	72,725
141,000	141,221	86,817	73,502
142,000	142,222	87,496	74,182
143,000	143,223	88,564	74,861
144,000	144,224	89,826	76,803
145,000	145,225	87,205	77,483
146,000	146,226	87,496	76,706
147,000	147,227	87,593	77,094
148,000	148,227	87,690	76,318
149,000	149,229	87,399	74,182
150,000	150,229	88,467	75,153
151,000	151,230	88,661	76,318
