\relax 
\providecommand\babel@aux[2]{}
\@nameuse{bbl@beforestart}
\catcode `"\active 
\babel@aux{ngerman}{}
\@writefile{toc}{\contentsline {section}{\numberline {1}Einleitung}{1}{}\protected@file@percent }
\@writefile{toc}{\contentsline {section}{\numberline {2}Aufgaben und Aufbau}{1}{}\protected@file@percent }
\@writefile{lof}{\contentsline {figure}{\numberline {1}{\ignorespaces Aufbau des Versuches 231}}{1}{}\protected@file@percent }
\@writefile{toc}{\contentsline {section}{\numberline {3}Theorie}{2}{}\protected@file@percent }
\@writefile{toc}{\contentsline {subsection}{\numberline {3.1}Kräftefreier Kreisel}{2}{}\protected@file@percent }
\@writefile{lof}{\contentsline {figure}{\numberline {2}{\ignorespaces kräftefreier Kreisel}}{2}{}\protected@file@percent }
\@writefile{toc}{\contentsline {subsection}{\numberline {3.2}Schwere Kreisel}{3}{}\protected@file@percent }
\newlabel{eq:1}{{12}{3}}
\@writefile{toc}{\contentsline {section}{\numberline {4}Durchführung}{3}{}\protected@file@percent }
\@writefile{toc}{\contentsline {subsection}{\numberline {4.1}Qualitative Beobachtung des Kreisels}{3}{}\protected@file@percent }
\@writefile{toc}{\contentsline {subsection}{\numberline {4.2}Dämpfung des Kreisels}{4}{}\protected@file@percent }
\@writefile{toc}{\contentsline {subsection}{\numberline {4.3}Präzession}{4}{}\protected@file@percent }
\@writefile{toc}{\contentsline {subsection}{\numberline {4.4}Umlauf der momentanen Drehachse um die Figurenachse}{4}{}\protected@file@percent }
\@writefile{toc}{\contentsline {subsection}{\numberline {4.5}Nutation}{4}{}\protected@file@percent }
\@writefile{toc}{\contentsline {section}{\numberline {5}Auswertung}{4}{}\protected@file@percent }
\@writefile{toc}{\contentsline {subsection}{\numberline {5.1}Qualitative Beobachtung des Kreisels}{4}{}\protected@file@percent }
\@writefile{toc}{\contentsline {subsection}{\numberline {5.2}Dämpfung des Kreisels}{5}{}\protected@file@percent }
\@writefile{toc}{\contentsline {subsection}{\numberline {5.3}Präzession}{5}{}\protected@file@percent }
\@writefile{lot}{\contentsline {table}{\numberline {1}{\ignorespaces Zusammenfassung der Messungen zu 3a)}}{6}{}\protected@file@percent }
\newlabel{tab:1}{{1}{6}}
\newlabel{eq:2}{{20}{6}}
\@writefile{toc}{\contentsline {subsection}{\numberline {5.4}Umlauf der momentanen Drehachse um die Figurenachse}{7}{}\protected@file@percent }
\@writefile{toc}{\contentsline {subsection}{\numberline {5.5}Nutation}{8}{}\protected@file@percent }
\@writefile{toc}{\contentsline {section}{\numberline {6}Diskussion}{8}{}\protected@file@percent }
\@writefile{toc}{\contentsline {section}{\numberline {7}Anhang}{9}{}\protected@file@percent }
\@writefile{toc}{\contentsline {subsection}{\numberline {7.1}Messprotokoll}{9}{}\protected@file@percent }
\@writefile{toc}{\contentsline {subsection}{\numberline {7.2}Source Code}{14}{}\protected@file@percent }
\@writefile{toc}{\contentsline {subsection}{\numberline {7.3}Plots}{18}{}\protected@file@percent }
\@writefile{lof}{\contentsline {figure}{\numberline {3}{\ignorespaces Bestimmung der Dämpfungskonstante}}{18}{}\protected@file@percent }
\newlabel{fig:1}{{3}{18}}
\@writefile{lof}{\contentsline {figure}{\numberline {4}{\ignorespaces Bestimmung des Trägheitsmomentes}}{19}{}\protected@file@percent }
\newlabel{fig:2}{{4}{19}}
\@writefile{lof}{\contentsline {figure}{\numberline {5}{\ignorespaces Bestimmung der Trägheitsmomentes $I_x$}}{19}{}\protected@file@percent }
\newlabel{fig:3}{{5}{19}}
\@writefile{lof}{\contentsline {figure}{\numberline {6}{\ignorespaces Nutationsbewegung}}{20}{}\protected@file@percent }
\newlabel{fig:4}{{6}{20}}
\gdef \@abspage@last{21}
