\relax 
\providecommand\babel@aux[2]{}
\@nameuse{bbl@beforestart}
\catcode `"\active 
\babel@aux{ngerman}{}
\@writefile{toc}{\contentsline {section}{\numberline {1}Einleitung}{1}{}\protected@file@percent }
\@writefile{toc}{\contentsline {section}{\numberline {2}Aufgaben und Aufbau}{1}{}\protected@file@percent }
\@writefile{lof}{\contentsline {figure}{\numberline {1}{\ignorespaces Aufbau des Versuches 222}}{1}{}\protected@file@percent }
\@writefile{toc}{\contentsline {section}{\numberline {3}Theorie}{2}{}\protected@file@percent }
\@writefile{toc}{\contentsline {section}{\numberline {4}Durchführung}{3}{}\protected@file@percent }
\@writefile{toc}{\contentsline {subsection}{\numberline {4.1}Quantitative Bestimmung der Kälteleistung}{3}{}\protected@file@percent }
\@writefile{toc}{\contentsline {subsection}{\numberline {4.2}Betrieb als Kältemaschiene und Wärmepumpe}{4}{}\protected@file@percent }
\@writefile{toc}{\contentsline {subsection}{\numberline {4.3}Betrieb als Wärmekraftmaschiene}{4}{}\protected@file@percent }
\@writefile{toc}{\contentsline {section}{\numberline {5}Protokoll}{4}{}\protected@file@percent }
\@writefile{toc}{\contentsline {section}{\numberline {6}Auswertung}{9}{}\protected@file@percent }
\@writefile{toc}{\contentsline {subsection}{\numberline {6.1}Betrieb als Kältemaschiene}{9}{}\protected@file@percent }
\newlabel{eq:1}{{18}{9}}
\@writefile{lof}{\contentsline {figure}{\numberline {2}{\ignorespaces Temperaturverlauf}}{10}{}\protected@file@percent }
\@writefile{toc}{\contentsline {subsection}{\numberline {6.2}Betrieb als Kältemaschiene und Wärmepumpe}{10}{}\protected@file@percent }
\@writefile{lof}{\contentsline {figure}{\numberline {3}{\ignorespaces Temperaturverlauf des Wassers}}{11}{}\protected@file@percent }
\@writefile{lof}{\contentsline {figure}{\numberline {4}{\ignorespaces Temperaturverlauf des Wassers 1}}{11}{}\protected@file@percent }
\@writefile{lof}{\contentsline {figure}{\numberline {5}{\ignorespaces Temperaturverlauf des Wassers 2}}{12}{}\protected@file@percent }
\@writefile{toc}{\contentsline {subsection}{\numberline {6.3}Betrieb als Wärmekraftmaschiene}{13}{}\protected@file@percent }
\@writefile{lot}{\contentsline {table}{\numberline {1}{\ignorespaces Betrieb als Wärmekraftmaschiene}}{13}{}\protected@file@percent }
\newlabel{tab:2}{{6.3}{14}}
\@writefile{lot}{\contentsline {table}{\numberline {2}{\ignorespaces Berechnung von $\eta _{th}$ und $\eta _{eff}$}}{14}{}\protected@file@percent }
\@writefile{lof}{\contentsline {figure}{\numberline {6}{\ignorespaces Plot der Wirkungsgrade}}{14}{}\protected@file@percent }
\@writefile{lof}{\contentsline {figure}{\numberline {7}{\ignorespaces Druck als Funktion der Zeit}}{15}{}\protected@file@percent }
\@writefile{lof}{\contentsline {figure}{\numberline {8}{\ignorespaces Volumen als Funktion der Zeit}}{16}{}\protected@file@percent }
\@writefile{toc}{\contentsline {section}{\numberline {7}Diskussion}{16}{}\protected@file@percent }
\@writefile{lof}{\contentsline {figure}{\numberline {9}{\ignorespaces pV-Diagramm}}{17}{}\protected@file@percent }
\newlabel{fig:1}{{9}{17}}
\@writefile{toc}{\contentsline {section}{\numberline {8}Anhang}{18}{}\protected@file@percent }
\@writefile{toc}{\contentsline {subsection}{\numberline {8.1}Source Code}{18}{}\protected@file@percent }
\gdef \@abspage@last{22}
