51	1
52	0
53	0
54	1
55	0
56	0
57	2
58	3
59	0
60	5
61	3
62	4
63	2
64	5
65	3
66	5
67	6
68	6
69	8
70	8
71	11
72	11
73	18
74	13
75	10
76	11
77	11
78	8
79	8
80	13
81	8
82	7
83	10
84	9
85	7
86	5
87	5
88	4
89	2
90	3
91	1
92	2
93	2
94	3
95	0
96	0
97	0
98	1
99	0
100	0
101	0
102	1
