\relax 
\providecommand\babel@aux[2]{}
\@nameuse{bbl@beforestart}
\catcode `"\active 
\babel@aux{ngerman}{}
\@writefile{toc}{\contentsline {section}{\numberline {1}Einleitung}{1}{}\protected@file@percent }
\@writefile{toc}{\contentsline {subsection}{\numberline {1.1}Aufgaben und Aufbau}{1}{}\protected@file@percent }
\@writefile{lof}{\contentsline {figure}{\numberline {1}{\ignorespaces Aufbau des Versuches 252}}{1}{}\protected@file@percent }
\@writefile{toc}{\contentsline {subsection}{\numberline {1.2}Theorie}{1}{}\protected@file@percent }
\newlabel{eq2}{{3}{2}}
\newlabel{eq1}{{5}{2}}
\@writefile{toc}{\contentsline {subsection}{\numberline {1.3}Durchführung}{2}{}\protected@file@percent }
\@writefile{toc}{\contentsline {subsection}{\numberline {1.4}Halbwertszeit von Silber}{2}{}\protected@file@percent }
\@writefile{toc}{\contentsline {subsection}{\numberline {1.5}Halbwertszeit von Indium}{2}{}\protected@file@percent }
\@writefile{toc}{\contentsline {subsection}{\numberline {1.6}Auswertung}{3}{}\protected@file@percent }
\@writefile{toc}{\contentsline {subsection}{\numberline {1.7}Halbwertszeit von Silber}{3}{}\protected@file@percent }
\newlabel{tab1}{{1.7}{3}}
\@writefile{lot}{\contentsline {table}{\numberline {1}{\ignorespaces Zusammenfassung der Ergebnisse von Silber}}{3}{}\protected@file@percent }
\newlabel{p1}{{8}{3}}
\newlabel{tab2}{{1.7}{4}}
\@writefile{lot}{\contentsline {table}{\numberline {2}{\ignorespaces Bestimmung der Halbwertszeit von Silber}}{4}{}\protected@file@percent }
\@writefile{toc}{\contentsline {subsection}{\numberline {1.8}Halbwertszeit von Indium}{4}{}\protected@file@percent }
\newlabel{tab2}{{1.8}{4}}
\@writefile{lot}{\contentsline {table}{\numberline {3}{\ignorespaces Zusammenfassung der Ergebnisse von Indium}}{4}{}\protected@file@percent }
\newlabel{p2}{{17}{4}}
\@writefile{toc}{\contentsline {subsection}{\numberline {1.9}Diskussion}{4}{}\protected@file@percent }
\newlabel{tab3}{{1.9}{5}}
\@writefile{lot}{\contentsline {table}{\numberline {4}{\ignorespaces Zusammenfassung des Versuchs}}{5}{}\protected@file@percent }
\@writefile{toc}{\contentsline {subsection}{\numberline {1.10}Anhang}{5}{}\protected@file@percent }
\@writefile{toc}{\contentsline {subsection}{\numberline {1.11}Source Code}{5}{}\protected@file@percent }
\@writefile{toc}{\contentsline {subsection}{\numberline {1.12}Plots}{10}{}\protected@file@percent }
\@writefile{lof}{\contentsline {figure}{\numberline {2}{\ignorespaces Zerfall von Silber}}{11}{}\protected@file@percent }
\newlabel{fig:1}{{2}{11}}
\@writefile{lof}{\contentsline {figure}{\numberline {3}{\ignorespaces Zerfall von Silber $+\sigma $}}{11}{}\protected@file@percent }
\newlabel{fig:2}{{3}{11}}
\@writefile{lof}{\contentsline {figure}{\numberline {4}{\ignorespaces Zerfall von Silber $-\sigma $}}{12}{}\protected@file@percent }
\newlabel{fig:3}{{4}{12}}
\@writefile{lof}{\contentsline {figure}{\numberline {5}{\ignorespaces Zerfall von Indium}}{12}{}\protected@file@percent }
\newlabel{fig:4}{{5}{12}}
\@writefile{lof}{\contentsline {figure}{\numberline {6}{\ignorespaces Zerfall von Indium $+\sigma $}}{13}{}\protected@file@percent }
\newlabel{fig:5}{{6}{13}}
\@writefile{lof}{\contentsline {figure}{\numberline {7}{\ignorespaces Zerfall von Indium $-\sigma $}}{13}{}\protected@file@percent }
\newlabel{fig:6}{{7}{13}}
\gdef \@abspage@last{14}
