\relax 
\providecommand\babel@aux[2]{}
\@nameuse{bbl@beforestart}
\catcode `"\active 
\babel@aux{ngerman}{}
\@writefile{toc}{\contentsline {section}{\numberline {1}Einleitung}{1}{}\protected@file@percent }
\@writefile{toc}{\contentsline {subsection}{\numberline {1.1}Aufbau und Durchführung}{1}{}\protected@file@percent }
\@writefile{lof}{\contentsline {figure}{\numberline {1}{\ignorespaces Aufbau}}{1}{}\protected@file@percent }
\@writefile{toc}{\contentsline {section}{\numberline {2}Theorie}{2}{}\protected@file@percent }
\newlabel{formel:1}{{1}{2}}
\newlabel{formel:2}{{2}{2}}
\newlabel{formel:3}{{3}{2}}
\newlabel{formel:4}{{4}{3}}
\@writefile{toc}{\contentsline {section}{\numberline {3}Durchführung}{3}{}\protected@file@percent }
\@writefile{toc}{\contentsline {subsection}{\numberline {3.1}Sonnenspektrum}{3}{}\protected@file@percent }
\@writefile{toc}{\contentsline {subsection}{\numberline {3.2}Qualitativer Vergleich einfacher Lichtquellenspektren}{3}{}\protected@file@percent }
\@writefile{toc}{\contentsline {subsection}{\numberline {3.3}Natriumspektrum}{3}{}\protected@file@percent }
\@writefile{toc}{\contentsline {section}{\numberline {4}Auswertung}{3}{}\protected@file@percent }
\@writefile{toc}{\contentsline {subsection}{\numberline {4.1}Auswertung des Sonnenspektrums}{3}{}\protected@file@percent }
\@writefile{toc}{\contentsline {subsection}{\numberline {4.2}Vergleich einfacher Lichtquellenspektren}{4}{}\protected@file@percent }
\@writefile{toc}{\contentsline {subsection}{\numberline {4.3}Auswertung des Natriumspektrums}{5}{}\protected@file@percent }
\@writefile{toc}{\contentsline {section}{\numberline {5}Diskussion}{8}{}\protected@file@percent }
\@writefile{toc}{\contentsline {section}{\numberline {6}Anhang}{10}{}\protected@file@percent }
\@writefile{lof}{\contentsline {figure}{\numberline {2}{\ignorespaces Aufgenommenes Sonnenspektrum ohne Glass}}{11}{}\protected@file@percent }
\newlabel{fig:1}{{2}{11}}
\@writefile{lof}{\contentsline {figure}{\numberline {3}{\ignorespaces Aufgenommenes Sonnenspektrum mit Glass}}{11}{}\protected@file@percent }
\newlabel{fig:2}{{3}{11}}
\@writefile{lof}{\contentsline {figure}{\numberline {4}{\ignorespaces Aufgenommene Sonnenspektren}}{12}{}\protected@file@percent }
\newlabel{fig:3}{{4}{12}}
\@writefile{lof}{\contentsline {figure}{\numberline {5}{\ignorespaces Absorption des Sonnenspektrums mit Glas}}{13}{}\protected@file@percent }
\newlabel{fig:4}{{5}{13}}
\@writefile{lof}{\contentsline {figure}{\numberline {6}{\ignorespaces Sonnenspektrum mit charakteristischen Linien}}{14}{}\protected@file@percent }
\newlabel{fig:5}{{6}{14}}
\@writefile{lof}{\contentsline {figure}{\numberline {7}{\ignorespaces Spektren verschiedener LEDs}}{15}{}\protected@file@percent }
\newlabel{fig:6}{{7}{15}}
\@writefile{lof}{\contentsline {figure}{\numberline {8}{\ignorespaces Spektren verschiedener LEDs}}{16}{}\protected@file@percent }
\newlabel{fig:7}{{8}{16}}
\@writefile{lof}{\contentsline {figure}{\numberline {9}{\ignorespaces Spektren verschiedener LEDs}}{17}{}\protected@file@percent }
\newlabel{fig:8}{{9}{17}}
\@writefile{lof}{\contentsline {figure}{\numberline {10}{\ignorespaces Spektren verschiedener LEDs}}{18}{}\protected@file@percent }
\newlabel{fig:9}{{10}{18}}
\@writefile{lof}{\contentsline {figure}{\numberline {11}{\ignorespaces Spektren verschiedener LEDs}}{19}{}\protected@file@percent }
\newlabel{fig:10}{{11}{19}}
\@writefile{lof}{\contentsline {figure}{\numberline {12}{\ignorespaces Spektren verschiedener LEDs}}{20}{}\protected@file@percent }
\newlabel{fig:11}{{12}{20}}
\@writefile{lof}{\contentsline {figure}{\numberline {13}{\ignorespaces Spektren verschiedener LEDs}}{21}{}\protected@file@percent }
\newlabel{fig:12}{{13}{21}}
\@writefile{lof}{\contentsline {figure}{\numberline {14}{\ignorespaces Spektrum der Natriumlampe 1}}{22}{}\protected@file@percent }
\newlabel{fig:13}{{14}{22}}
\@writefile{lof}{\contentsline {figure}{\numberline {15}{\ignorespaces Spektrum der Natriumlampe 2}}{22}{}\protected@file@percent }
\newlabel{fig:14}{{15}{22}}
\@writefile{lof}{\contentsline {figure}{\numberline {16}{\ignorespaces Spektrum der Natriumlampe 3}}{23}{}\protected@file@percent }
\newlabel{fig:15}{{16}{23}}
\@writefile{lof}{\contentsline {figure}{\numberline {17}{\ignorespaces Spektrum der Natriumlampe 4}}{23}{}\protected@file@percent }
\newlabel{fig:16}{{17}{23}}
\@writefile{lof}{\contentsline {figure}{\numberline {18}{\ignorespaces Natiumspektrum geringer Intensität}}{24}{}\protected@file@percent }
\newlabel{fig:17}{{18}{24}}
\@writefile{lof}{\contentsline {figure}{\numberline {19}{\ignorespaces Erste Nebenserie des Na-Atoms}}{25}{}\protected@file@percent }
\newlabel{fig:18}{{19}{25}}
\@writefile{lof}{\contentsline {figure}{\numberline {20}{\ignorespaces Zweite Nebenserie des Na-Atoms}}{26}{}\protected@file@percent }
\newlabel{fig:19}{{20}{26}}
\@writefile{lof}{\contentsline {figure}{\numberline {21}{\ignorespaces Natrium geringer Intensität}}{27}{}\protected@file@percent }
\newlabel{fig:20}{{21}{27}}
\@writefile{lof}{\contentsline {figure}{\numberline {22}{\ignorespaces Natrium hoher Intensität}}{28}{}\protected@file@percent }
\newlabel{fig:21}{{22}{28}}
\gdef \@abspage@last{29}
