\relax 
\providecommand\babel@aux[2]{}
\@nameuse{bbl@beforestart}
\catcode `"\active 
\babel@aux{ngerman}{}
\@writefile{toc}{\contentsline {section}{\numberline {1}Einleitung}{1}{}\protected@file@percent }
\@writefile{toc}{\contentsline {section}{\numberline {2}Aufgaben und Aufbau}{1}{}\protected@file@percent }
\@writefile{lof}{\contentsline {figure}{\numberline {1}{\ignorespaces Aufbau des Versuches 223}}{1}{}\protected@file@percent }
\@writefile{toc}{\contentsline {section}{\numberline {3}Theorie}{2}{}\protected@file@percent }
\newlabel{eq1}{{7}{2}}
\newlabel{eq2}{{12}{2}}
\@writefile{toc}{\contentsline {section}{\numberline {4}Durchführung}{3}{}\protected@file@percent }
\@writefile{toc}{\contentsline {subsection}{\numberline {4.1}Präparation der Partikelsuspension}{3}{}\protected@file@percent }
\@writefile{toc}{\contentsline {subsection}{\numberline {4.2}Aufnahme einer Bildfolge}{3}{}\protected@file@percent }
\@writefile{toc}{\contentsline {subsection}{\numberline {4.3}Eichung des Abbildungsmaßstabs}{3}{}\protected@file@percent }
\@writefile{toc}{\contentsline {subsection}{\numberline {4.4}Vermessung der Partikelposition}{3}{}\protected@file@percent }
\@writefile{toc}{\contentsline {section}{\numberline {5}Auswertung}{3}{}\protected@file@percent }
\newlabel{tab:1}{{5}{5}}
\@writefile{lot}{\contentsline {table}{\numberline {1}{\ignorespaces Zusammenfassung der Versuchsergebnisse}}{5}{}\protected@file@percent }
\@writefile{toc}{\contentsline {section}{\numberline {6}Diskussion}{5}{}\protected@file@percent }
\@writefile{toc}{\contentsline {section}{\numberline {7}Anhang}{5}{}\protected@file@percent }
\@writefile{toc}{\contentsline {subsection}{\numberline {7.1}Source Code}{5}{}\protected@file@percent }
\@writefile{toc}{\contentsline {subsection}{\numberline {7.2}Plots}{8}{}\protected@file@percent }
\@writefile{lof}{\contentsline {figure}{\numberline {2}{\ignorespaces Brownsche Bewegung}}{9}{}\protected@file@percent }
\newlabel{fig:1}{{2}{9}}
\@writefile{lof}{\contentsline {figure}{\numberline {3}{\ignorespaces Histogramm der Verschiebungen}}{9}{}\protected@file@percent }
\newlabel{fig:2}{{3}{9}}
\@writefile{lof}{\contentsline {figure}{\numberline {4}{\ignorespaces Kummultative Verschiebung}}{10}{}\protected@file@percent }
\newlabel{fig:3}{{4}{10}}
\gdef \@abspage@last{11}
