Data from sonnenlicht_Subt4__8__14-48-37-475.txt Node

Date: Wed Nov 10 14:48:37 CET 2021
User: Praktikum
Spectrometer: USB4F04607
Trigger mode: 0
Integration Time (sec): 1,064000E-2
Scans to average: 11
Electric dark correction enabled: true
Nonlinearity correction enabled: false
Boxcar width: 0
XAxis mode: Wavelengths
Number of Pixels in Spectrum: 3648
>>>>>Begin Spectral Data<<<<<
178,486	135,98
178,703	135,98
178,921	135,98
179,138	5,51
179,356	-1,42
179,573	16,17
179,791	2,85
180,008	19,19
180,226	43,34
180,443	-6,24
180,661	-40,32
180,878	-20,8
181,096	-64,14
181,313	-5,79
181,531	-3,42
181,748	31,05
181,965	28,1
182,183	-3,44
182,4	23,9
182,618	29,54
182,835	61,29
183,052	-32,66
183,27	-40,08
183,487	26,78
183,704	-1,44
183,922	21,5
184,139	13,37
184,356	7,33
184,574	22,11
184,791	44,1
185,008	36,6
185,225	14,87
185,443	-0,92
185,66	1,57
185,877	2
186,094	-74,11
186,312	6,74
186,529	-70,3
186,746	9,91
186,963	41,14
187,18	-4,45
187,398	28,98
187,615	38,86
187,832	-21,5
188,049	-0,5
188,266	-48,95
188,483	-43,22
188,701	-2,6
188,918	25,63
189,135	25,75
189,352	-33,21
189,569	15,19
189,786	-7,39
190,003	-5,46
190,22	11,5
190,437	-31,07
190,654	-25,5
190,871	-35,56
191,088	7,68
191,305	-48,43
191,522	-26,33
191,739	-43,7
191,956	29,2
192,173	-24,55
192,39	2,61
192,607	-2,02
192,824	-26,78
193,041	-12,81
193,258	2,4
193,475	-37,59
193,692	-38,46
193,909	-25,09
194,126	31,74
194,342	-0,32
194,559	-12,22
194,776	-42,03
194,993	18,02
195,21	5,05
195,427	17,18
195,643	-22,35
195,86	7,43
196,077	-77,08
196,294	-22,02
196,511	17,25
196,727	-35,38
196,944	-25,09
197,161	-33,03
197,378	28,44
197,594	-27,05
197,811	23
198,028	11,93
198,245	39,41
198,461	9,68
198,678	-11,75
198,895	-8,42
199,111	17,32
199,328	21,37
199,545	-35,22
199,761	-71,58
199,978	18,87
200,194	-19,95
200,411	23,83
200,628	-1,75
200,844	26,31
201,061	-61,37
201,277	37,18
201,494	30,82
201,71	8,29
201,927	-10,74
202,144	-11,39
202,36	-31,23
202,577	-49,06
202,793	-60,61
203,01	-5,53
203,226	-5,08
203,442	-7,73
203,659	28,49
203,875	-10,98
204,092	-26,74
204,308	-16,99
204,525	-0,87
204,741	27
204,958	-40,04
205,174	62,82
205,39	-29,02
205,607	15,72
205,823	-21,9
206,039	40,12
206,256	-22,46
206,472	-11,75
206,688	-6,29
206,905	-12,94
207,121	-21,99
207,337	38,48
207,554	-10,94
207,77	-24,13
207,986	-22,78
208,202	-1,3
208,419	10,15
208,635	-39,99
208,851	5,73
209,067	7,46
209,284	23,9
209,5	49,79
209,716	-23,83
209,932	-5,51
210,148	48,41
210,365	10,09
210,581	25,21
210,797	7,59
211,013	12,09
211,229	29,75
211,445	-48,03
211,661	-44,96
211,877	47,85
212,093	10,71
212,31	-10,51
212,526	-17,9
212,742	-12,53
212,958	-30,82
213,174	25,68
213,39	-23,83
213,606	28,89
213,822	12,18
214,038	-0,05
214,254	22,37
214,47	12,78
214,686	-29,59
214,902	-1,84
215,118	-54,93
215,334	-8,42
215,549	0,18
215,765	-3,01
215,981	-6,33
216,197	-55,83
216,413	25,88
216,629	19,99
216,845	-14,62
217,061	-9,28
217,277	4,24
217,492	-65,31
217,708	-33,83
217,924	50,93
218,14	37,83
218,356	4,11
218,571	-53,56
218,787	38,71
219,003	-38,82
219,219	16,69
219,435	35,9
219,65	7,53
219,866	-15,46
220,082	32,04
220,297	10,83
220,513	-11,07
220,729	-46,66
220,945	16,67
221,16	21,25
221,376	5,55
221,592	21,57
221,807	-41,23
222,023	-5,15
222,238	21,63
222,454	5,91
222,67	-15,32
222,885	62,52
223,101	-15,7
223,316	-29,5
223,532	-4,36
223,748	-14,2
223,963	20,85
224,179	44,51
224,394	-10,07
224,61	28,01
224,825	-5,89
225,041	3,06
225,256	-33,56
225,472	51,18
225,687	-23,05
225,903	31,61
226,118	-10,89
226,333	-59,58
226,549	-11,1
226,764	55,83
226,98	16,31
227,195	-26,71
227,41	9,88
227,626	-10,69
227,841	49
228,057	-10,47
228,272	6,29
228,487	-4,43
228,703	-18,58
228,918	22,8
229,133	-15,52
229,348	-11,52
229,564	26,24
229,779	-38,08
229,994	12,49
230,21	-28,33
230,425	-9,23
230,64	25,86
230,855	-3,93
231,071	37,74
231,286	9,1
231,501	23,86
231,716	-37,88
231,931	-21,28
232,146	19,52
232,362	17,48
232,577	7,98
232,792	9,05
233,007	-40,03
233,222	-18,09
233,437	37,61
233,652	32,78
233,867	-8,87
234,083	-70,57
234,298	41,78
234,513	10,02
234,728	40,48
234,943	-32,87
235,158	-64,03
235,373	11,77
235,588	-9,79
235,803	33,16
236,018	11,43
236,233	-17,93
236,448	-39
236,663	25,27
236,878	-5,75
237,093	-25,99
237,308	-31,68
237,522	-8,94
237,737	-29,95
237,952	6,27
238,167	5,01
238,382	19,03
238,597	-39,11
238,812	34,91
239,027	29,56
239,241	-12,56
239,456	41,79
239,671	20,62
239,886	7,37
240,101	23,1
240,315	27,48
240,53	10,13
240,745	32,82
240,96	-23,23
241,174	12,42
241,389	54,71
241,604	18,54
241,819	18,83
242,033	30,28
242,248	-9,16
242,463	-20,2
242,677	10,27
242,892	3,93
243,107	50,73
243,321	-20,04
243,536	26,74
243,751	18,29
243,965	44,75
244,18	-7,43
244,395	-14,51
244,609	4,9
244,824	4,85
245,038	4,51
245,253	21,68
245,467	22
245,682	-15,64
245,896	51,92
246,111	11,75
246,325	-9,53
246,54	-25,52
246,754	27,74
246,969	2,97
247,183	1,86
247,398	2,29
247,612	-11,37
247,827	36,86
248,041	-44,23
248,256	34,89
248,47	28,6
248,684	30,69
248,899	-15,88
249,113	-37,41
249,327	8,43
249,542	40,6
249,756	41,31
249,97	-7,88
250,185	-4,97
250,399	53,89
250,613	-62,93
250,828	-40,96
251,042	-10,87
251,256	-74,32
251,471	8,88
251,685	67,47
251,899	6,54
252,113	30,26
252,327	-10,06
252,542	16,33
252,756	63,15
252,97	-31,27
253,184	35,97
253,398	-22,08
253,613	27,52
253,827	6,54
254,041	6,74
254,255	34,1
254,469	-24,83
254,683	-27
254,897	-17,05
255,111	-26,98
255,325	24,19
255,54	41,4
255,754	41,18
255,968	-22,87
256,182	-29,48
256,396	-20,96
256,61	31,25
256,824	-25,72
257,038	7,71
257,252	-13,64
257,466	15,08
257,68	-50,41
257,894	3,59
258,108	17,99
258,321	-4,69
258,535	-20,22
258,749	-0,97
258,963	-47,69
259,177	-42,93
259,391	-15,39
259,605	-4,72
259,819	22,78
260,033	-7,15
260,246	-52,37
260,46	27,03
260,674	-29,47
260,888	2,51
261,102	12,83
261,315	6,72
261,529	-31,7
261,743	-15,17
261,957	19,18
262,171	5,32
262,384	45,22
262,598	27,95
262,812	7,32
263,025	16,69
263,239	-33,92
263,453	11,64
263,666	20,82
263,88	-19,3
264,094	-20,35
264,307	65,06
264,521	-15,43
264,735	5,41
264,948	25,79
265,162	-12,71
265,376	1,33
265,589	8,02
265,803	-8,09
266,016	-35,32
266,23	40,26
266,443	40,19
266,657	9,48
266,87	4,18
267,084	-5,88
267,297	-13,55
267,511	2,94
267,724	12,02
267,938	-20,31
268,151	22,42
268,365	20,53
268,578	63,85
268,792	28,24
269,005	11,28
269,218	-9,7
269,432	34,76
269,645	-1,32
269,859	8,45
270,072	37,05
270,285	38,64
270,499	7,64
270,712	48,53
270,925	-14,94
271,139	27,5
271,352	-27,83
271,565	-1,75
271,779	12,89
271,992	-32,24
272,205	28,69
272,418	-7,46
272,632	-29,45
272,845	-25,03
273,058	-6,25
273,271	15,44
273,484	26,4
273,698	-23,03
273,911	-40,91
274,124	-14,36
274,337	-4,31
274,55	-34,82
274,763	22,02
274,977	-26,02
275,19	-14,74
275,403	-15,19
275,616	-51,56
275,829	-52,73
276,042	19,79
276,255	19,97
276,468	-12,63
276,681	-17,46
276,894	-17,41
277,107	22,2
277,32	-0
277,533	-27,2
277,746	-36,69
277,959	25,38
278,172	3,26
278,385	13,68
278,598	13,03
278,811	18,83
279,024	-11,43
279,237	-11,44
279,45	-5,5
279,663	-17,03
279,876	-19,37
280,088	-43,7
280,301	39,54
280,514	-4,04
280,727	83,26
280,94	-11,97
281,153	-3,89
281,365	-20,87
281,578	-12
281,791	17,7
282,004	54,46
282,217	1,42
282,429	20,29
282,642	21,05
282,855	-9,93
283,068	10,71
283,28	-11,71
283,493	-7,21
283,706	36,55
283,918	21,54
284,131	-76,27
284,344	-10,72
284,556	-4,07
284,769	34,69
284,982	-5,26
285,194	-9,91
285,407	-40,3
285,619	-39,72
285,832	-43,29
286,045	25,97
286,257	-28,51
286,47	26,94
286,682	27,23
286,895	54,21
287,107	-5,28
287,32	10,16
287,532	-26,26
287,745	-51,15
287,957	17,19
288,17	32,64
288,382	-23,5
288,595	41,5
288,807	-24,8
289,02	32,57
289,232	-3,77
289,444	36,8
289,657	0,65
289,869	-46,77
290,082	-17,32
290,294	-10,99
290,506	45,22
290,719	42,77
290,931	49,7
291,143	-49,06
291,356	35,61
291,568	34,06
291,78	-39,58
291,993	-40,86
292,205	-14,49
292,417	15,05
292,629	33,52
292,842	-20,24
293,054	36,57
293,266	36,76
293,478	34,73
293,69	-16,09
293,903	-27,29
294,115	-5,26
294,327	-1,6
294,539	9,75
294,751	18,31
294,963	17,48
295,175	1,96
295,388	-2,07
295,6	9,43
295,812	-24,92
296,024	-7,01
296,236	-14,89
296,448	-32,19
296,66	-22,49
296,872	17,57
297,084	-34,69
297,296	27,75
297,508	-35,77
297,72	-10,81
297,932	-30,17
298,144	-0,9
298,356	16,63
298,568	37,45
298,78	-11,88
298,992	-96,49
299,204	-15,14
299,416	11,7
299,628	32,62
299,839	-43,31
300,051	23,41
300,263	-40,68
300,475	44,41
300,687	-9,41
300,899	44,95
301,111	17,75
301,322	-15,43
301,534	-74,02
301,746	5,51
301,958	-55,71
302,169	26,74
302,381	5,79
302,593	5,28
302,805	-10,02
303,016	-1,32
303,228	-18,62
303,44	0,38
303,652	-41,49
303,863	-31,61
304,075	-20,27
304,287	10,71
304,498	-42,37
304,71	-2,18
304,921	-48,5
305,133	37,5
305,345	-56,75
305,556	12,58
305,768	53,06
305,979	-28,75
306,191	41,07
306,403	-29,09
306,614	-23,75
306,826	17,7
307,037	8,88
307,249	-1,68
307,46	-4,49
307,672	20,35
307,883	-66,27
308,095	27,5
308,306	29,03
308,517	38,28
308,729	-33,09
308,94	-27,66
309,152	56,84
309,363	-96,69
309,575	-12,49
309,786	-10,31
309,997	14,09
310,209	-63,47
310,42	22,15
310,631	2,88
310,843	-6,78
311,054	-17,03
311,265	-3,87
311,477	-4,24
311,688	22,94
311,899	-50,64
312,11	31,79
312,322	-36,69
312,533	8,78
312,744	13,61
312,955	-7,95
313,166	-23,99
313,378	-23,64
313,589	-0,83
313,8	-20,02
314,011	-2,27
314,222	-45,15
314,433	-19,72
314,645	38,64
314,856	41,31
315,067	31,45
315,278	6,11
315,489	-13,93
315,7	-12,56
315,911	-40,5
316,122	-9,01
316,333	-2,92
316,544	-8,07
316,755	10,52
316,966	-15,63
317,177	29,48
317,388	1,84
317,599	20,55
317,81	-49,83
318,021	1,3
318,232	-15,7
318,443	-69,37
318,654	-2,16
318,865	7,89
319,076	-60,54
319,287	24,29
319,498	-28,56
319,708	-31,97
319,919	-8,11
320,13	-9,97
320,341	21,3
320,552	-26,87
320,763	36,84
320,973	-85,35
321,184	0,07
321,395	11,14
321,606	-18,71
321,816	42,86
322,027	17,12
322,238	39,41
322,449	6,72
322,659	-0,04
322,87	-5,24
323,081	11,97
323,291	-29,14
323,502	18,8
323,713	-78,4
323,923	-34,89
324,134	33,43
324,345	10,98
324,555	-26,37
324,766	51,27
324,976	-14,94
325,187	-29,09
325,398	10,22
325,608	-19,01
325,819	-32,3
326,029	15,46
326,24	-31,88
326,45	-11,43
326,661	-3,75
326,871	-5,79
327,082	-61,27
327,292	-11,34
327,503	24,22
327,713	39,65
327,924	56,61
328,134	9,86
328,344	-2,63
328,555	-31,36
328,765	-2,78
328,976	-9,97
329,186	-20,62
329,396	-18,45
329,607	69,08
329,817	0,27
330,027	35,77
330,238	26,58
330,448	7,91
330,658	2,87
330,868	-6,61
331,079	49,34
331,289	4,27
331,499	36,44
331,709	20,89
331,92	-14,62
332,13	6,47
332,34	-69,78
332,55	-19,45
332,76	22,28
332,971	20,92
333,181	27,97
333,391	-26,82
333,601	18,94
333,811	21,63
334,021	8,76
334,231	-14,99
334,442	22,92
334,652	14,67
334,862	-25,14
335,072	-20,56
335,282	7,32
335,492	0,2
335,702	-16,22
335,912	0,74
336,122	-32,76
336,332	-17,84
336,542	-50,41
336,752	-3,03
336,962	-45,02
337,172	69,13
337,382	-17,23
337,592	19,64
337,801	1,15
338,011	35,97
338,221	-2,22
338,431	-27,09
338,641	17,01
338,851	-21,05
339,061	-34,71
339,271	11,34
339,48	21,59
339,69	3,01
339,9	-37,07
340,11	-23,77
340,32	-3,26
340,529	-15,86
340,739	-17,43
340,949	15,43
341,159	-6,11
341,368	-7,28
341,578	-50,05
341,788	38,64
341,997	-28,08
342,207	10,87
342,417	-5,5
342,626	23,46
342,836	-70,47
343,046	43,74
343,255	21,9
343,465	34,4
343,674	13,77
343,884	23,83
344,094	30,22
344,303	-35,74
344,513	-8,74
344,722	19,93
344,932	38,89
345,141	-1,82
345,351	-43,56
345,56	-7,35
345,77	12,58
345,979	19,27
346,189	8,27
346,398	-19,91
346,608	-33,43
346,817	10,07
347,026	4,83
347,236	23,77
347,445	-17,05
347,655	-10,87
347,864	61,83
348,073	28,02
348,283	-1,77
348,492	-2,65
348,701	-28,78
348,911	-24,82
349,12	22,62
349,329	37,43
349,539	-19,43
349,748	-39,97
349,957	48,37
350,166	-54,05
350,376	-1,8
350,585	-21,61
350,794	-16,36
351,003	-38,78
351,212	-10,6
351,422	-11,28
351,631	49,04
351,84	70,12
352,049	-14,06
352,258	-1,75
352,467	-9,86
352,676	85,33
352,886	14,38
353,095	92,56
353,304	17,68
353,513	-36,58
353,722	18,24
353,931	-12,49
354,14	-17,48
354,349	29,23
354,558	51,99
354,767	-5,86
354,976	-23,34
355,185	26,4
355,394	-2,58
355,603	35,4
355,812	21,41
356,021	40,39
356,23	-1,89
356,439	22,65
356,647	-37,32
356,856	19,82
357,065	-19,21
357,274	6,72
357,483	42,89
357,692	7,12
357,901	23,39
358,109	-14,31
358,318	1,3
358,527	33,41
358,736	1,84
358,945	0,4
359,153	37,81
359,362	-24,26
359,571	6,09
359,78	-25,38
359,988	-2,07
360,197	25,19
360,406	20,55
360,614	-22,17
360,823	-24,78
361,032	-31,09
361,24	-14,72
361,449	-39,34
361,658	-44,03
361,866	19,84
362,075	23,84
362,283	12,38
362,492	6,83
362,7	15,26
362,909	34,12
363,118	-39,99
363,326	5,66
363,535	-9,37
363,743	48,8
363,952	-33,41
364,16	60,48
364,369	-0,2
364,577	18,38
364,785	23
364,994	27,84
365,202	-15,07
365,411	13,93
365,619	3,39
365,828	2,45
366,036	-14,98
366,244	-6,07
366,453	1,55
366,661	-18,53
366,869	-1,98
367,078	9,68
367,286	-6,29
367,494	2,32
367,703	50,7
367,911	17,81
368,119	-22,78
368,327	16,44
368,536	-33,92
368,744	-36,89
368,952	-14,45
369,16	-23,32
369,368	35,52
369,577	66,07
369,785	11,3
369,993	14,69
370,201	-18,83
370,409	-16,56
370,617	11,73
370,825	8,83
371,034	26,56
371,242	-14,69
371,45	-32,28
371,658	-31,68
371,866	30,33
372,074	-31,29
372,282	45,31
372,49	14,67
372,698	0,58
372,906	28,17
373,114	19,82
373,322	-23,09
373,53	3,55
373,738	-0,77
373,946	3,44
374,154	24,8
374,362	-0,31
374,57	54,95
374,777	36,21
374,985	-60,43
375,193	-62,19
375,401	-25,79
375,609	-37,74
375,817	-24,01
376,025	18,13
376,232	3,51
376,44	33,16
376,648	-10,16
376,856	53,76
377,064	25,19
377,271	-4,63
377,479	-2,83
377,687	6,56
377,894	-30,57
378,102	17,93
378,31	43,47
378,518	22,74
378,725	3,64
378,933	46,98
379,141	1,48
379,348	-8,47
379,556	46,3
379,763	23,21
379,971	-6,49
380,179	13,62
380,386	-44,73
380,594	15,34
380,801	17,46
381,009	46,91
381,216	51,22
381,424	22,02
381,631	-2,36
381,839	80,49
382,046	-30,19
382,254	11,01
382,461	71,22
382,669	61,94
382,876	79,86
383,084	33,23
383,291	-28,37
383,498	-38,87
383,706	21,75
383,913	69,44
384,121	30,89
384,328	-6,94
384,535	22,8
384,743	8,69
384,95	27,7
385,157	20,67
385,365	35,88
385,572	37,68
385,779	39,86
385,986	6,47
386,194	61,22
386,401	-16,54
386,608	15,99
386,815	26,4
387,023	41,76
387,23	12,76
387,437	39,97
387,644	3,15
387,851	47,6
388,058	25,23
388,266	25,47
388,473	41,04
388,68	45,4
388,887	78,23
389,094	-24,13
389,301	47,51
389,508	86,51
389,715	58,79
389,922	2,23
390,129	67,55
390,336	43,49
390,543	20,8
390,75	38,57
390,957	-67,08
391,164	12,44
391,371	-22,38
391,578	26,94
391,785	-5,28
391,992	44,51
392,199	75,91
392,406	-5,64
392,613	1,73
392,819	-15,25
393,026	23,63
393,233	-2,2
393,44	46,88
393,647	31,56
393,854	37,43
394,06	-2,2
394,267	24,69
394,474	42,32
394,681	89,17
394,888	11,73
395,094	4,15
395,301	51,72
395,508	48,66
395,714	21,75
395,921	24,02
396,128	41,32
396,335	74,07
396,541	2,14
396,748	48,55
396,954	20,24
397,161	8,13
397,368	65,76
397,574	26,87
397,781	62,34
397,987	31,21
398,194	78,77
398,401	54,5
398,607	26,11
398,814	55,35
399,02	63,49
399,227	63,37
399,433	-7,35
399,64	17,39
399,846	20,06
400,053	-33,81
400,259	-12,42
400,465	20,17
400,672	25,45
400,878	-22,74
401,085	25,65
401,291	19,36
401,497	3,12
401,704	61,53
401,91	51,62
402,117	47,51
402,323	38,31
402,529	53,67
402,735	49,25
402,942	69,29
403,148	11,57
403,354	52,55
403,561	88,18
403,767	21,79
403,973	-7,19
404,179	42,64
404,385	-12,31
404,592	16,24
404,798	62,41
405,004	9,41
405,21	56,03
405,416	22,91
405,622	132,1
405,829	84,04
406,035	103,23
406,241	73,84
406,447	57,11
406,653	93,84
406,859	94,44
407,065	57,53
407,271	111,84
407,477	65,42
407,683	99,1
407,889	116,15
408,095	75,12
408,301	56,1
408,507	45,34
408,713	101,54
408,919	112,39
409,125	71,64
409,331	148,56
409,537	125,9
409,743	151,84
409,949	81,35
410,154	125,61
410,36	128,01
410,566	93,66
410,772	42,77
410,978	114,17
411,184	68,88
411,389	134,7
411,595	139,67
411,801	92,83
412,007	148,99
412,212	153,4
412,418	111,57
412,624	159,68
412,83	150,57
413,035	225,22
413,241	149,13
413,447	184,69
413,652	268,94
413,858	197,02
414,064	132,68
414,269	124,57
414,475	140,81
414,681	182,56
414,886	240,94
415,092	192,91
415,297	224,88
415,503	222,52
415,708	227,2
415,914	217,42
416,119	252,34
416,325	270,28
416,53	273,84
416,736	281,36
416,941	270,42
417,147	301,78
417,352	344,38
417,558	287,7
417,763	288,1
417,969	347,84
418,174	316,03
418,379	360,39
418,585	415,14
418,79	319,57
418,995	375,06
419,201	427,36
419,406	430,53
419,611	472,72
419,817	418,26
420,022	508,98
420,227	443,56
420,433	504,71
420,638	509,56
420,843	528,1
421,048	581,01
421,254	524,03
421,459	581,43
421,664	586,87
421,869	560,68
422,074	612,32
422,279	621,04
422,485	700,68
422,69	707,94
422,895	689,7
423,1	740,81
423,305	786,37
423,51	808,09
423,715	822,53
423,92	814,4
424,125	895,23
424,33	890,87
424,535	936,08
424,74	907,07
424,945	957,19
425,15	1007,7
425,355	1018,71
425,56	1110,52
425,765	1025,94
425,97	1089,22
426,175	1109
426,38	1222,45
426,585	1200,02
426,79	1266,28
426,995	1322,71
427,2	1281,66
427,404	1400,53
427,609	1470,94
427,814	1507,45
428,019	1570,71
428,224	1546,53
428,428	1626,02
428,633	1618,99
428,838	1726,39
429,043	1733,86
429,247	1782,24
429,452	1895,52
429,657	1964,22
429,862	2051,07
430,066	2110,31
430,271	2190,18
430,476	2102,81
430,68	2275,59
430,885	2342,23
431,09	2425,77
431,294	2452,82
431,499	2528,64
431,703	2633,4
431,908	2622,41
432,113	2821,42
432,317	2766,08
432,522	3033,45
432,726	2987,62
432,931	3049,91
433,135	3235,14
433,34	3343,88
433,544	3365,71
433,749	3503,99
433,953	3582,85
434,158	3643,12
434,362	3745,14
434,566	3866,9
434,771	4008,07
434,975	4156,41
435,18	4255,65
435,384	4456,08
435,588	4582,5
435,793	4590,02
435,997	4760,22
436,201	4780,17
436,406	5102,44
436,61	5102,27
436,814	5353,88
437,019	5584,51
437,223	5827,09
437,427	5886,94
437,631	6078,85
437,836	6068,96
438,04	6197,06
438,244	6342,19
438,448	6745,99
438,652	6875,14
438,856	7043,56
439,061	7009,26
439,265	7374,39
439,469	7322,37
439,673	7570
439,877	7827,51
440,081	8044,77
440,285	8195,85
440,489	8396,87
440,693	8763,2
440,897	8988,01
441,101	9246,59
441,305	9686,7
441,509	9900
441,713	10191,79
441,917	10405,6
442,121	10821,28
442,325	10932,73
442,529	11199,31
442,733	11212,99
442,937	11671,04
443,141	12168,27
443,345	12300,59
443,549	12398,12
443,753	12938,69
443,956	13436,52
444,16	13465,04
444,364	14155,25
444,568	14528,49
444,772	14646,12
444,976	14929,88
445,179	14871,05
445,383	15551,53
445,587	15721,13
445,791	15905,88
445,994	16365,58
446,198	16923,06
446,402	17299,29
446,605	17830,88
446,809	18173,7
447,013	18584,31
447,216	18593,54
447,42	19197,62
447,624	19995,17
447,827	20767,22
448,031	20933,43
448,234	21386,07
448,438	22042,08
448,642	22474,91
448,845	23079,79
449,049	23373,17
449,252	23766,1
449,456	23868,36
449,659	24705,03
449,863	25382,25
450,066	25840,4
450,27	26222,16
450,473	26575,45
450,677	26729,88
450,88	27972,75
451,083	28723,79
451,287	29240,77
451,49	30090,79
451,694	30275,86
451,897	31389,16
452,1	31470,78
452,304	31925,08
452,507	32336,61
452,71	32912,36
452,914	33947,76
453,117	35166,2
453,32	35957,91
453,523	36685,28
453,727	37213,61
453,93	37713,36
454,133	38060,3
454,336	37418,48
454,54	38054,63
454,743	38716,74
454,946	39045,84
455,149	39803,18
455,352	39908,66
455,555	40643,39
455,759	40372,23
455,962	43309,35
456,165	42764,8
456,368	43186,94
456,571	44445,57
456,774	44864,8
456,977	45539,7
457,18	46124,77
457,383	46988,24
457,586	46807,34
457,789	47837,19
457,992	49675,55
458,195	49414,68
458,398	49174,61
458,601	50388,39
458,804	50908,13
459,007	50800,83
459,21	51754,95
459,413	51527,53
459,616	51952,61
459,818	51889,1
460,021	52257,42
460,224	52140,58
460,427	51443,11
460,63	51282,27
460,833	52268,49
461,035	52580,45
461,238	53317,37
461,441	53437,74
461,644	52316,5
461,846	53074,63
462,049	52528,94
462,252	53206,64
462,455	52896,41
462,657	53280,21
462,86	52846,69
463,063	54036,58
463,265	53003,17
463,468	52806,26
463,671	52490,64
463,873	52952,35
464,076	51810,11
464,278	51012,58
464,481	51166,66
464,684	51555,34
464,886	50694,64
465,089	51101,24
465,291	50405,08
465,494	49765,89
465,696	50048,44
465,899	49241,25
466,101	47972,14
466,304	48735,81
466,506	48517,27
466,709	46239,95
466,911	46749,36
467,113	47881,72
467,316	47364,11
467,518	45630,81
467,721	45089,3
467,923	44152,24
468,125	44229,79
468,328	43760,87
468,53	44502,14
468,732	42484,46
468,935	42247,17
469,137	41849,42
469,339	41783,12
469,541	41407,5
469,744	40596,98
469,946	40270,62
470,148	39413,49
470,35	39150,44
470,553	38833,61
470,755	38095,88
470,957	37484,16
471,159	37520,63
471,361	37074,39
471,563	36533,17
471,765	36470,83
471,968	35833,81
472,17	36447,35
472,372	36052,68
472,574	34619,36
472,776	35386,72
472,978	34386,02
473,18	34567,43
473,382	34409,24
473,584	33825,57
473,786	33203,76
473,988	32795,88
474,19	32303,02
474,392	31846,21
474,594	32310,68
474,796	31757,71
474,998	31221,71
475,2	31094,87
475,402	30552,01
475,603	30782,8
475,805	30677,2
476,007	30706,75
476,209	29467,03
476,411	29295,45
476,613	29870,22
476,814	30280,75
477,016	29231,54
477,218	28795,84
477,42	28948,38
477,622	28184,71
477,823	28392,76
478,025	28070,11
478,227	28025,92
478,428	27201,27
478,63	27681,84
478,832	27258,56
479,033	26793,77
479,235	26704,79
479,437	26250,87
479,638	25951,98
479,84	26132,88
480,042	25722,95
480,243	25178,33
480,445	24836,59
480,646	24410,25
480,848	24281,08
481,049	23819,56
481,251	23117,54
481,452	23380,95
481,654	22941,12
481,855	22572,07
482,057	22482,09
482,258	22167,37
482,46	21904,98
482,661	21496,03
482,863	21057,28
483,064	20950,52
483,265	20610,93
483,467	20595,11
483,668	20254,49
483,869	19941,36
484,071	19579,54
484,272	19274,95
484,473	18570,6
484,675	18183,61
484,876	17863,88
485,077	17586,02
485,279	17414,11
485,48	17139,25
485,681	16957,61
485,882	16659,29
486,083	16313,21
486,285	16165,36
486,486	15899,32
486,687	15695,65
486,888	15534,95
487,089	15144,68
487,29	15055,53
487,492	14675,22
487,693	14499,46
487,894	14342,65
488,095	14084,12
488,296	13985,9
488,497	13587,5
488,698	13483,28
488,899	12982,94
489,1	12867,81
489,301	12565,91
489,502	12308,91
489,703	12094,25
489,904	11883,59
490,105	11639,57
490,306	11353,67
490,507	11267,67
490,708	10978,13
490,909	10973,17
491,11	10628,14
491,31	10581,64
491,511	10273,11
491,712	10102,8
491,913	9956,66
492,114	9616,67
492,315	9580,03
492,515	9380,11
492,716	9144,89
492,917	8942,39
493,118	8752,93
493,318	8637,79
493,519	8573,61
493,72	8403,99
493,921	8352,46
494,121	8065,86
494,322	7960,07
494,523	7848,26
494,723	7674,09
494,924	7618,91
495,125	7481,15
495,325	7255,04
495,526	7093,85
495,726	7048,3
495,927	6883,02
496,127	6870,47
496,328	6716,94
496,529	6572,12
496,729	6488,62
496,93	6389,18
497,13	6264,07
497,331	6158,58
497,531	6123,06
497,731	6031,56
497,932	5863,45
498,132	5762,6
498,333	5637,17
498,533	5539,08
498,734	5348,4
498,934	5391,62
499,134	5126,64
499,335	5163,75
499,535	5072,63
499,735	4861,55
499,936	4740,39
500,136	4588,65
500,336	4500,88
500,536	4503,6
500,737	4426,18
500,937	4319,79
501,137	4355,23
501,337	4239,18
501,538	4137,83
501,738	4051,09
501,938	4017,38
502,138	3859,67
502,338	3832,48
502,538	3704,81
502,739	3674,66
502,939	3628,63
503,139	3453,44
503,339	3440,5
503,539	3377,37
503,739	3399,93
503,939	3234,15
504,139	3179,58
504,339	3114,19
504,539	3109,36
504,739	3008,42
504,939	3004,53
505,139	2955,07
505,339	2884,27
505,539	2870,79
505,739	2830,33
505,939	2806,93
506,139	2751,98
506,339	2608,87
506,539	2614,31
506,738	2507,03
506,938	2489,71
507,138	2457,23
507,338	2482,68
507,538	2434,9
507,738	2370,55
507,937	2269,93
508,137	2277,9
508,337	2231,17
508,537	2220,66
508,736	2178,5
508,936	2126,98
509,136	2080,37
509,335	1995,85
509,535	1936,38
509,735	1970,01
509,934	1957
510,134	1966,71
510,334	1885,77
510,533	1852,27
510,733	1906,57
510,932	1835,91
511,132	1861,88
511,332	1809,41
511,531	1803,07
511,731	1722,38
511,93	1705,21
512,13	1621,8
512,329	1600,3
512,529	1560,19
512,728	1539,71
512,928	1574,28
513,127	1552,8
513,326	1479,93
513,526	1470,51
513,725	1416,05
513,925	1508,21
514,124	1459,98
514,323	1392,49
514,523	1409,94
514,722	1376,02
514,921	1324,93
515,121	1289,5
515,32	1301,97
515,519	1304,62
515,719	1281,22
515,918	1314,47
516,117	1238,75
516,316	1219,98
516,515	1252,91
516,715	1204,67
516,914	1124,63
517,113	1185,04
517,312	1192,79
517,511	1067,43
517,71	1099,06
517,91	1125,76
518,109	1143,88
518,308	1081,63
518,507	1057,34
518,706	1067,21
518,905	987,77
519,104	1000,13
519,303	1007,14
519,502	985,68
519,701	1000,53
519,9	913,43
520,099	902,83
520,298	874,86
520,497	850,03
520,696	849,4
520,895	809,44
521,094	795,31
521,293	808,74
521,491	772,51
521,69	800,85
521,889	702,66
522,088	734,96
522,287	780,12
522,486	711,37
522,684	668,51
522,883	739,25
523,082	668,8
523,281	687,7
523,48	610,86
523,678	693,34
523,877	700,25
524,076	695,16
524,274	652,24
524,473	682,78
524,672	630,12
524,87	611,96
525,069	591,34
525,268	605,32
525,466	560,23
525,665	548,59
525,863	557,4
526,062	585
526,261	559,6
526,459	482,94
526,658	534,3
526,856	511,93
527,055	506,62
527,253	494,47
527,452	510,1
527,65	562,38
527,849	450,79
528,047	441,95
528,245	461,18
528,444	462,37
528,642	409,39
528,841	388,77
529,039	456,35
529,237	402,38
529,436	397,35
529,634	417,62
529,832	415,07
530,031	370,06
530,229	355,36
530,427	338,65
530,625	408,22
530,824	425,46
531,022	356,08
531,22	311,01
531,418	392,48
531,617	366,51
531,815	323,84
532,013	322,23
532,211	312,59
532,409	341,23
532,607	307,92
532,805	308,38
533,004	282,33
533,202	265,77
533,4	272,28
533,598	310,72
533,796	338,63
533,994	316,16
534,192	244,25
534,39	264,22
534,588	257,57
534,786	293,11
534,984	230,54
535,182	271,97
535,38	271,72
535,578	253,1
535,776	279,63
535,973	193,74
536,171	249,37
536,369	204,98
536,567	170,67
536,765	212,03
536,963	231,84
537,161	223,02
537,358	214,14
537,556	228,83
537,754	180,92
537,952	260,76
538,149	197,5
538,347	240,52
538,545	170
538,743	136,17
538,94	75,15
539,138	158
539,336	186,65
539,533	182,2
539,731	216,34
539,928	172,36
540,126	125,25
540,324	219,18
540,521	190,55
540,719	76,61
540,916	165,42
541,114	170,79
541,311	139,24
541,509	172,6
541,706	156,31
541,904	134,44
542,101	107,32
542,299	139,82
542,496	150,56
542,694	180,33
542,891	93,37
543,089	119,05
543,286	140,48
543,483	124,46
543,681	161,82
543,878	93,89
544,075	131,07
544,273	166,47
544,47	85,28
544,667	108,42
544,865	125,69
545,062	67,08
545,259	103,34
545,456	67,06
545,654	76,81
545,851	123,74
546,048	138,63
546,245	123,43
546,442	44,55
546,64	83,68
546,837	98
547,034	78,4
547,231	85,59
547,428	148,65
547,625	53,71
547,822	110,46
548,019	118,57
548,216	70,59
548,413	66,21
548,61	130,46
548,807	114,49
549,004	74,85
549,201	117,77
549,398	56,91
549,595	107,14
549,792	28,47
549,989	73,71
550,186	77,66
550,383	137,74
550,58	96,99
550,777	64,18
550,974	78,85
551,17	17,64
551,367	56,3
551,564	58,77
551,761	79,5
551,958	74,56
552,155	70,11
552,351	71,44
552,548	103,07
552,745	7,17
552,941	21,45
553,138	63,24
553,335	0,4
553,532	45,07
553,728	75,31
553,925	58,16
554,122	70,54
554,318	24,46
554,515	66
554,711	113,36
554,908	-19,75
555,104	50,97
555,301	64,95
555,498	87,89
555,694	48,1
555,891	66,05
556,087	7,17
556,284	91,08
556,48	81,89
556,677	110,44
556,873	66,21
557,069	48,89
557,266	41,27
557,462	30,08
557,659	91,05
557,855	38,68
558,051	20,65
558,248	46,89
558,444	11,93
558,64	45,43
558,837	92,07
559,033	53,62
559,229	31,02
559,426	55,33
559,622	71,37
559,818	13,97
560,014	15,16
560,21	-18,96
560,407	31,07
560,603	-20,89
560,799	20,56
560,995	55,33
561,191	72,38
561,387	39,38
561,584	9,84
561,78	37,43
561,976	44,46
562,172	54,91
562,368	58,72
562,564	-15,19
562,76	56,05
562,956	63,08
563,152	53,24
563,348	45,38
563,544	40,62
563,74	40,17
563,936	27,9
564,132	42,01
564,328	41,87
564,524	10,63
564,719	-10,04
564,915	13,03
565,111	12,69
565,307	15,86
565,503	19,36
565,699	33,14
565,894	32,15
566,09	27,74
566,286	21,79
566,482	6,13
566,678	31,52
566,873	12,71
567,069	27,83
567,265	51,87
567,46	-33,67
567,656	-5,62
567,852	19,68
568,047	4,18
568,243	26,51
568,439	14,89
568,634	26,11
568,83	40,71
569,025	85,26
569,221	23,61
569,417	38,96
569,612	59,15
569,808	-27,95
570,003	78,67
570,199	18,27
570,394	0,97
570,59	35,65
570,785	-5,82
570,981	36,31
571,176	14,29
571,371	15,59
571,567	69,55
571,762	20,27
571,958	42,91
572,153	10,13
572,348	10,27
572,544	6,27
572,739	-1,03
572,934	7,37
573,129	39,52
573,325	-9,41
573,52	-2,81
573,715	-13,19
573,91	-20,78
574,106	11,08
574,301	38,17
574,496	-1,14
574,691	-21,59
574,886	-20,64
575,082	2,11
575,277	39,31
575,472	-21,36
575,667	34,03
575,862	-46,37
576,057	36,31
576,252	11,79
576,447	23,5
576,642	-35,95
576,837	58,86
577,032	35,23
577,227	-52,64
577,422	35,65
577,617	-55,29
577,812	32,28
578,007	-27,99
578,202	-29,39
578,397	38,93
578,592	7,8
578,787	8,54
578,982	36,87
579,176	-36,95
579,371	-8,33
579,566	18,67
579,761	-14,56
579,956	9,14
580,15	34,58
580,345	13,14
580,54	10,65
580,735	-23,81
580,929	-3,21
581,124	35,94
581,319	10,36
581,514	-63,24
581,708	-7,53
581,903	16,67
582,098	0,7
582,292	-54,41
582,487	-39,95
582,681	-9,41
582,876	-37,85
583,071	23,75
583,265	44,87
583,46	7,41
583,654	1,35
583,849	30,57
584,043	28,31
584,238	14,72
584,432	22,98
584,627	52,93
584,821	-0,23
585,015	15,72
585,21	-25,75
585,404	64,68
585,599	-46,03
585,793	64,41
585,987	-61,18
586,182	-21,21
586,376	13,91
586,57	1,28
586,765	-19,88
586,959	-27,95
587,153	23,77
587,347	7,39
587,542	-2,07
587,736	30,19
587,93	-17,81
588,124	-12,81
588,319	-42,77
588,513	25,74
588,707	37,14
588,901	-19,93
589,095	-23,03
589,289	-15,73
589,483	-3,6
589,677	-24,4
589,872	-23,12
590,066	6,9
590,26	-9,5
590,454	25,21
590,648	1,1
590,842	32,85
591,036	-3,24
591,23	16,02
591,424	28,6
591,618	29,83
591,812	44,39
592,005	-24,64
592,199	-17,95
592,393	-51,81
592,587	55,89
592,781	25,01
592,975	-20,89
593,169	34,33
593,362	0,13
593,556	34,53
593,75	15,1
593,944	6,7
594,138	10,96
594,331	-27,81
594,525	7,62
594,719	14,67
594,912	-69,93
595,106	-27,02
595,3	-30,51
595,493	6,38
595,687	3,5
595,881	30,67
596,074	-45,9
596,268	-16,65
596,462	-14,74
596,655	-10,87
596,849	-6,24
597,042	15,46
597,236	10,99
597,429	-62,63
597,623	-21,05
597,816	-71,31
598,01	-24,6
598,203	-9,14
598,397	-31,56
598,59	23,61
598,783	27,75
598,977	14,44
599,17	-9,17
599,364	-23,79
599,557	1,53
599,75	16,56
599,944	-25,47
600,137	-29,54
600,33	36,46
600,524	32,53
600,717	-14,33
600,91	-15,79
601,103	-38,42
601,297	-6,22
601,49	33,85
601,683	16,35
601,876	-52,41
602,069	-35,81
602,263	22,71
602,456	-26,28
602,649	-6,88
602,842	-14,87
603,035	-10,9
603,228	16,11
603,421	4,42
603,614	2,9
603,807	-1,64
604	17,46
604,193	-64,46
604,386	-28,31
604,579	-24,65
604,772	-30,2
604,965	-16,11
605,158	9,73
605,351	-19
605,544	-10,81
605,737	-8,6
605,93	-10,99
606,123	-21,73
606,315	26,58
606,508	-45,83
606,701	9,84
606,894	-76,27
607,087	-50,39
607,28	-1,86
607,472	37,85
607,665	-73,89
607,858	-34,08
608,051	40,06
608,243	-36,4
608,436	8,42
608,629	-8,31
608,821	25,41
609,014	-14,33
609,207	-20,98
609,399	15,86
609,592	-2,4
609,784	3,5
609,977	32,94
610,17	-24,8
610,362	17,95
610,555	6,6
610,747	-14,45
610,94	-6
611,132	24,71
611,325	30,06
611,517	-5,55
611,71	-10,13
611,902	-31,3
612,094	-11,03
612,287	0,63
612,479	7,03
612,672	-51,27
612,864	-10,31
613,056	-62,5
613,249	-5,89
613,441	-8,29
613,633	24,62
613,826	-2,99
614,018	18,83
614,21	-55,76
614,402	-13,88
614,595	26,6
614,787	45,58
614,979	14,27
615,171	11,66
615,363	15,91
615,555	11,16
615,748	-7,28
615,94	49,22
616,132	-37,92
616,324	-12,9
616,516	3,23
616,708	-43,6
616,9	-64,46
617,092	-26,53
617,284	-79,13
617,476	42,78
617,668	-37,27
617,86	-22,58
618,052	-30,57
618,244	-21,14
618,436	-27,65
618,628	-37,97
618,82	-14,26
619,012	-25,41
619,204	-42,42
619,396	-1,23
619,587	-56,3
619,779	-31,57
619,971	-3,41
620,163	-5,12
620,355	-43,83
620,546	-35,41
620,738	-56,17
620,93	-13,17
621,122	-6,02
621,313	11,28
621,505	-78,65
621,697	-23,1
621,888	31,41
622,08	-0,05
622,272	-34,04
622,463	-67,8
622,655	31,66
622,847	-36,15
623,038	15,59
623,23	50,55
623,421	18
623,613	43,58
623,804	-19,1
623,996	16,98
624,187	2,94
624,379	1,89
624,57	-36,33
624,762	17,59
624,953	-35,85
625,145	-2,96
625,336	-51,36
625,528	-38,24
625,719	-23,74
625,91	-8,87
626,102	-14,71
626,293	3,93
626,484	5,53
626,676	-9,26
626,867	-0,92
627,058	11,5
627,249	52,23
627,441	18,87
627,632	-28,91
627,823	-79,89
628,014	-63,17
628,206	-27,72
628,397	-12,4
628,588	-51
628,779	-59,2
628,97	-17,08
629,161	-22,89
629,352	-7,19
629,543	-47,18
629,735	23,63
629,926	0,74
630,117	21,32
630,308	3,57
630,499	-30,71
630,69	-59,54
630,881	-17,7
631,072	-27,68
631,263	-21,54
631,454	-8,87
631,644	-26,06
631,835	1,82
632,026	-52,53
632,217	-72,75
632,408	-47,63
632,599	16,08
632,79	-2,72
632,981	-56,55
633,171	-5,19
633,362	-73,51
633,553	-46,12
633,744	-21,01
633,934	-21,79
634,125	-28,46
634,316	-16,92
634,507	7,95
634,697	-2,38
634,888	-58,75
635,079	-33,95
635,269	-24,02
635,46	24,2
635,65	30,67
635,841	35,23
636,032	10,34
636,222	11,93
636,413	30,93
636,603	-8,88
636,794	-51,76
636,984	-47,24
637,175	1,84
637,365	-13,26
637,556	-8,16
637,746	-37,52
637,937	39,61
638,127	25,74
638,318	32,62
638,508	5,05
638,698	-26,24
638,889	5,89
639,079	-39,36
639,269	22,92
639,46	41,38
639,65	-25,68
639,84	-7,1
640,031	-24,91
640,221	-18,62
640,411	22,8
640,601	11,44
640,791	1,32
640,982	-37,36
641,172	-16,81
641,362	-62,68
641,552	-60,41
641,742	-75,26
641,932	21,82
642,123	-63,29
642,313	-40,33
642,503	21,45
642,693	36,49
642,883	-35,16
643,073	17,95
643,263	-10,9
643,453	-25,92
643,643	-64,65
643,833	33,61
644,023	-48,14
644,213	-34,94
644,403	-13,66
644,593	-1,24
644,783	-48,14
644,972	-17,86
645,162	-19,82
645,352	-32,12
645,542	14,29
645,732	-90,9
645,922	-4,85
646,111	-8,87
646,301	32,4
646,491	-46,15
646,681	-23,81
646,87	26,69
647,06	3,98
647,25	-10,89
647,44	-40,64
647,629	0,22
647,819	-26,1
648,009	11,61
648,198	6,09
648,388	-1,39
648,577	10,27
648,767	9,08
648,957	-11,91
649,146	-27,86
649,336	10,92
649,525	-20,94
649,715	-53,2
649,904	53,81
650,094	13,64
650,283	-39,31
650,473	-25,09
650,662	-34,67
650,851	-0,22
651,041	-41,36
651,23	-52,79
651,42	-13,35
651,609	-7,15
651,798	-49,72
651,988	0,11
652,177	-26,58
652,366	9,61
652,556	-22,83
652,745	-21,01
652,934	-46,46
653,123	-38,19
653,313	11,17
653,502	25,34
653,691	-25,38
653,88	-55,63
654,069	-68,36
654,258	-28,42
654,448	-24,19
654,637	-27
654,826	-65,11
655,015	-30,2
655,204	-22,69
655,393	-50,05
655,582	15,12
655,771	29,97
655,96	-16,02
656,149	-46,03
656,338	-2,13
656,527	-57,18
656,716	-78,02
656,905	-65,13
657,094	-49,11
657,283	-26,2
657,472	-91,7
657,661	-8,94
657,849	18,51
658,038	-46,93
658,227	-16,85
658,416	23,16
658,605	15,41
658,794	-65,8
658,982	-21,81
659,171	-21,91
659,36	4,87
659,549	-6,33
659,737	-18,92
659,926	28,78
660,115	34,08
660,303	-29,39
660,492	-37,49
660,681	-30,6
660,869	11,55
661,058	-44,98
661,246	20,08
661,435	31,95
661,624	-7,7
661,812	7,17
662,001	12,63
662,189	-26,6
662,378	-20,74
662,566	-30,42
662,755	-37,04
662,943	-60,84
663,132	13,97
663,32	-12,24
663,508	-6,79
663,697	-45,27
663,885	1,17
664,074	-9,07
664,262	-22,02
664,45	-11,44
664,639	-10,69
664,827	-42,48
665,015	-19,03
665,203	-10,43
665,392	-17,3
665,58	21,86
665,768	-3,77
665,956	-46,82
666,145	-8,49
666,333	-52,39
666,521	-20,82
666,709	-67,91
666,897	-26,24
667,085	-55,98
667,273	-15,95
667,461	-17,01
667,65	-35,7
667,838	-54,88
668,026	17,73
668,214	-27,75
668,402	17,77
668,59	-36,03
668,778	-44,87
668,966	4,05
669,154	-25,3
669,342	-82,32
669,529	-12,13
669,717	0,76
669,905	-38,87
670,093	-18,56
670,281	-30,76
670,469	-23,37
670,657	-5,05
670,844	-15,25
671,032	-14,06
671,22	-51,49
671,408	34,42
671,596	17,72
671,783	-0,2
671,971	-11,62
672,159	-25,48
672,346	-15,72
672,534	-90,85
672,722	23,27
672,909	-42,05
673,097	-60,41
673,285	-27,32
673,472	18,22
673,66	-12,99
673,847	-82,78
674,035	-25,23
674,223	-3,39
674,41	-22,13
674,598	19,5
674,785	16,38
674,973	3,62
675,16	-5,01
675,347	-25,54
675,535	-53,17
675,722	-35,94
675,91	-7,19
676,097	-44,68
676,284	-8,83
676,472	6,9
676,659	-54,35
676,847	-77,91
677,034	-71,89
677,221	-15,34
677,408	41,81
677,596	-0,7
677,783	-18,8
677,97	-28,13
678,157	41,47
678,345	-44,66
678,532	-39,31
678,719	-74,79
678,906	-45,94
679,093	-45,45
679,28	-20,35
679,467	-11,95
679,655	35,54
679,842	-47,6
680,029	-46,8
680,216	-23,79
680,403	-24,64
680,59	26,74
680,777	-2,92
680,964	-2,58
681,151	-42,93
681,338	1,5
681,525	-57,96
681,712	-11,89
681,898	-58,68
682,085	-1,5
682,272	-56,16
682,459	-440,15
682,646	-31,34
682,833	-15,81
683,02	-63,85
683,206	-67,13
683,393	-13,64
683,58	-17,84
683,767	9,61
683,953	-42,05
684,14	-45,4
684,327	-95,48
684,514	-14,49
684,7	-72,75
684,887	-29,36
685,074	-36,86
685,26	-15,35
685,447	-104,37
685,633	24,92
685,82	2,34
686,007	5,6
686,193	-30,28
686,38	22,17
686,566	-26,96
686,753	-8,69
686,939	-1,35
687,126	10,89
687,312	19,21
687,499	-22,67
687,685	-81,23
687,871	-41,61
688,058	-95,88
688,244	10,69
688,431	-49,02
688,617	-122,68
688,803	21,09
688,99	3,14
689,176	9,91
689,362	22,67
689,549	-36,48
689,735	-20,51
689,921	-29,43
690,107	-64,16
690,293	-34,42
690,48	-44,28
690,666	25,5
690,852	-40,57
691,038	-42,86
691,224	10,85
691,41	13,32
691,597	-21,28
691,783	-28,82
691,969	-52,1
692,155	1,59
692,341	-52,97
692,527	-46,17
692,713	-25,01
692,899	-6,18
693,085	-15,9
693,271	-17,52
693,457	-22,94
693,643	-56,37
693,829	-68,54
694,014	-27,93
694,2	4,31
694,386	-24,58
694,572	0,63
694,758	-0,7
694,944	-33,45
695,13	2,45
695,315	-103,21
695,501	-43,38
695,687	-42,8
695,873	36,62
696,058	-34,75
696,244	-35,07
696,43	-22,76
696,615	-3,14
696,801	-6,33
696,987	-28,38
697,172	8,4
697,358	-54,39
697,544	4,4
697,729	0,54
697,915	-47,13
698,1	-42,6
698,286	-36,26
698,471	-64,16
698,657	-10,15
698,842	-25,77
699,028	-5,79
699,213	-19,57
699,399	-27,25
699,584	-61,6
699,77	27,18
699,955	-45,49
700,14	-70,21
700,326	-53,9
700,511	-29,83
700,697	-10,6
700,882	-14,44
701,067	-18,78
701,252	-53,22
701,438	3,51
701,623	-32,31
701,808	-15,91
701,993	-53,26
702,179	20,17
702,364	38,95
702,549	-9,73
702,734	-54,01
702,919	-88,18
703,105	-39,29
703,29	-88,43
703,475	-90,74
703,66	-12,04
703,845	5,42
704,03	-49,09
704,215	-0,63
704,4	-2,05
704,585	-37,81
704,77	15,16
704,955	-72,48
705,14	-91,05
705,325	4,13
705,51	20
705,695	34,28
705,88	-8,87
706,065	-34,98
706,249	-40,21
706,434	-35,41
706,619	-51,49
706,804	20,09
706,989	-59,27
707,174	-16,99
707,358	-21,52
707,543	-6,47
707,728	-18,65
707,913	2,25
708,097	-30,17
708,282	-52,93
708,467	-61,47
708,651	-8,99
708,836	-34,04
709,021	-18,24
709,205	-10,2
709,39	-76,32
709,574	16,53
709,759	-5,97
709,944	0,29
710,128	-40,59
710,313	4,49
710,497	-28,33
710,682	-46,53
710,866	-31,95
711,051	-91,95
711,235	-16,15
711,419	-37,41
711,604	-2,97
711,788	-7,5
711,973	22,6
712,157	-53,13
712,341	0,38
712,526	-37,49
712,71	-12,85
712,894	-52,5
713,079	-41,99
713,263	-50,34
713,447	-70,66
713,631	-51,13
713,815	11,77
714	-80,54
714,184	-25,16
714,368	-4,94
714,552	-30,15
714,736	-25,5
714,92	-60,28
715,105	-0,58
715,289	-39,95
715,473	-31,79
715,657	6,63
715,841	39,7
716,025	-23,84
716,209	-46,57
716,393	-42,17
716,577	-34,3
716,761	-33,23
716,945	-11,61
717,129	-39,07
717,313	-54,86
717,497	-43,67
717,68	-27,32
717,864	11,44
718,048	-24,55
718,232	8,7
718,416	-49,38
718,6	5,69
718,783	-0,04
718,967	-75,75
719,151	-23,99
719,335	-76,47
719,518	-50,14
719,702	-77,37
719,886	1,03
720,07	-14,2
720,253	-2,43
720,437	-35,43
720,621	-33,36
720,804	-48,17
720,988	-35,52
721,171	-41,02
721,355	5,42
721,538	-45,04
721,722	-59,83
721,906	-68,66
722,089	-3,66
722,273	-43,32
722,456	28,51
722,639	-13,46
722,823	19,1
723,006	0,59
723,19	-2,14
723,373	-46,12
723,556	-8,43
723,74	-24,08
723,923	-4,51
724,107	-16,89
724,29	-104,08
724,473	-55,63
724,656	-64,54
724,84	-15,75
725,023	-11,64
725,206	-9,64
725,389	-44,42
725,573	-19,97
725,756	-95,88
725,939	-32,1
726,122	-45,16
726,305	-43,31
726,488	-40,01
726,671	-10,07
726,855	-42,75
727,038	14,45
727,221	-21,37
727,404	-48,53
727,587	1,39
727,77	8,94
727,953	-23,25
728,136	-32,67
728,319	-73,24
728,502	29,95
728,685	-47,87
728,867	-94,99
729,05	-21,37
729,233	-24,94
729,416	-41,45
729,599	-22,02
729,782	-16,94
729,965	-22
730,147	-102,46
730,33	-33,54
730,513	-3,86
730,696	4,24
730,878	-5,8
731,061	-6,31
731,244	-33,85
731,427	-28,94
731,609	-4,07
731,792	-18,29
731,975	13,66
732,157	28,24
732,34	-10,33
732,522	45,18
732,705	-6,4
732,888	-4,24
733,07	-43,78
733,253	-32,26
733,435	10,22
733,618	-56,81
733,8	-27,74
733,983	-18,24
734,165	-6,54
734,347	-19,03
734,53	-28,46
734,712	-35,54
734,895	-25,48
735,077	0,2
735,259	-21,05
735,442	-1,08
735,624	12,27
735,806	-56,45
735,989	7,97
736,171	-58,07
736,353	-111,12
736,535	29,52
736,718	9,01
736,9	-5,42
737,082	11,89
737,264	-21,86
737,446	-18,33
737,628	-51,07
737,811	-48,95
737,993	-12,04
738,175	-27,47
738,357	-126,8
738,539	17,05
738,721	31,59
738,903	-68,5
739,085	-74,47
739,267	-32,26
739,449	-13,07
739,631	-49,6
739,813	-38,8
739,995	-0,49
740,177	-19,3
740,359	-56,97
740,541	-67,17
740,722	-6,15
740,904	-12,78
741,086	-50,21
741,268	-40,62
741,45	24,6
741,631	-25,14
741,813	-28,22
741,995	-10,29
742,177	-38,37
742,358	-16,4
742,54	-15,68
742,722	-1,6
742,903	8,29
743,085	-75,55
743,267	-45,67
743,448	-52,08
743,63	-14,56
743,812	-50,08
743,993	-87,84
744,175	-19,46
744,356	-46,62
744,538	-50,62
744,719	1,84
744,901	16,45
745,082	-62,41
745,264	6,16
745,445	32,89
745,627	-54,59
745,808	-38,17
745,989	-48,1
746,171	-32,28
746,352	-0,2
746,534	15,91
746,715	-42,19
746,896	-74,94
747,077	-30,13
747,259	-3,53
747,44	5,12
747,621	-0,77
747,802	-7,26
747,984	-15,44
748,165	-9,03
748,346	-28,56
748,527	9,34
748,708	-33,16
748,89	13,1
749,071	-21,07
749,252	-34,35
749,433	-6,99
749,614	10,67
749,795	5,03
749,976	-44,57
750,157	-62,34
750,338	-33,9
750,519	-71,48
750,7	-87,57
750,881	-36,3
751,062	-26,4
751,243	-117,07
751,424	5,12
751,605	-29,3
751,785	28,04
751,966	-12,06
752,147	51,18
752,328	-15,07
752,509	-58,66
752,69	13,16
752,87	-72,79
753,051	-2,67
753,232	-48,91
753,413	-47,49
753,593	29,68
753,774	-27,97
753,955	-12,85
754,135	-24,82
754,316	-17,1
754,497	-13,53
754,677	-30,85
754,858	-39,56
755,038	-80,25
755,219	-37,74
755,399	-13,19
755,58	-96,11
755,761	-1,33
755,941	6,24
756,121	-25,92
756,302	5,48
756,482	-20,27
756,663	-8,79
756,843	-68,07
757,024	-15,34
757,204	-82,29
757,384	-58,1
757,565	2,31
757,745	-23,75
757,925	-43,34
758,106	1,75
758,286	0,97
758,466	-47,6
758,646	-6,96
758,827	-49,54
759,007	-49,13
759,187	-18,83
759,367	-18,09
759,547	-15,75
759,728	9,7
759,908	-62
760,088	33,18
760,268	-31,97
760,448	-33,88
760,628	-56,95
760,808	-11,08
760,988	-91,66
761,168	-50,19
761,348	-22,17
761,528	-33,9
761,708	-60,25
761,888	-30,2
762,068	-74,3
762,248	-9,84
762,428	-89,01
762,608	-16,6
762,788	-18,87
762,968	6,11
763,147	-17,18
763,327	-10,92
763,507	34,87
763,687	-0,18
763,867	53,07
764,046	-24,62
764,226	-50,05
764,406	-48,93
764,585	-33,95
764,765	-51,54
764,945	-45,33
765,124	-5,46
765,304	-35,92
765,484	-33,03
765,663	-42,03
765,843	-4,13
766,023	-31,97
766,202	-24,55
766,382	31,77
766,561	-6,83
766,741	-18,82
766,92	-35,63
767,1	-21,73
767,279	-13,41
767,459	-26,58
767,638	-20,82
767,817	-74,21
767,997	4,74
768,176	-45,16
768,355	6,34
768,535	-17,37
768,714	-84,51
768,893	19,59
769,073	-20,64
769,252	-43,31
769,431	-33,74
769,611	-4,54
769,79	-90,92
769,969	3,06
770,148	0,18
770,327	-45,79
770,506	-33,07
770,686	27,2
770,865	-17,23
771,044	28,4
771,223	-34,12
771,402	-54,34
771,581	-68,61
771,76	-14,63
771,939	-44,91
772,118	-63,62
772,297	-0,11
772,476	-26,8
772,655	22,51
772,834	-52,61
773,013	-20,74
773,192	-16,08
773,371	-53,71
773,55	-46,17
773,728	-17,63
773,907	44,41
774,086	-29,43
774,265	-46,79
774,444	-38,37
774,623	-75,62
774,801	-46,05
774,98	-26,06
775,159	-38,06
775,337	-14,15
775,516	-62,27
775,695	-29,65
775,873	-47,11
776,052	-57,42
776,231	-39,47
776,409	-6,42
776,588	-16,18
776,767	22,98
776,945	-25,72
777,124	-8,67
777,302	-67,24
777,481	-5,64
777,659	-67,78
777,838	-55,74
778,016	-13,23
778,195	-48,62
778,373	-16,45
778,551	-4,78
778,73	-39,61
778,908	10,07
779,087	0,72
779,265	-45,11
779,443	-54,61
779,621	6,34
779,8	-55,4
779,978	-4,16
780,156	-22,55
780,335	-39,2
780,513	-1,73
780,691	-71,78
780,869	-15,1
781,047	-27,43
781,226	-88,87
781,404	-49,04
781,582	-64,74
781,76	-12,72
781,938	-28,17
782,116	18,44
782,294	23,48
782,472	1,8
782,65	-0,67
782,828	-63,67
783,006	16
783,184	-37,72
783,362	-52,41
783,54	11,53
783,718	-23,19
783,896	1,64
784,074	-10,78
784,252	-31,65
784,429	-13,66
784,607	6,4
784,785	-2,47
784,963	-29
785,141	-33,68
785,319	0,2
785,496	-40,37
785,674	-0,88
785,852	-11,28
786,029	-27,83
786,207	-29,12
786,385	-49,16
786,562	-65,56
786,74	2,02
786,918	-34,94
787,095	-39,5
787,273	-5,33
787,45	-50,73
787,628	-30,37
787,806	-32,96
787,983	-25,68
788,161	-32,89
788,338	-0,13
788,516	-28,37
788,693	-57,31
788,87	-117,34
789,048	4,85
789,225	-53,69
789,403	-48,25
789,58	-50,59
789,757	-54,99
789,935	-49,11
790,112	-18,33
790,289	14,17
790,467	11,95
790,644	29,66
790,821	-29,39
790,998	-28,73
791,176	-39,7
791,353	-48,15
791,53	-54,32
791,707	8,31
791,884	-27,9
792,061	6,47
792,238	-27,29
792,416	-27,05
792,593	7,93
792,77	-86,11
792,947	-30,87
793,124	-60,72
793,301	-35,88
793,478	-39,86
793,655	3,12
793,832	13,68
794,009	-60,68
794,186	-13,08
794,363	-8,83
794,539	-48,3
794,716	-7,75
794,893	9,41
795,07	12,49
795,247	-56,81
795,424	-46,44
795,6	-19,86
795,777	30,35
795,954	-24,98
796,131	-63,8
796,307	-80,13
796,484	-14,85
796,661	-18,69
796,837	-46,03
797,014	-27,27
797,191	-5,55
797,367	-26,2
797,544	33,54
797,721	-69,37
797,897	-28,4
798,074	-29,99
798,25	1,46
798,427	-30,06
798,603	-5,66
798,78	8,92
798,956	-30,33
799,133	-13,34
799,309	-41,2
799,486	5,86
799,662	-26,19
799,838	-37,43
800,015	-34,84
800,191	-69,28
800,367	-35,14
800,544	-12,38
800,72	-46,21
800,896	5,95
801,073	-17,21
801,249	-28,1
801,425	22,91
801,601	-21,12
801,777	20,33
801,954	-38,69
802,13	-12,9
802,306	-68,11
802,482	-44,35
802,658	-55,56
802,834	-24,08
803,01	-47,56
803,186	-15,63
803,362	-55,15
803,539	-52,26
803,715	-19,16
803,891	-85,6
804,066	-3,46
804,242	13,16
804,418	-12,78
804,594	-73,55
804,77	-67,1
804,946	-9,66
805,122	-17,32
805,298	-19
805,474	-71,73
805,65	-25,34
805,825	-47,42
806,001	-3,91
806,177	-104,64
806,353	-29,63
806,528	-9,57
806,704	-52,25
806,88	-57,31
807,055	-50,44
807,231	-94,51
807,407	-10,63
807,582	-51,16
807,758	12,44
807,934	-19,75
808,109	-60,16
808,285	3,06
808,46	-8,63
808,636	-87,93
808,811	-8,34
808,987	-58,39
809,162	-30,82
809,338	-40,96
809,513	-46,24
809,689	-43
809,864	-19,73
810,039	-32,13
810,215	-25,3
810,39	-46,32
810,566	-28,38
810,741	45,22
810,916	-50,97
811,091	16,44
811,267	-44,39
811,442	-4,65
811,617	-62,18
811,792	-41,05
811,968	-24,55
812,143	10,54
812,318	-3,51
812,493	-27,83
812,668	-16,69
812,843	-33,52
813,019	-17,27
813,194	20,69
813,369	-38,15
813,544	-41,4
813,719	-18,94
813,894	-10,27
814,069	-21,52
814,244	6,22
814,419	-18,62
814,594	-24,13
814,769	-27,79
814,944	-8,31
815,118	-21,72
815,293	-9,48
815,468	-24,33
815,643	-2,67
815,818	20
815,993	-42,84
816,167	-21,3
816,342	-30,37
816,517	0,05
816,692	-24,17
816,866	6,96
817,041	-4,85
817,216	-46,03
817,391	-60,77
817,565	-97,32
817,74	-76,99
817,914	-1,78
818,089	-40,64
818,264	-55,98
818,438	-58,59
818,613	-1,15
818,787	-34,3
818,962	-22,55
819,136	-14,74
819,311	-66,56
819,485	41,7
819,66	-48,75
819,834	-35,59
820,009	-42,39
820,183	-21,5
820,357	-37,32
820,532	-22,55
820,706	-18,31
820,88	-25,83
821,055	-21,37
821,229	0,23
821,403	-54,84
821,577	-46,66
821,752	-29,45
821,926	-55,17
822,1	-34,46
822,274	-33,07
822,448	-37,86
822,623	-0,25
822,797	-41,78
822,971	1,89
823,145	-34,94
823,319	-58,99
823,493	-51,94
823,667	-15,66
823,841	-35,07
824,015	-19,12
824,189	-52,5
824,363	-37,41
824,537	-14,2
824,711	-22,92
824,885	-18,17
825,059	-64,32
825,233	26,02
825,407	-45,94
825,581	-64,88
825,754	-50,57
825,928	-50,32
826,102	-47,15
826,276	-41,43
826,45	-24,08
826,623	-38,31
826,797	-100,53
826,971	4,65
827,145	-22,28
827,318	-69,46
827,492	-70,84
827,666	-86,31
827,839	-17,41
828,013	-27,9
828,186	-3,82
828,36	2,65
828,533	-69,01
828,707	-33,2
828,881	-39,81
829,054	-48,73
829,228	-68,43
829,401	1,12
829,575	12,89
829,748	34,78
829,921	-104,4
830,095	-4,42
830,268	-105,83
830,442	-48,7
830,615	-22,4
830,788	-18,29
830,962	-29,03
831,135	-11,86
831,308	-22,33
831,481	-61,73
831,655	-80,36
831,828	-58,95
832,001	-29,03
832,174	-82,63
832,347	11,39
832,521	-24,11
832,694	-36,55
832,867	-13,3
833,04	21,45
833,213	-39,52
833,386	-45,02
833,559	35,76
833,732	-14,58
833,905	-2
834,078	-5,24
834,251	-15,26
834,424	-15,66
834,597	-60,07
834,77	-17,72
834,943	-6,83
835,116	25,41
835,289	29,23
835,462	-36,35
835,635	-66,48
835,807	-10
835,98	21,05
836,153	-35,58
836,326	-36,64
836,498	-28,75
836,671	-11,82
836,844	19,1
837,017	-36,13
837,189	-115,63
837,362	12,67
837,535	-57,4
837,707	10,69
837,88	-2,6
838,053	-25,28
838,225	-33,16
838,398	24,83
838,57	8,49
838,743	-26,82
838,915	-49,87
839,088	-28,31
839,26	-43,67
839,433	-15,72
839,605	-42,48
839,778	-21,88
839,95	-62,81
840,122	-11,73
840,295	-46,62
840,467	-56,86
840,639	-72,27
840,812	-1,08
840,984	-59,13
841,156	-51,24
841,329	-68,72
841,501	-49,02
841,673	-118,01
841,845	0,47
842,017	-52,57
842,19	12,71
842,362	-24,89
842,534	-32,1
842,706	-23,46
842,878	-75,71
843,05	-89,26
843,222	-88,61
843,394	27,52
843,566	-143,62
843,738	-16,18
843,91	-85,03
844,082	-53,17
844,254	-47,36
844,426	-52,08
844,598	-64,03
844,77	-6,87
844,942	-90,34
845,114	-10,13
845,286	-3,41
845,458	-12,62
845,63	-41,38
845,801	3,05
845,973	-31,02
846,145	-39,43
846,317	0,63
846,488	-60,64
846,66	-69,91
846,832	-16,44
847,004	-72,63
847,175	-28,56
847,347	-72,63
847,518	7,23
847,69	-114,04
847,862	-67,89
848,033	-65,78
848,205	36,57
848,376	-5,3
848,548	-74,77
848,719	-17,43
848,891	-11,84
849,062	-46,5
849,234	-0,14
849,405	-48,7
849,577	-1,64
849,748	8,02
849,919	-5,73
850,091	-21,57
850,262	-39,86
850,433	-37,43
850,605	-72,95
850,776	-49,47
850,947	-36,93
851,119	-45,45
851,29	-27,95
851,461	-64,97
851,632	-27,57
851,803	-23,16
851,975	-43,14
852,146	-60,19
852,317	-33,2
852,488	-60,41
852,659	-38,77
852,83	-1,26
853,001	-17,75
853,172	-37,77
853,343	-85,69
853,514	5,73
853,685	-14,67
853,856	-9,86
854,027	-7,53
854,198	-4,79
854,369	-18,08
854,54	-15,84
854,711	-62,12
854,882	-57,24
855,053	-28,19
855,224	-24,24
855,394	-44,91
855,565	-55,65
855,736	-23,74
855,907	-41,76
856,077	-35,11
856,248	-16,49
856,419	-54,01
856,59	-66,57
856,76	-34,85
856,931	-39,27
857,102	-25,65
857,272	-16,83
857,443	-68,56
857,613	-0,52
857,784	-31,48
857,954	-74,95
858,125	-16,17
858,295	-26,71
858,466	27,81
858,636	-15,26
858,807	-21,5
858,977	-28,42
859,148	-62,97
859,318	-29,52
859,489	-7,84
859,659	-45,45
859,829	-79,77
860	-71,24
860,17	-88,13
860,34	-79,55
860,511	-50,55
860,681	-30,85
860,851	-41,02
861,021	-35,86
861,191	-43,16
861,362	-31,07
861,532	-57,11
861,702	13,43
861,872	-91,61
862,042	12,47
862,212	-50,01
862,382	-63,56
862,552	-60,46
862,723	-86,74
862,893	-19,36
863,063	8,36
863,233	-15,3
863,403	-8,92
863,573	-36,22
863,742	-89,98
863,912	-49,47
864,082	-23,75
864,252	-15,54
864,422	-36,55
864,592	-30,13
864,762	-18,26
864,932	-26,89
865,101	-25,27
865,271	-58,28
865,441	-13,99
865,611	-79,8
865,78	-21,01
865,95	18,08
866,12	-25,41
866,289	0,67
866,459	-0,81
866,629	12,07
866,798	-0,96
866,968	-52,77
867,137	-42,35
867,307	-7,53
867,477	3,28
867,646	-91,16
867,816	-25,27
867,985	-43,61
868,155	-46,12
868,324	8,51
868,493	-19,95
868,663	-74,27
868,832	30,39
869,002	-12,76
869,171	-2,87
869,34	-28,62
869,51	35,79
869,679	5,44
869,848	-36,8
870,018	0,72
870,187	-24,08
870,356	-15,64
870,525	-83,89
870,695	-34,96
870,864	-16,09
871,033	-18,09
871,202	-56,59
871,371	-84,45
871,54	-3,59
871,709	-23,43
871,878	-26,82
872,048	-9,12
872,217	-60,64
872,386	-44,44
872,555	-41,29
872,724	-11,7
872,893	19,73
873,062	-36,51
873,23	-48,91
873,399	-52,5
873,568	-1,26
873,737	-27,11
873,906	-14,98
874,075	-36,22
874,244	17,08
874,412	-50,34
874,581	-29,07
874,75	-21,95
874,919	-27,48
875,088	-22,82
875,256	-83,89
875,425	-18,89
875,594	-3,39
875,762	-31,11
875,931	-16,53
876,1	6,52
876,268	-37,97
876,437	-23,46
876,605	-22,62
876,774	5,12
876,942	7,79
877,111	9,53
877,279	-30,51
877,448	23,92
877,616	-64,23
877,785	-44,57
877,953	-54,97
878,122	-80,29
878,29	-26,53
878,458	-47,33
878,627	-15,5
878,795	4,11
878,963	-20,46
879,132	12,62
879,3	-4,33
879,468	-40,51
879,637	-49,16
879,805	-25,56
879,973	-36,44
880,141	-3,23
880,309	15,01
880,477	-41,97
880,646	-4,52
880,814	-26,62
880,982	-23
881,15	-74,47
881,318	2,14
881,486	-59,83
881,654	-20,89
881,822	-98,92
881,99	-12,2
882,158	-87,05
882,326	-93,28
882,494	-59,63
882,662	5,33
882,83	-36,37
882,998	-49,7
883,165	-13,95
883,333	-29,25
883,501	-27,07
883,669	-6
883,837	-65,49
884,005	-0,74
884,172	-99,55
884,34	-33,79
884,508	-63,38
884,675	5,37
884,843	-41,59
885,011	-27,47
885,178	-25,65
885,346	-67,38
885,514	-67,85
885,681	-63,62
885,849	-17,45
886,016	-38,19
886,184	-64,1
886,351	-1,1
886,519	-11,32
886,686	24,13
886,854	-11,35
887,021	-26,62
887,189	-35,94
887,356	-29,56
887,524	-52,52
887,691	-61,46
887,858	-40,66
888,026	-19,07
888,193	-51,04
888,36	-52,5
888,527	-46,62
888,695	-43,04
888,862	15,46
889,029	-44,48
889,196	-44,48
889,364	-44,48
889,531	-44,48
889,698	-44,48
889,865	-44,48
