\relax 
\providecommand\babel@aux[2]{}
\@nameuse{bbl@beforestart}
\catcode `"\active 
\babel@aux{ngerman}{}
\@writefile{toc}{\contentsline {section}{\numberline {1}Einleitung}{1}{}\protected@file@percent }
\@writefile{toc}{\contentsline {section}{\numberline {2}Aufbau}{1}{}\protected@file@percent }
\@writefile{toc}{\contentsline {section}{\numberline {3}Theorie}{2}{}\protected@file@percent }
\newlabel{eq:1}{{7}{2}}
\newlabel{eq:2}{{12}{3}}
\newlabel{eq:3}{{13}{3}}
\newlabel{eq:4}{{17}{3}}
\newlabel{eq:5}{{18}{3}}
\newlabel{eq:6}{{21}{3}}
\newlabel{eq:7}{{23}{4}}
\newlabel{eq:8}{{27}{4}}
\newlabel{eq:9}{{28}{4}}
\@writefile{toc}{\contentsline {section}{\numberline {4}Auswertung}{4}{}\protected@file@percent }
\@writefile{toc}{\contentsline {subsection}{\numberline {4.1}Bestimmung der Zeitkonstante $\tau $ eines RC-Gliedes}{4}{}\protected@file@percent }
\@writefile{lot}{\contentsline {table}{\numberline {1}{\ignorespaces Zusammenfassung der Messergebnisse}}{5}{}\protected@file@percent }
\@writefile{toc}{\contentsline {subsection}{\numberline {4.2}RC-Glied als Integrator und Differentiator}{5}{}\protected@file@percent }
\@writefile{toc}{\contentsline {subsection}{\numberline {4.3}Frequenz- und Phasengang eines RC-Gliedes}{5}{}\protected@file@percent }
\@writefile{toc}{\contentsline {subsection}{\numberline {4.4}Frequenzgang eines Serienschwingkreises}{6}{}\protected@file@percent }
\@writefile{lot}{\contentsline {table}{\numberline {2}{\ignorespaces Zusammenfassung der Berechnungen}}{7}{}\protected@file@percent }
\@writefile{toc}{\contentsline {subsection}{\numberline {4.5}Bestimmung der Dämpfungskonstante}{7}{}\protected@file@percent }
\@writefile{toc}{\contentsline {subsection}{\numberline {4.6}Resonanzüberhöhung}{8}{}\protected@file@percent }
\@writefile{lot}{\contentsline {table}{\numberline {3}{\ignorespaces Zusammenfassung der Berechnungen zu 6.}}{8}{}\protected@file@percent }
\@writefile{toc}{\contentsline {subsection}{\numberline {4.7}Parallelschwingkreis- Bandsperre}{9}{}\protected@file@percent }
\@writefile{toc}{\contentsline {subsection}{\numberline {4.8}Signalformung}{9}{}\protected@file@percent }
\@writefile{lot}{\contentsline {table}{\numberline {4}{\ignorespaces Zusammenfassung der Berechnungen zu 8.}}{9}{}\protected@file@percent }
\@writefile{lot}{\contentsline {table}{\numberline {5}{\ignorespaces Werte aus Tabelle 4. auf 4kHz normiert}}{9}{}\protected@file@percent }
\@writefile{toc}{\contentsline {subsection}{\numberline {4.9}Einfacher AM-Empfänger}{10}{}\protected@file@percent }
\@writefile{toc}{\contentsline {section}{\numberline {5}Diskussion}{10}{}\protected@file@percent }
\@writefile{toc}{\contentsline {section}{\numberline {6}Anhang}{12}{}\protected@file@percent }
\@writefile{toc}{\contentsline {subsection}{\numberline {6.1}Messprotokoll}{12}{}\protected@file@percent }
\@writefile{toc}{\contentsline {subsection}{\numberline {6.2}Plots}{23}{}\protected@file@percent }
\@writefile{lof}{\contentsline {figure}{\numberline {1}{\ignorespaces RC-Glied}}{23}{}\protected@file@percent }
\newlabel{fig:1}{{1}{23}}
\@writefile{lof}{\contentsline {figure}{\numberline {2}{\ignorespaces Messwerte am Hochpassfilter}}{24}{}\protected@file@percent }
\newlabel{fig:2}{{2}{24}}
\@writefile{lof}{\contentsline {figure}{\numberline {3}{\ignorespaces Messwerte am Tiefpassfilter}}{25}{}\protected@file@percent }
\newlabel{fig:3}{{3}{25}}
\@writefile{lof}{\contentsline {figure}{\numberline {4}{\ignorespaces Phasengang am Tiefpassfilter}}{26}{}\protected@file@percent }
\newlabel{fig:4}{{4}{26}}
\@writefile{lof}{\contentsline {figure}{\numberline {5}{\ignorespaces Frequenzgang eines Serienschwingkreises}}{27}{}\protected@file@percent }
\newlabel{fig:5}{{5}{27}}
\@writefile{lof}{\contentsline {figure}{\numberline {6}{\ignorespaces Stromverlauf eines LCR-Serienschwingkreises}}{28}{}\protected@file@percent }
\newlabel{fig:6}{{6}{28}}
\@writefile{lof}{\contentsline {figure}{\numberline {7}{\ignorespaces Resonanzkurve eines LCR-Serienschwingkreises}}{29}{}\protected@file@percent }
\newlabel{fig:7}{{7}{29}}
\gdef \@abspage@last{30}
