\relax 
\providecommand\babel@aux[2]{}
\@nameuse{bbl@beforestart}
\catcode `"\active 
\babel@aux{ngerman}{}
\@writefile{toc}{\contentsline {section}{\numberline {1}Einleitung}{1}{}\protected@file@percent }
\@writefile{toc}{\contentsline {subsection}{\numberline {1.1}Aufbau}{1}{}\protected@file@percent }
\@writefile{lof}{\contentsline {figure}{\numberline {1}{\ignorespaces Kugelfallviskosimeter und Kapillarviskosimeter}}{1}{}\protected@file@percent }
\@writefile{toc}{\contentsline {section}{\numberline {2}Theorie}{2}{}\protected@file@percent }
\@writefile{toc}{\contentsline {subsection}{\numberline {2.1}Bestimmung der Viskosität nach Stokes}{2}{}\protected@file@percent }
\newlabel{eq:1}{{5}{2}}
\newlabel{eq:2}{{6}{2}}
\@writefile{toc}{\contentsline {subsection}{\numberline {2.2}Bestimmung der Viskosität nach Hagen-Poiseuille}{2}{}\protected@file@percent }
\newlabel{eq:3}{{12}{3}}
\@writefile{toc}{\contentsline {subsection}{\numberline {2.3}Strömungsarten}{3}{}\protected@file@percent }
\@writefile{toc}{\contentsline {section}{\numberline {3}Durchführung}{4}{}\protected@file@percent }
\@writefile{toc}{\contentsline {subsection}{\numberline {3.1}Kugelfallviskosimeter}{4}{}\protected@file@percent }
\@writefile{toc}{\contentsline {subsection}{\numberline {3.2}Kapillarviskosimeter}{4}{}\protected@file@percent }
\@writefile{toc}{\contentsline {section}{\numberline {4}Auswertung}{4}{}\protected@file@percent }
\@writefile{toc}{\contentsline {subsection}{\numberline {4.1}Kugelfallviskosimeter}{4}{}\protected@file@percent }
\newlabel{tab:1}{{4.1}{6}}
\@writefile{lot}{\contentsline {table}{\numberline {1}{\ignorespaces Zusammenfassung der Ergebnisse aus 1.}}{6}{}\protected@file@percent }
\@writefile{toc}{\contentsline {subsection}{\numberline {4.2}Kapillarviskosimeter}{6}{}\protected@file@percent }
\@writefile{toc}{\contentsline {section}{\numberline {5}Diskussion}{7}{}\protected@file@percent }
\@writefile{toc}{\contentsline {section}{\numberline {6}Anhang}{8}{}\protected@file@percent }
\@writefile{toc}{\contentsline {subsection}{\numberline {6.1}Messprotokoll}{8}{}\protected@file@percent }
\@writefile{toc}{\contentsline {subsection}{\numberline {6.2}Plots}{13}{}\protected@file@percent }
\@writefile{lof}{\contentsline {figure}{\numberline {2}{\ignorespaces Kugelfallviskosimeter: Messwerte}}{13}{}\protected@file@percent }
\newlabel{fig:1}{{2}{13}}
\@writefile{toc}{\contentsline {subsection}{\numberline {6.3}Source Code}{13}{}\protected@file@percent }
\@writefile{lof}{\contentsline {figure}{\numberline {3}{\ignorespaces Kugelfallviskosimeter: Reynoldszahl}}{14}{}\protected@file@percent }
\newlabel{fig:2}{{3}{14}}
\gdef \@abspage@last{21}
