\relax 
\providecommand\babel@aux[2]{}
\@nameuse{bbl@beforestart}
\catcode `"\active 
\babel@aux{ngerman}{}
\@writefile{toc}{\contentsline {section}{\numberline {1}Einleitung}{1}{}\protected@file@percent }
\@writefile{toc}{\contentsline {section}{\numberline {2}Aufbau}{1}{}\protected@file@percent }
\@writefile{toc}{\contentsline {section}{\numberline {3}Theorie}{1}{}\protected@file@percent }
\@writefile{toc}{\contentsline {subsection}{\numberline {3.1}Clèment und Desormes}{1}{}\protected@file@percent }
\newlabel{eq:2}{{2}{2}}
\newlabel{eq:1}{{3}{2}}
\@writefile{toc}{\contentsline {subsection}{\numberline {3.2}Rüchardt}{2}{}\protected@file@percent }
\newlabel{eq:3}{{8}{3}}
\@writefile{toc}{\contentsline {section}{\numberline {4}Durchführung}{3}{}\protected@file@percent }
\@writefile{toc}{\contentsline {subsection}{\numberline {4.1}Methode nach Clèment und Desormes}{3}{}\protected@file@percent }
\@writefile{toc}{\contentsline {subsection}{\numberline {4.2}Methode nach Rüchardt}{3}{}\protected@file@percent }
\@writefile{toc}{\contentsline {section}{\numberline {5}Protokoll}{3}{}\protected@file@percent }
\@writefile{toc}{\contentsline {section}{\numberline {6}Auswertung}{6}{}\protected@file@percent }
\@writefile{toc}{\contentsline {subsection}{\numberline {6.1}Methode nach Clèment und Desormes}{6}{}\protected@file@percent }
\newlabel{tab:1}{{6.1}{6}}
\@writefile{lot}{\contentsline {table}{\numberline {1}{\ignorespaces Messwerte am Manometer}}{6}{}\protected@file@percent }
\@writefile{toc}{\contentsline {subsection}{\numberline {6.2}Methode nach Rüchardt}{6}{}\protected@file@percent }
\@writefile{toc}{\contentsline {section}{\numberline {7}Diskussion}{7}{}\protected@file@percent }
\@writefile{lot}{\contentsline {table}{\numberline {2}{\ignorespaces Zusammenfassung der Adiabatenkoeffizienten von $O_2$}}{7}{}\protected@file@percent }
\@writefile{toc}{\contentsline {section}{\numberline {8}Anhang}{8}{}\protected@file@percent }
\@writefile{toc}{\contentsline {subsection}{\numberline {8.1}Source Code}{8}{}\protected@file@percent }
\gdef \@abspage@last{10}
