\relax 
\providecommand\babel@aux[2]{}
\@nameuse{bbl@beforestart}
\catcode `"\active 
\babel@aux{ngerman}{}
\@writefile{toc}{\contentsline {section}{\numberline {1}Einleitung}{1}{}\protected@file@percent }
\@writefile{toc}{\contentsline {section}{\numberline {2}Aufgaben und Aufbau}{1}{}\protected@file@percent }
\@writefile{lof}{\contentsline {figure}{\numberline {1}{\ignorespaces Aufbau des Versuches}}{1}{}\protected@file@percent }
\@writefile{toc}{\contentsline {subsection}{\numberline {2.1}Theorie}{2}{}\protected@file@percent }
\newlabel{eq:1}{{1}{2}}
\newlabel{eq:2}{{6}{2}}
\@writefile{toc}{\contentsline {section}{\numberline {3}Durchführung}{3}{}\protected@file@percent }
\@writefile{toc}{\contentsline {subsection}{\numberline {3.1}Vorversuch}{3}{}\protected@file@percent }
\@writefile{toc}{\contentsline {subsection}{\numberline {3.2}Induktionsgesetz}{3}{}\protected@file@percent }
\@writefile{toc}{\contentsline {subsection}{\numberline {3.3}Lufttransformator}{3}{}\protected@file@percent }
\@writefile{toc}{\contentsline {subsection}{\numberline {3.4}Bestimmung des Erdmagnetfeldes}{3}{}\protected@file@percent }
\@writefile{toc}{\contentsline {section}{\numberline {4}Protokoll}{3}{}\protected@file@percent }
\@writefile{toc}{\contentsline {section}{\numberline {5}Auswertung}{7}{}\protected@file@percent }
\@writefile{toc}{\contentsline {subsection}{\numberline {5.1}Induktionsgesetz}{7}{}\protected@file@percent }
\newlabel{eq:4}{{11}{7}}
\newlabel{eq:3}{{17}{7}}
\@writefile{toc}{\contentsline {subsection}{\numberline {5.2}Lufttransformator}{8}{}\protected@file@percent }
\@writefile{toc}{\contentsline {subsection}{\numberline {5.3}Bestimmung des Erdmagnetfeldes}{9}{}\protected@file@percent }
\@writefile{lot}{\contentsline {table}{\numberline {1}{\ignorespaces Zusammenfassung der Auswertung zu 3.}}{10}{}\protected@file@percent }
\newlabel{tab:1}{{1}{10}}
\@writefile{toc}{\contentsline {section}{\numberline {6}Diskussion}{10}{}\protected@file@percent }
\@writefile{toc}{\contentsline {section}{\numberline {7}Anhang}{11}{}\protected@file@percent }
\@writefile{toc}{\contentsline {subsection}{\numberline {7.1}Source Code}{11}{}\protected@file@percent }
\@writefile{toc}{\contentsline {subsection}{\numberline {7.2}Plots}{15}{}\protected@file@percent }
\@writefile{lof}{\contentsline {figure}{\numberline {2}{\ignorespaces Die induzierte Spannung als Funktion der Kreisfrequenz}}{16}{}\protected@file@percent }
\newlabel{fig:1}{{2}{16}}
\@writefile{lof}{\contentsline {figure}{\numberline {3}{\ignorespaces Die induzierte Spannung als Funktion der Stromstärke}}{16}{}\protected@file@percent }
\newlabel{fig:2}{{3}{16}}
\@writefile{lof}{\contentsline {figure}{\numberline {4}{\ignorespaces Die induzierte Spannung als Funktion der Auslenkwinkels}}{17}{}\protected@file@percent }
\newlabel{fig:3}{{4}{17}}
\@writefile{lof}{\contentsline {figure}{\numberline {5}{\ignorespaces Das Verhältnis der Spannungen in Abhängigkeit der Kreisfrequenz}}{17}{}\protected@file@percent }
\newlabel{fig:4}{{5}{17}}
\@writefile{lof}{\contentsline {figure}{\numberline {6}{\ignorespaces Der Widerstand als Funktion der Kreisfrequenz}}{18}{}\protected@file@percent }
\newlabel{fig:5}{{6}{18}}
\gdef \@abspage@last{19}
