\relax 
\providecommand\babel@aux[2]{}
\@nameuse{bbl@beforestart}
\catcode `"\active 
\babel@aux{ngerman}{}
\@writefile{toc}{\contentsline {section}{\numberline {1}Einleitung}{1}{}\protected@file@percent }
\@writefile{toc}{\contentsline {section}{\numberline {2}Aufgaben und Aufbau}{1}{}\protected@file@percent }
\@writefile{toc}{\contentsline {section}{\numberline {3}Theorie}{1}{}\protected@file@percent }
\newlabel{eq:1}{{4}{2}}
\newlabel{eq:2}{{5}{2}}
\@writefile{toc}{\contentsline {section}{\numberline {4}Durchführung}{2}{}\protected@file@percent }
\@writefile{toc}{\contentsline {subsection}{\numberline {4.1}Qualitative Untersuchung des Rauschspektrums}{2}{}\protected@file@percent }
\@writefile{toc}{\contentsline {subsection}{\numberline {4.2}Die Rauschspannung als Funktion des Widerstands}{3}{}\protected@file@percent }
\@writefile{toc}{\contentsline {subsection}{\numberline {4.3}Frequenzgang des Verstärkers und Bandpassfilters}{3}{}\protected@file@percent }
\@writefile{toc}{\contentsline {subsection}{\numberline {4.4}Messung der Rauchspannung als Funktion der Temperatur}{3}{}\protected@file@percent }
\@writefile{toc}{\contentsline {subsection}{\numberline {4.5}Messprotokoll}{3}{}\protected@file@percent }
\@writefile{toc}{\contentsline {section}{\numberline {5}Auswertung}{3}{}\protected@file@percent }
\@writefile{toc}{\contentsline {subsection}{\numberline {5.1}Qualitative Untersuchung des Rauschspektrums}{3}{}\protected@file@percent }
\@writefile{toc}{\contentsline {subsection}{\numberline {5.2}Frequenzgang des Verstärkers und Bandpassfilters}{3}{}\protected@file@percent }
\@writefile{toc}{\contentsline {subsection}{\numberline {5.3}Die Rauschspannung als Funktion des Widerstands}{4}{}\protected@file@percent }
\@writefile{toc}{\contentsline {subsection}{\numberline {5.4}Messung der Rauchspannung als Funktion der Temperatur}{4}{}\protected@file@percent }
\newlabel{tab:1}{{5.4}{5}}
\@writefile{lot}{\contentsline {table}{\numberline {1}{\ignorespaces Zusammenfassung der Messergebnisse}}{5}{}\protected@file@percent }
\@writefile{toc}{\contentsline {section}{\numberline {6}Diskussion}{5}{}\protected@file@percent }
\newlabel{tab:2}{{6}{5}}
\@writefile{lot}{\contentsline {table}{\numberline {2}{\ignorespaces Diskussion}}{5}{}\protected@file@percent }
\@writefile{toc}{\contentsline {section}{\numberline {7}Anhang}{6}{}\protected@file@percent }
\@writefile{toc}{\contentsline {subsection}{\numberline {7.1}Protokoll}{6}{}\protected@file@percent }
\@writefile{toc}{\contentsline {subsection}{\numberline {7.2}Source Code}{10}{}\protected@file@percent }
\@writefile{toc}{\contentsline {subsection}{\numberline {7.3}Plots}{14}{}\protected@file@percent }
\@writefile{lof}{\contentsline {figure}{\numberline {1}{\ignorespaces Plot der Messwerte}}{14}{}\protected@file@percent }
\newlabel{fig:1}{{1}{14}}
\@writefile{lof}{\contentsline {figure}{\numberline {2}{\ignorespaces Messwerte und Fit}}{15}{}\protected@file@percent }
\newlabel{fig:2}{{2}{15}}
\@writefile{lof}{\contentsline {figure}{\numberline {3}{\ignorespaces Messwerte und Ausgleichsgerade zu Teil 2}}{15}{}\protected@file@percent }
\newlabel{fig:3}{{3}{15}}
\@writefile{lof}{\contentsline {figure}{\numberline {4}{\ignorespaces Messwerte und Ursprungsausgleichsgerade zu Teil 4}}{16}{}\protected@file@percent }
\newlabel{fig:4}{{4}{16}}
\@writefile{lof}{\contentsline {figure}{\numberline {5}{\ignorespaces Messwerte und Ausgleichsgerade zu Teil 2}}{16}{}\protected@file@percent }
\newlabel{fig:5}{{5}{16}}
\gdef \@abspage@last{17}
