\relax 
\providecommand\babel@aux[2]{}
\@nameuse{bbl@beforestart}
\catcode `"\active 
\babel@aux{ngerman}{}
\@writefile{toc}{\contentsline {section}{\numberline {1}Einleitung}{1}{}\protected@file@percent }
\@writefile{toc}{\contentsline {section}{\numberline {2}Versuchsaufbau und Durchführung}{1}{}\protected@file@percent }
\@writefile{lof}{\contentsline {figure}{\numberline {1}{\ignorespaces Aufbau des Versuches}}{1}{}\protected@file@percent }
\@writefile{toc}{\contentsline {section}{\numberline {3}Theorie}{2}{}\protected@file@percent }
\@writefile{toc}{\contentsline {subsection}{\numberline {3.1}Röntgenröhre}{2}{}\protected@file@percent }
\@writefile{lof}{\contentsline {figure}{\numberline {2}{\ignorespaces Röntgenröhre}}{2}{}\protected@file@percent }
\@writefile{toc}{\contentsline {subsection}{\numberline {3.2}Röntgenenergiedetektor}{2}{}\protected@file@percent }
\@writefile{lof}{\contentsline {figure}{\numberline {3}{\ignorespaces p- und n-Halbleiter}}{3}{}\protected@file@percent }
\@writefile{toc}{\contentsline {section}{\numberline {4}Messprotokoll}{3}{}\protected@file@percent }
\@writefile{toc}{\contentsline {section}{\numberline {5}Auswertung}{3}{}\protected@file@percent }
\@writefile{toc}{\contentsline {section}{\numberline {6}Diskussion}{4}{}\protected@file@percent }
\@writefile{toc}{\contentsline {section}{\numberline {7}Anhang}{5}{}\protected@file@percent }
\newlabel{diagramm1}{{7}{11}}
\@writefile{lof}{\contentsline {figure}{\numberline {4}{\ignorespaces Auswertung für $E_\alpha $}}{11}{}\protected@file@percent }
\newlabel{diagramm2}{{7}{12}}
\@writefile{lof}{\contentsline {figure}{\numberline {5}{\ignorespaces Auswertung für $E_\beta $}}{12}{}\protected@file@percent }
\gdef \@abspage@last{13}
