\babel@toc {ngerman}{}\relax 
\contentsline {section}{\numberline {1}Einleitung}{1}{}%
\contentsline {section}{\numberline {2}Versuchsaufbau und Durchführung}{1}{}%
\contentsline {section}{\numberline {3}Theorie}{2}{}%
\contentsline {subsection}{\numberline {3.1}Röntgenröhre}{2}{}%
\contentsline {subsection}{\numberline {3.2}Röntgenenergiedetektor}{2}{}%
\contentsline {section}{\numberline {4}Messprotokoll}{3}{}%
\contentsline {section}{\numberline {5}Auswertung}{3}{}%
\contentsline {section}{\numberline {6}Diskussion}{4}{}%
\contentsline {section}{\numberline {7}Anhang}{5}{}%
