# Fdb version 3
["pdflatex"] 1635920573 "c:/Users/Admin/Desktop/PAP2/256 Versuch/Versuch256.tex" "Versuch256.pdf" "Versuch256" 1635920574
  "C:/Users/Admin/AppData/Local/MiKTeX/fonts/pk/ljfour/jknappen/ec/dpi600/tcrm1000.pk" 1635752970 11548 2000bdd7d266b59216b3227e841b393c ""
  "C:/Users/Admin/AppData/Local/MiKTeX/miktex/data/le/pdftex/pdflatex.fmt" 1635749778 9726367 eea4d51d2ad747fd44ac60e9e2972058 ""
  "C:/Users/Admin/AppData/Local/MiKTeX/pdftex/config/pdftex.map" 1635787686 81107 70b8516c68c2e617189c5e44bfd16b96 ""
  "C:/Users/Admin/AppData/Local/Programs/MiKTeX/fonts/tfm/jknappen/ec/tcrm1000.tfm" 993058908 1436 c7f957a372ef2fbe93c0982f96625e12 ""
  "C:/Users/Admin/AppData/Local/Programs/MiKTeX/fonts/tfm/public/amsfonts/cmextra/cmex7.tfm" 1233951848 1004 54797486969f23fa377b128694d548df ""
  "C:/Users/Admin/AppData/Local/Programs/MiKTeX/fonts/tfm/public/amsfonts/cmextra/cmex8.tfm" 1233951848 988 bdf658c3bfc2d96d3c8b02cfc1c94c20 ""
  "C:/Users/Admin/AppData/Local/Programs/MiKTeX/fonts/tfm/public/amsfonts/symbols/msam10.tfm" 1233951854 916 f87d7c45f9c908e672703b83b72241a3 ""
  "C:/Users/Admin/AppData/Local/Programs/MiKTeX/fonts/tfm/public/amsfonts/symbols/msam5.tfm" 1233951854 924 9904cf1d39e9767e7a3622f2a125a565 ""
  "C:/Users/Admin/AppData/Local/Programs/MiKTeX/fonts/tfm/public/amsfonts/symbols/msam7.tfm" 1233951854 928 2dc8d444221b7a635bb58038579b861a ""
  "C:/Users/Admin/AppData/Local/Programs/MiKTeX/fonts/tfm/public/amsfonts/symbols/msbm10.tfm" 1233951854 908 2921f8a10601f252058503cc6570e581 ""
  "C:/Users/Admin/AppData/Local/Programs/MiKTeX/fonts/tfm/public/amsfonts/symbols/msbm5.tfm" 1233951854 940 75ac932a52f80982a9f8ea75d03a34cf ""
  "C:/Users/Admin/AppData/Local/Programs/MiKTeX/fonts/tfm/public/amsfonts/symbols/msbm7.tfm" 1233951854 940 228d6584342e91276bf566bcf9716b83 ""
  "C:/Users/Admin/AppData/Local/Programs/MiKTeX/fonts/tfm/public/cm/cmbx10.tfm" 1136765053 1328 c834bbb027764024c09d3d2bf908b5f0 ""
  "C:/Users/Admin/AppData/Local/Programs/MiKTeX/fonts/tfm/public/cm/cmbx12.tfm" 1136765053 1324 c910af8c371558dc20f2d7822f66fe64 ""
  "C:/Users/Admin/AppData/Local/Programs/MiKTeX/fonts/tfm/public/cm/cmex10.tfm" 1136765053 992 662f679a0b3d2d53c1b94050fdaa3f50 ""
  "C:/Users/Admin/AppData/Local/Programs/MiKTeX/fonts/tfm/public/cm/cmmi12.tfm" 1136765053 1524 4414a8315f39513458b80dfc63bff03a ""
  "C:/Users/Admin/AppData/Local/Programs/MiKTeX/fonts/tfm/public/cm/cmmi6.tfm" 1136765053 1512 f21f83efb36853c0b70002322c1ab3ad ""
  "C:/Users/Admin/AppData/Local/Programs/MiKTeX/fonts/tfm/public/cm/cmmi8.tfm" 1136765053 1520 eccf95517727cb11801f4f1aee3a21b4 ""
  "C:/Users/Admin/AppData/Local/Programs/MiKTeX/fonts/tfm/public/cm/cmr12.tfm" 1136765053 1288 655e228510b4c2a1abe905c368440826 ""
  "C:/Users/Admin/AppData/Local/Programs/MiKTeX/fonts/tfm/public/cm/cmr17.tfm" 1136765053 1292 296a67155bdbfc32aa9c636f21e91433 ""
  "C:/Users/Admin/AppData/Local/Programs/MiKTeX/fonts/tfm/public/cm/cmr6.tfm" 1136765053 1300 b62933e007d01cfd073f79b963c01526 ""
  "C:/Users/Admin/AppData/Local/Programs/MiKTeX/fonts/tfm/public/cm/cmr8.tfm" 1136765053 1292 21c1c5bfeaebccffdb478fd231a0997d ""
  "C:/Users/Admin/AppData/Local/Programs/MiKTeX/fonts/tfm/public/cm/cmsy10.tfm" 1136765053 1124 6c73e740cf17375f03eec0ee63599741 ""
  "C:/Users/Admin/AppData/Local/Programs/MiKTeX/fonts/tfm/public/cm/cmsy6.tfm" 1136765053 1116 933a60c408fc0a863a92debe84b2d294 ""
  "C:/Users/Admin/AppData/Local/Programs/MiKTeX/fonts/tfm/public/cm/cmsy8.tfm" 1136765053 1120 8b7d695260f3cff42e636090a8002094 ""
  "C:/Users/Admin/AppData/Local/Programs/MiKTeX/fonts/type1/public/amsfonts/cm/cmbx10.pfb" 1247593066 34811 78b52f49e893bcba91bd7581cdc144c0 ""
  "C:/Users/Admin/AppData/Local/Programs/MiKTeX/fonts/type1/public/amsfonts/cm/cmbx12.pfb" 1247593066 32080 340ef9bf63678554ee606688e7b5339d ""
  "C:/Users/Admin/AppData/Local/Programs/MiKTeX/fonts/type1/public/amsfonts/cm/cmex10.pfb" 1247593067 30251 6afa5cb1d0204815a708a080681d4674 ""
  "C:/Users/Admin/AppData/Local/Programs/MiKTeX/fonts/type1/public/amsfonts/cm/cmmi10.pfb" 1247593067 36299 5f9df58c2139e7edcf37c8fca4bd384d ""
  "C:/Users/Admin/AppData/Local/Programs/MiKTeX/fonts/type1/public/amsfonts/cm/cmmi7.pfb" 1247593067 36281 c355509802a035cadc5f15869451dcee ""
  "C:/Users/Admin/AppData/Local/Programs/MiKTeX/fonts/type1/public/amsfonts/cm/cmr10.pfb" 1247593067 35752 024fb6c41858982481f6968b5fc26508 ""
  "C:/Users/Admin/AppData/Local/Programs/MiKTeX/fonts/type1/public/amsfonts/cm/cmr12.pfb" 1247593067 32722 d7379af29a190c3f453aba36302ff5a9 ""
  "C:/Users/Admin/AppData/Local/Programs/MiKTeX/fonts/type1/public/amsfonts/cm/cmr17.pfb" 1247593066 32362 bc3f3eec7ab7d65fe700963d4017d32c ""
  "C:/Users/Admin/AppData/Local/Programs/MiKTeX/fonts/type1/public/amsfonts/cm/cmr7.pfb" 1247593067 32762 7fee39e011c23b3589931effd97b9702 ""
  "C:/Users/Admin/AppData/Local/Programs/MiKTeX/fonts/type1/public/amsfonts/cm/cmsy10.pfb" 1247593067 32569 5e5ddc8df908dea60932f3c484a54c0d ""
  "C:/Users/Admin/AppData/Local/Programs/MiKTeX/fonts/type1/public/amsfonts/cm/cmsy7.pfb" 1247593066 32716 08e384dc442464e7285e891af9f45947 ""
  "C:/Users/Admin/AppData/Local/Programs/MiKTeX/tex/context/base/mkii/supp-pdf.mkii" 1580390158 71627 94eb9990bed73c364d7f53f960cc8c5b ""
  "C:/Users/Admin/AppData/Local/Programs/MiKTeX/tex/generic/babel/babel.sty" 1634653529 146892 a86ea34d700e7e808b2577dcfd7592cc ""
  "C:/Users/Admin/AppData/Local/Programs/MiKTeX/tex/generic/babel/txtbabel.def" 1634653529 5233 a89961f969f72563cb59411e9dc4ae8e ""
  "C:/Users/Admin/AppData/Local/Programs/MiKTeX/tex/generic/iftex/iftex.sty" 1583523400 6501 4011d89d9621e0b0901138815ba5ff29 ""
  "C:/Users/Admin/AppData/Local/Programs/MiKTeX/tex/latex/00miktex/epstopdf-sys.cfg" 1616067285 584 2a1075dd71571459f59146da9f7502ad ""
  "C:/Users/Admin/AppData/Local/Programs/MiKTeX/tex/latex/amsfonts/amsfonts.sty" 1358197772 5949 3f3fd50a8cc94c3d4cbf4fc66cd3df1c ""
  "C:/Users/Admin/AppData/Local/Programs/MiKTeX/tex/latex/amsfonts/amssymb.sty" 1358197772 13829 94730e64147574077f8ecfea9bb69af4 ""
  "C:/Users/Admin/AppData/Local/Programs/MiKTeX/tex/latex/amsfonts/umsa.fd" 1358197772 961 6518c6525a34feb5e8250ffa91731cff ""
  "C:/Users/Admin/AppData/Local/Programs/MiKTeX/tex/latex/amsfonts/umsb.fd" 1358197772 961 d02606146ba5601b5645f987c92e6193 ""
  "C:/Users/Admin/AppData/Local/Programs/MiKTeX/tex/latex/amsmath/amsbsy.sty" 1622995595 2222 da905dc1db75412efd2d8f67739f0596 ""
  "C:/Users/Admin/AppData/Local/Programs/MiKTeX/tex/latex/amsmath/amsgen.sty" 1622995596 4173 bc0410bcccdff806d6132d3c1ef35481 ""
  "C:/Users/Admin/AppData/Local/Programs/MiKTeX/tex/latex/amsmath/amsmath.sty" 1622995597 87375 a806706bbc32b3e8482f6d87aeffbf76 ""
  "C:/Users/Admin/AppData/Local/Programs/MiKTeX/tex/latex/amsmath/amsopn.sty" 1622995597 4128 c11da5c2df397f39d5783fc9307689d0 ""
  "C:/Users/Admin/AppData/Local/Programs/MiKTeX/tex/latex/amsmath/amstext.sty" 1622995597 2444 b015525572ea0d0165d6ce81ba5e5259 ""
  "C:/Users/Admin/AppData/Local/Programs/MiKTeX/tex/latex/arabi/bblopts.cfg" 1139961600 902 c30e5c373bc58bde21f8f63a3091626f ""
  "C:/Users/Admin/AppData/Local/Programs/MiKTeX/tex/latex/babel-german/ngerman.ldf" 1614782471 2289 b1d356015c8fd065cb4437d567449559 ""
  "C:/Users/Admin/AppData/Local/Programs/MiKTeX/tex/latex/babel-german/ngermanb.ldf" 1614782471 7752 76871ff65dd4689e1a548995ac96d8c3 ""
  "C:/Users/Admin/AppData/Local/Programs/MiKTeX/tex/latex/base/article.cls" 1623738100 20144 0fe9067680219956678b52f12bdce8ee ""
  "C:/Users/Admin/AppData/Local/Programs/MiKTeX/tex/latex/base/ifthen.sty" 1623738100 5157 f308c7c04889e16c588e78aa42599fae ""
  "C:/Users/Admin/AppData/Local/Programs/MiKTeX/tex/latex/base/size10.clo" 1623738100 8448 05e1c6a8fc5db344ed9d7aeb299acbce ""
  "C:/Users/Admin/AppData/Local/Programs/MiKTeX/tex/latex/epstopdf-pkg/epstopdf-base.sty" 1622999586 13886 d1306dcf79a944f6988e688c1785f9ce ""
  "C:/Users/Admin/AppData/Local/Programs/MiKTeX/tex/latex/eso-pic/eso-pic.sty" 1607182970 11772 8d0db0794e6aeb45348f60bbe3a3e093 ""
  "C:/Users/Admin/AppData/Local/Programs/MiKTeX/tex/latex/fancyhdr/fancyhdr.sty" 1612001844 17086 7ed8cbc4d361ec87392817e0dd4f65ec ""
  "C:/Users/Admin/AppData/Local/Programs/MiKTeX/tex/latex/graphics-cfg/color.cfg" 1465890692 1213 620bba36b25224fa9b7e1ccb4ecb76fd ""
  "C:/Users/Admin/AppData/Local/Programs/MiKTeX/tex/latex/graphics-cfg/graphics.cfg" 1465890692 1224 978390e9c2234eab29404bc21b268d1e ""
  "C:/Users/Admin/AppData/Local/Programs/MiKTeX/tex/latex/graphics-def/pdftex.def" 1622558694 19103 48d29b6e2a64cb717117ef65f107b404 ""
  "C:/Users/Admin/AppData/Local/Programs/MiKTeX/tex/latex/graphics/graphics.sty" 1622999725 18399 7e40f80366dffb22c0e7b70517db5cb4 ""
  "C:/Users/Admin/AppData/Local/Programs/MiKTeX/tex/latex/graphics/graphicx.sty" 1622999725 7972 81ea1752666dc7c1e93f0b4c10665ca1 ""
  "C:/Users/Admin/AppData/Local/Programs/MiKTeX/tex/latex/graphics/keyval.sty" 1622999725 2671 4de6781a30211fe0ea4c672e4a2a8166 ""
  "C:/Users/Admin/AppData/Local/Programs/MiKTeX/tex/latex/graphics/lscape.sty" 1622999725 1808 e22d55a4f66156801447813626bd4159 ""
  "C:/Users/Admin/AppData/Local/Programs/MiKTeX/tex/latex/graphics/trig.sty" 1622999725 4007 3bccccf8f35e1bc1ef0f7c55ceeb7713 ""
  "C:/Users/Admin/AppData/Local/Programs/MiKTeX/tex/latex/l3backend/l3backend-pdftex.def" 1634573416 29971 6c47712bf4bc87d15b2ca318615f75a3 ""
  "C:/Users/Admin/AppData/Local/Programs/MiKTeX/tex/latex/pdflscape/pdflscape.sty" 1575571226 6575 25396d208d8f2b9395d06ef315d5886c ""
  "C:/Users/Admin/AppData/Local/Programs/MiKTeX/tex/latex/pdfpages/pdfpages.sty" 1615069272 54497 58ccf247b8e81d55ca6f10c5082d335f ""
  "C:/Users/Admin/AppData/Local/Programs/MiKTeX/tex/latex/pdfpages/pppdftex.def" 1615069272 6591 7d4f68a47a8f9dceeb2327354264a7a7 ""
  "C:/Users/Admin/AppData/Local/Programs/MiKTeX/tex/latex/tools/calc.sty" 1622546726 10214 00ce62e730d0cfe22b35e8f1c84949c7 ""
  "C:/Users/Admin/AppData/Local/Programs/MiKTeX/tex/latex/wrapfig/wrapfig.sty" 1044403200 26220 3701aebf80ccdef248c0c20dd062fea9 ""
  "C:/Users/Admin/AppData/Local/Programs/MiKTeX/tex/latex/xcolor/xcolor.sty" 1623002060 55589 34128738f682d033422ca125f82e5d62 ""
  "Diagramm1.pdf" 1635878966 23113 8e152fff79a6b1ca1d5352ab66d962b0 ""
  "Diagramm2.pdf" 1635917661 23085 3887b87e3ed490c14d93f2f778be3b03 ""
  "Versuch256.aux" 1635920574 1743 6f5c814189534b9762f7fcebbe2d1f4a "pdflatex"
  "Versuch256.tex" 1635920572 9380 d4d28008ea6abb41f91f9fa096fe366e ""
  "Versuch256.toc" 1635920574 588 d0bb5b9cb7e97b0c83d37082c2d7e221 "pdflatex"
  "c:/Users/Admin/Desktop/PAP2/256 Versuch/Versuch256.tex" 1635920572 9380 d4d28008ea6abb41f91f9fa096fe366e ""
  "images/Messprotokoll.pdf" 1635873773 8037732 c0346d63230b750bc285a137df609360 ""
  "images/aufbau.png" 1635752812 469402 e95724e31f9597d84b91b042687231ed ""
  "images/energiedetektor.png" 1635756800 27339 39e18020df568037f02e516742f0e83a ""
  "images/rontgenrohre.png" 1635753174 19542 b2be147b3dcfcd096250927707664225 ""
  (generated)
  "Versuch256.aux"
  "Versuch256.pdf"
  "Versuch256.log"
  "Versuch256.toc"
