8,000	264,200
8,100	252,200
8,200	249,800
8,300	253,800
8,400	245,200
8,500	243,600
8,600	242,200
8,700	245,800
8,800	311,200
8,900	402,000
9,000	651,000
9,100	626,000
9,200	452,000
9,300	282,600
9,400	254,000
9,500	247,400
9,600	243,200
9,700	253,600
9,800	251,000
9,900	272,400
10,000	450,200
10,100	1297,200
10,200	1662,600
10,300	1356,000
10,400	651,800
10,500	278,000
10,600	236,600
10,700	233,000
10,800	211,600
10,900	219,200
11,000	213,200
11,100	205,800
11,200	193,400
11,300	194,200
11,400	192,600
11,500	199,200
