3,000	17,000
3,200	15,600
3,400	18,400
3,600	18,200
3,800	19,400
4,000	25,200
4,200	27,000
4,400	25,200
4,600	32,400
4,800	34,600
5,000	38,600
5,200	93,400
5,400	142,200
5,600	170,400
5,800	209,200
6,000	225,800
6,200	239,000
6,400	247,400
6,600	264,200
6,800	261,800
7,000	260,200
7,200	258,800
7,400	269,000
7,600	263,600
7,800	254,200
8,000	259,400
8,200	250,800
8,400	241,600
8,600	251,200
8,800	297,200
9,000	658,200
9,200	452,400
9,400	272,800
9,600	257,400
9,800	258,800
10,000	454,000
10,200	1699,600
10,400	623,200
10,600	232,400
10,800	206,800
11,000	201,800
11,200	207,400
11,400	194,800
11,600	185,600
11,800	187,600
12,000	169,000
12,200	160,400
12,400	160,200
12,600	160,200
12,800	156,600
13,000	151,600
13,200	142,600
13,400	127,000
13,600	116,800
13,800	111,400
14,000	114,800
14,200	101,600
14,400	104,800
14,600	95,600
14,800	99,400
15,000	95,600
15,200	90,200
15,400	83,600
15,600	87,200
15,800	84,000
16,000	78,000
16,200	84,800
16,400	76,400
16,600	79,000
16,800	70,200
17,000	69,800
17,200	72,000
17,400	67,800
17,600	66,600
17,800	75,400
18,000	76,200
18,200	98,400
18,400	106,800
18,600	66,200
18,800	69,000
19,000	68,600
19,200	69,000
19,400	59,200
19,600	64,000
19,800	63,000
20,000	66,600
20,200	62,400
20,400	72,000
20,600	228,600
20,800	222,200
21,000	76,400
21,200	60,000
21,400	59,200
21,600	54,200
21,800	51,600
22,000	55,400
