Winkel	Zählrate
3,000	11,000
3,200	8,400
3,400	26,400
3,600	117,000
3,800	260,200
4,000	374,200
4,200	460,600
4,400	515,400
4,600	558,800
4,800	571,600
5,000	555,800
5,200	562,600
5,400	550,000
5,600	507,800
5,800	476,600
6,000	467,600
6,200	648,800
6,400	995,800
6,600	524,000
6,800	440,000
7,000	981,400
7,200	2049,000
7,400	768,400
7,600	336,800
7,800	307,800
8,000	282,600
8,200	258,800
8,400	248,000
8,600	243,600
8,800	213,000
9,000	193,000
9,200	172,200
9,400	149,400
9,600	131,000
9,800	124,400
10,000	116,200
10,200	110,400
10,400	98,000
10,600	95,400
10,800	89,200
11,000	93,800
11,200	80,800
11,400	88,600
11,600	72,800
11,800	80,800
12,000	76,600
12,200	72,200
12,400	70,600
12,600	91,000
12,800	176,000
13,000	165,800
13,200	73,200
13,400	66,000
13,600	61,400
13,800	67,600
14,000	70,400
14,200	78,200
14,400	297,200
14,600	521,000
14,800	95,200
15,000	62,200
15,200	61,800
15,400	54,800
15,600	53,600
15,800	51,400
16,000	46,800
16,200	46,600
16,400	45,600
16,600	45,800
16,800	40,400
17,000	39,400
17,200	39,200
17,400	39,800
17,600	41,400
17,800	37,600
18,000	35,800
